HVIT004249-PA	Scaffold59	95.08	61	3	0	126	186	1146150	1146332	2e-30	125
HVIT004249-PA	Scaffold59	100.00	42	0	0	1	42	1134137	1134262	5e-20	94.7
HVIT004249-PA	Scaffold59	100.00	53	0	0	78	130	1143527	1143685	6e-16	82.4
HVIT004249-PA	Scaffold59	92.11	38	3	0	40	77	1134485	1134598	5e-14	76.6
HVIT004249-PA	Scaffold981	42.50	40	23	0	146	185	196590	196709	0.019	40.8
HVIT004249-PA	Scaffold981	57.69	26	11	0	150	175	198945	199022	0.41	37.0
HVIT004249-PA	Scaffold981	44.74	38	17	1	138	175	197997	198098	0.44	37.0
HVIT004249-PA	Scaffold981	57.69	26	11	0	150	175	198441	198518	0.83	35.8
HVIT004249-PA	Scaffold981	57.14	28	12	0	148	175	194832	194915	1.0	35.8
HVIT004249-PA	Scaffold981	53.85	26	12	0	150	175	194586	194663	4.4	33.9
HVIT004249-PA	Scaffold981	48.15	27	14	0	148	174	195420	195500	9.8	32.7
HVIT004249-PA	Scaffold25	38.00	50	19	1	123	172	1446971	1446858	0.050	39.7
HVIT004249-PA	Scaffold25	35.85	53	22	1	123	175	1448084	1447962	1.0	35.8
HVIT004249-PA	Scaffold750	41.51	53	29	1	125	175	343065	342907	0.16	38.1
HVIT004249-PA	Scaffold21	62.96	27	9	1	148	173	2949452	2949532	0.18	38.1
HVIT004249-PA	Scaffold21	35.71	42	27	0	140	181	1308935	1309060	2.6	34.3
HVIT004249-PA	Scaffold21	30.61	49	30	1	122	170	1362739	1362873	7.5	33.1
HVIT004249-PA	Scaffold21	52.00	25	12	0	150	174	2800066	2800140	9.4	32.7
HVIT004249-PA	Scaffold21	39.29	28	17	0	149	176	2699597	2699680	9.8	32.7
HVIT004249-PA	Scaffold33	37.84	37	23	0	148	184	615222	615112	0.27	37.4
HVIT004249-PA	Scaffold589	56.00	25	11	0	150	174	5555	5481	0.31	37.4
HVIT004249-PA	Scaffold828	46.67	30	16	0	144	173	268110	268021	0.47	36.6
HVIT004249-PA	Scaffold170	57.14	28	12	0	148	175	2263874	2263957	0.56	36.6
HVIT004249-PA	Scaffold362	53.57	28	13	0	146	173	304853	304936	0.57	36.6
HVIT004249-PA	Scaffold362	20.91	110	61	3	65	174	297553	297804	2.1	34.7
HVIT004249-PA	Scaffold39	56.00	25	11	0	151	175	2887575	2887649	0.77	36.2
HVIT004249-PA	Scaffold358	51.85	27	13	0	148	174	848194	848274	1.3	35.4
HVIT004249-PA	Scaffold358	50.00	26	13	0	150	175	848467	848544	1.5	35.0
HVIT004249-PA	Scaffold358	46.43	28	15	0	148	175	848377	848460	5.5	33.5
HVIT004249-PA	Scaffold131	36.00	50	20	1	124	173	2105371	2105258	1.3	35.4
HVIT004249-PA	Scaffold131	43.33	30	17	0	146	175	2105179	2105090	1.3	35.4
HVIT004249-PA	Scaffold131	28.17	71	34	1	122	175	2106049	2105837	6.9	33.1
HVIT004249-PA	Scaffold14	36.36	44	25	1	144	184	1595509	1595640	1.6	35.0
HVIT004249-PA	Scaffold1083	48.48	33	16	1	145	177	175084	174989	1.7	35.0
HVIT004249-PA	Scaffold3	29.41	51	36	0	125	175	7841839	7841687	1.9	35.0
HVIT004249-PA	Scaffold19	41.18	34	20	0	142	175	1878839	1878738	2.1	34.7
HVIT004249-PA	Scaffold457	51.61	31	15	0	143	173	2090826	2090734	2.3	34.7
HVIT004249-PA	Scaffold643	41.94	31	18	0	146	176	90528	90436	2.9	34.3
HVIT004249-PA	Scaffold20	44.00	25	14	0	152	176	3464945	3465019	3.0	34.3
HVIT004249-PA	Scaffold55	35.71	42	23	1	133	174	1862997	1862884	3.3	34.3
HVIT004249-PA	Scaffold349	37.14	35	22	0	143	177	156832	156728	3.4	33.9
HVIT004249-PA	Scaffold1858	50.00	28	14	0	148	175	101166	101083	3.7	33.9
HVIT004249-PA	Scaffold321	48.15	27	14	0	148	174	324800	324880	3.8	33.9
HVIT004249-PA	Scaffold714	53.85	26	12	0	150	175	188744	188667	3.8	33.9
HVIT004249-PA	Scaffold61	41.94	31	18	0	152	182	3739531	3739623	3.9	33.9
HVIT004249-PA	Scaffold654	30.19	53	29	1	123	175	272426	272560	4.5	33.9
HVIT004249-PA	Scaffold353	46.67	30	16	0	146	175	919647	919558	4.8	33.5
HVIT004249-PA	Scaffold261	29.63	54	32	1	129	176	781328	781489	6.0	33.5
HVIT004249-PA	Scaffold452	48.28	29	15	0	143	171	767117	767031	6.1	33.1
HVIT004249-PA	Scaffold452	51.85	27	13	0	149	175	766763	766683	8.2	32.7
HVIT004249-PA	Scaffold223	37.21	43	27	0	133	175	911366	911238	6.8	33.1
HVIT004249-PA	Scaffold339	48.15	27	14	0	147	173	95579	95499	7.5	33.1
HVIT004249-PA	Scaffold111	53.85	26	12	0	150	175	935929	936006	8.6	32.7
