HVIT007640-PA	Scaffold151	100.00	112	0	0	1	112	3019899	3019564	5e-68	239
HVIT007640-PA	Scaffold151	100.00	97	0	0	161	257	3017531	3017241	2e-52	194
HVIT007640-PA	Scaffold151	88.89	45	3	1	108	150	3018649	3018515	8e-14	77.8
HVIT007640-PA	Scaffold151	100.00	31	0	0	281	311	3015734	3015642	2e-09	64.7
HVIT007640-PA	Scaffold556	35.79	95	56	1	8	97	878583	878867	6e-07	56.6
HVIT007640-PA	Scaffold556	34.57	81	49	2	2	79	871895	872134	0.13	40.0
HVIT007640-PA	Scaffold638	32.04	103	61	4	32	131	590044	589754	4e-04	48.1
HVIT007640-PA	Scaffold638	25.93	81	58	2	39	117	589711	589469	0.28	38.9
HVIT007640-PA	Scaffold638	30.43	92	60	4	23	111	589603	589331	1.0	37.0
HVIT007640-PA	Scaffold15864	40.38	52	23	2	6	57	3966	3835	0.70	37.7
HVIT016362-PA	Scaffold556	90.91	55	5	0	38	92	871967	872131	1e-25	111
HVIT016362-PA	Scaffold556	97.96	49	1	0	89	137	873649	873795	2e-22	102
HVIT016362-PA	Scaffold556	76.00	50	12	0	1	50	870431	870580	2e-15	81.3
HVIT016362-PA	Scaffold556	98.28	58	1	0	137	194	874584	874757	6e-11	67.4
HVIT016362-PA	Scaffold556	37.74	53	32	1	37	88	878640	878798	0.003	43.5
HVIT016362-PA	Scaffold1218	37.93	58	29	2	84	140	210968	211123	0.83	36.2
HVIT016362-PA	Scaffold151	33.33	54	35	1	36	88	3019839	3019678	1.9	35.0
HVIT016362-PA	Scaffold638	41.67	36	21	0	53	88	589711	589604	2.1	35.0
HVIT016363-PA	Scaffold556	70.09	234	7	2	79	249	879951	880652	6e-76	262
HVIT016363-PA	Scaffold556	100.00	77	0	0	2	78	878643	878873	4e-43	167
HVIT016363-PA	Scaffold556	100.00	70	0	0	240	309	881234	881443	8e-38	151
HVIT016363-PA	Scaffold556	35.85	53	33	1	1	53	871964	872119	0.012	43.1
HVIT016363-PA	Scaffold556	70.83	24	6	1	199	222	426175	426243	1.8	36.2
HVIT016363-PA	Scaffold27960	69.23	52	16	0	200	251	7781	7936	2e-11	70.5
HVIT016363-PA	Scaffold856	58.73	63	19	1	198	253	224141	224329	1e-10	68.2
HVIT016363-PA	Scaffold9	67.31	52	17	0	200	251	1145190	1145345	2e-10	67.0
HVIT016363-PA	Scaffold9	65.62	32	10	1	193	224	4138087	4138179	0.064	40.8
HVIT016363-PA	Scaffold9	65.62	32	10	1	193	224	4152841	4152933	0.064	40.8
HVIT016363-PA	Scaffold9	54.55	33	15	0	200	232	4151808	4151906	1.2	37.0
HVIT016363-PA	Scaffold148	82.05	39	7	0	200	238	202216	202332	4e-10	66.6
HVIT016363-PA	Scaffold148	75.00	40	10	0	195	234	617084	616965	9e-09	62.4
HVIT016363-PA	Scaffold148	71.43	21	6	0	201	221	202796	202734	7.0	34.3
HVIT016363-PA	Scaffold721	77.27	44	10	0	198	241	416151	416020	5e-10	66.2
HVIT016363-PA	Scaffold786	66.67	57	16	1	189	245	376113	376274	5e-10	66.2
HVIT016363-PA	Scaffold786	74.36	39	10	0	200	238	577457	577573	3e-07	57.8
HVIT016363-PA	Scaffold339	80.00	40	8	0	199	238	1597243	1597124	6e-10	65.9
HVIT016363-PA	Scaffold339	68.00	25	8	0	200	224	1886954	1886880	0.016	36.6
HVIT016363-PA	Scaffold339	85.71	14	2	0	225	238	1886881	1886840	0.016	25.0
HVIT016363-PA	Scaffold339	50.00	50	16	1	209	249	1249633	1249782	1.3	36.6
HVIT016363-PA	Scaffold339	35.53	76	48	1	201	276	1263468	1263244	3.7	35.4
HVIT016363-PA	Scaffold804	66.00	50	17	0	200	249	173808	173659	2e-09	64.7
HVIT016363-PA	Scaffold189	60.34	58	9	1	181	238	2213351	2213482	2e-09	64.7
HVIT016363-PA	Scaffold189	60.47	43	16	1	200	241	383811	383683	0.002	45.4
HVIT016363-PA	Scaffold189	62.00	50	19	0	200	249	1173054	1172905	0.024	42.4
HVIT016363-PA	Scaffold189	73.91	23	6	0	201	223	1170332	1170400	0.38	38.5
HVIT016363-PA	Scaffold189	50.00	48	15	1	194	241	661366	661482	0.95	37.4
HVIT016363-PA	Scaffold189	57.14	28	12	0	194	221	2038699	2038616	2.9	35.4
HVIT016363-PA	Scaffold61	49.35	77	36	1	199	272	3800461	3800691	3e-09	63.9
HVIT016363-PA	Scaffold61	72.41	29	8	0	196	224	3643354	3643440	8e-05	45.1
HVIT016363-PA	Scaffold61	91.67	12	1	0	226	237	3643448	3643483	8e-05	24.6
HVIT016363-PA	Scaffold61	66.67	39	13	0	200	238	3123505	3123389	6e-04	47.4
HVIT016363-PA	Scaffold61	71.43	28	8	0	201	228	1171578	1171495	0.002	39.3
HVIT016363-PA	Scaffold61	65.00	20	7	0	226	245	1171502	1171443	0.002	25.4
HVIT016363-PA	Scaffold61	58.33	24	10	0	200	223	195839	195768	3.0	30.4
HVIT016363-PA	Scaffold61	69.23	13	4	0	226	238	195763	195725	3.0	23.1
HVIT016363-PA	Scaffold100	76.92	39	9	0	200	238	272380	272496	4e-09	63.5
HVIT016363-PA	Scaffold560	63.46	52	19	0	199	250	730305	730150	5e-09	63.2
HVIT016363-PA	Scaffold560	80.00	25	5	0	200	224	367585	367511	0.017	42.7
HVIT016363-PA	Scaffold55074	72.09	43	12	0	196	238	651	523	6e-09	62.4
HVIT016363-PA	Scaffold19	59.62	52	21	0	198	249	4459782	4459627	6e-09	62.8
HVIT016363-PA	Scaffold19	79.41	34	7	0	200	233	3948633	3948532	2e-07	58.5
HVIT016363-PA	Scaffold19	50.00	42	19	1	199	238	2155900	2155775	3.0	35.4
HVIT016363-PA	Scaffold158	64.71	51	18	0	199	249	1340206	1340054	8e-09	62.4
HVIT016363-PA	Scaffold158	51.52	33	16	0	192	224	508566	508664	0.13	40.0
HVIT016363-PA	Scaffold137	64.71	51	18	0	199	249	2533144	2532992	9e-09	62.4
HVIT016363-PA	Scaffold137	63.46	52	19	0	198	249	753589	753434	1e-06	56.2
HVIT016363-PA	Scaffold137	62.07	29	10	1	192	220	1211731	1211814	0.11	34.3
HVIT016363-PA	Scaffold137	73.33	15	4	0	221	235	1211795	1211839	0.11	24.6
HVIT016363-PA	Scaffold137	69.23	26	8	0	199	224	1265205	1265282	0.12	40.0
HVIT016363-PA	Scaffold417	76.32	38	9	0	200	237	678764	678651	1e-08	62.0
HVIT016363-PA	Scaffold195	68.09	47	15	0	199	245	1800766	1800906	2e-08	61.2
HVIT016363-PA	Scaffold195	60.42	48	19	0	194	241	841935	841792	1e-07	58.9
HVIT016363-PA	Scaffold195	60.00	50	20	0	200	249	1436776	1436925	4e-06	54.3
HVIT016363-PA	Scaffold199	76.92	39	9	0	200	238	169046	169162	2e-08	61.2
HVIT016363-PA	Scaffold199	69.23	26	8	0	199	224	2147160	2147237	0.56	37.7
HVIT016363-PA	Scaffold214	67.39	46	15	0	194	239	1193418	1193281	4e-08	60.1
HVIT016363-PA	Scaffold214	68.00	25	8	0	200	224	831654	831728	0.25	38.9
HVIT016363-PA	Scaffold75	77.50	40	8	1	200	239	1351666	1351550	5e-08	60.1
HVIT016363-PA	Scaffold75	80.00	20	4	0	199	218	1069290	1069349	9.4	33.9
HVIT016363-PA	Scaffold428	64.00	50	18	0	200	249	1851445	1851296	6e-08	60.1
HVIT016363-PA	Scaffold428	70.83	24	7	0	198	221	51887	51816	0.40	38.5
HVIT016363-PA	Scaffold428	60.00	25	10	0	200	224	609786	609860	9.9	28.9
HVIT016363-PA	Scaffold428	66.67	15	5	0	224	238	609851	609895	9.9	22.3
HVIT016363-PA	Scaffold4	72.50	40	11	0	199	238	5017592	5017473	7e-08	59.7
HVIT016363-PA	Scaffold4	71.79	39	11	0	200	238	3698751	3698867	6e-07	56.6
HVIT016363-PA	Scaffold4	61.11	36	14	0	199	234	1593089	1592982	0.003	45.1
HVIT016363-PA	Scaffold4	67.74	31	10	0	200	230	5844809	5844901	0.004	43.5
HVIT016363-PA	Scaffold4	45.00	20	11	0	233	252	5844904	5844963	0.004	20.4
HVIT016363-PA	Scaffold4	44.23	52	25	2	174	224	7385689	7385835	0.30	38.9
HVIT016363-PA	Scaffold4	51.28	39	19	0	200	238	5019028	5019144	0.34	38.5
HVIT016363-PA	Scaffold4	55.00	40	14	1	189	224	2972914	2972795	0.39	38.5
HVIT016363-PA	Scaffold4	72.00	25	7	0	200	224	4302720	4302794	6.9	34.3
HVIT016363-PA	Scaffold33	76.92	39	9	0	200	238	4124549	4124433	8e-08	59.7
HVIT016363-PA	Scaffold33	69.23	26	8	0	199	224	2397944	2398021	0.11	40.0
HVIT016363-PA	Scaffold33	48.00	50	20	1	181	224	2861651	2861502	0.19	39.3
HVIT016363-PA	Scaffold33	76.00	25	6	0	200	224	2757838	2757764	0.21	39.3
HVIT016363-PA	Scaffold33	57.69	26	11	0	200	225	2762075	2761998	5.9	34.7
HVIT016363-PA	Scaffold287	71.79	39	11	0	200	238	156626	156742	9e-08	59.3
HVIT016363-PA	Scaffold287	71.79	39	11	0	200	238	141803	141919	8e-07	56.6
HVIT016363-PA	Scaffold28	76.92	39	9	0	200	238	2397047	2397163	1e-07	59.3
HVIT016363-PA	Scaffold28	80.00	25	5	0	200	224	1182055	1181981	6e-06	43.5
HVIT016363-PA	Scaffold28	93.33	15	1	0	225	239	1181982	1181938	6e-06	29.6
HVIT016363-PA	Scaffold28	65.00	40	14	0	194	233	5131677	5131796	3e-05	51.2
HVIT016363-PA	Scaffold28	68.42	38	12	0	200	237	4407690	4407577	2e-04	48.9
HVIT016363-PA	Scaffold28	64.00	25	9	0	199	223	5131303	5131229	5e-04	34.7
HVIT016363-PA	Scaffold28	64.00	25	9	0	225	249	5131227	5131153	5e-04	32.3
HVIT016363-PA	Scaffold28	59.52	42	14	1	197	238	1229411	1229527	0.072	40.8
HVIT016363-PA	Scaffold28	68.00	25	8	0	200	224	3102591	3102665	2.1	36.2
HVIT016363-PA	Scaffold275	72.50	40	11	0	199	238	349749	349630	1e-07	59.3
HVIT016363-PA	Scaffold275	56.25	32	14	0	200	231	2175484	2175389	3.5	35.4
HVIT016363-PA	Scaffold1357	70.73	41	12	0	198	238	68995	69117	1e-07	58.9
HVIT016363-PA	Scaffold1357	68.29	41	13	0	198	238	66180	66302	6e-07	56.6
HVIT016363-PA	Scaffold1155	44.44	90	28	2	180	252	221020	221274	1e-07	58.9
HVIT016363-PA	Scaffold1155	53.19	47	15	2	198	241	227263	227391	0.89	37.4
HVIT016363-PA	Scaffold123	62.00	50	19	0	200	249	1640787	1640638	1e-07	58.9
HVIT016363-PA	Scaffold123	59.46	37	15	0	197	233	167019	166909	2e-04	48.9
HVIT016363-PA	Scaffold123	43.18	44	25	0	190	233	167432	167563	0.36	38.5
HVIT016363-PA	Scaffold17608	72.73	44	12	0	200	243	14618	14749	1e-07	58.5
HVIT016363-PA	Scaffold472	72.50	40	11	0	199	238	456368	456487	2e-07	58.5
HVIT016363-PA	Scaffold82	71.79	39	11	0	200	238	3192311	3192195	2e-07	58.5
HVIT016363-PA	Scaffold82	67.50	40	13	0	199	238	990672	990553	6e-05	50.4
HVIT016363-PA	Scaffold82	34.29	70	41	1	201	265	2304460	2304669	3.8	35.4
HVIT016363-PA	Scaffold151	38.16	76	47	0	1	76	3019836	3019609	2e-07	58.5
HVIT016363-PA	Scaffold151	68.75	32	7	2	200	229	3023777	3023869	5.5	34.7
HVIT016363-PA	Scaffold211	67.44	43	14	0	196	238	29007	29135	2e-07	58.5
HVIT016363-PA	Scaffold18	46.99	83	32	2	200	275	3582019	3581786	2e-07	58.2
HVIT016363-PA	Scaffold18	55.93	59	22	1	200	254	1188734	1188558	1e-06	55.8
HVIT016363-PA	Scaffold18	61.11	36	14	0	189	224	3741177	3741070	3e-05	43.1
HVIT016363-PA	Scaffold18	56.00	25	11	0	225	249	3741071	3740997	3e-05	28.1
HVIT016363-PA	Scaffold18	56.25	32	13	1	200	231	2914858	2914950	1.3	37.0
HVIT016363-PA	Scaffold31165	61.40	57	17	2	198	249	9586	9416	2e-07	58.2
HVIT016363-PA	Scaffold60	78.95	38	8	0	202	239	909372	909485	2e-07	58.2
HVIT016363-PA	Scaffold60	34.72	72	40	1	201	265	3592152	3591937	8.7	34.3
HVIT016363-PA	Scaffold2130	69.23	39	12	0	199	237	145192	145076	3e-07	57.8
HVIT016363-PA	Scaffold15845	64.58	48	17	0	202	249	6209	6352	3e-07	57.4
HVIT016363-PA	Scaffold2111	58.93	56	21	1	207	260	128915	129082	4e-07	57.4
HVIT016363-PA	Scaffold2111	70.83	24	7	0	201	224	142145	142074	0.025	37.0
HVIT016363-PA	Scaffold2111	23.75	80	53	2	226	305	142072	141857	0.025	24.3
HVIT016363-PA	Scaffold332	66.67	48	16	0	191	238	41765	41908	5e-07	57.0
HVIT016363-PA	Scaffold332	60.00	35	14	0	190	224	168003	167899	4e-04	41.6
HVIT016363-PA	Scaffold332	56.00	25	11	0	225	249	167900	167826	4e-04	26.2
HVIT016363-PA	Scaffold1896	70.73	41	11	1	198	238	171712	171831	5e-07	57.0
HVIT016363-PA	Scaffold592	69.05	42	13	0	200	241	442300	442175	6e-07	56.6
HVIT016363-PA	Scaffold252	69.23	39	12	0	200	238	1461891	1461775	7e-07	56.6
HVIT016363-PA	Scaffold270	64.00	50	18	0	200	249	438125	438274	9e-07	56.2
HVIT016363-PA	Scaffold270	72.00	25	7	0	200	224	806227	806301	0.004	39.3
HVIT016363-PA	Scaffold270	50.00	32	13	1	225	253	806300	806395	0.004	24.6
HVIT016363-PA	Scaffold227	69.05	42	9	1	200	237	1844622	1844747	1e-06	55.8
HVIT016363-PA	Scaffold3520	63.41	41	15	0	193	233	6803	6925	1e-06	55.8
HVIT016363-PA	Scaffold11958	68.42	38	12	0	200	237	318	431	1e-06	55.5
HVIT016363-PA	Scaffold121	65.22	46	16	0	200	245	1800891	1801028	1e-06	55.8
HVIT016363-PA	Scaffold56	71.79	39	11	0	201	239	2975526	2975410	1e-06	55.5
HVIT016363-PA	Scaffold56	85.00	20	3	0	200	219	3184664	3184605	0.71	37.7
HVIT016363-PA	Scaffold56	68.00	25	8	0	200	224	2740525	2740599	1.0	37.0
HVIT016363-PA	Scaffold74	62.75	51	16	2	190	238	2130961	2131110	2e-06	55.5
HVIT016363-PA	Scaffold1145	71.05	38	11	0	201	238	355443	355330	2e-06	55.5
HVIT016363-PA	Scaffold95	69.23	39	12	0	200	238	3461532	3461416	2e-06	55.5
HVIT016363-PA	Scaffold95	80.00	25	5	0	200	224	695575	695501	2e-04	43.1
HVIT016363-PA	Scaffold95	84.62	13	2	0	225	237	695502	695464	2e-04	25.4
HVIT016363-PA	Scaffold95	58.06	31	13	0	194	224	3589961	3589869	0.001	39.3
HVIT016363-PA	Scaffold95	56.00	25	11	0	225	249	3589870	3589796	0.001	26.6
HVIT016363-PA	Scaffold95	68.18	22	7	0	203	224	356454	356389	0.018	31.2
HVIT016363-PA	Scaffold95	64.00	25	9	0	225	249	356390	356316	0.018	30.0
HVIT016363-PA	Scaffold95	75.00	40	10	0	200	239	2473638	2473519	0.040	41.6
HVIT016363-PA	Scaffold95	70.83	24	7	0	201	224	1859333	1859262	0.044	39.3
HVIT016363-PA	Scaffold95	72.73	11	3	0	225	235	1859263	1859231	0.044	20.8
HVIT016363-PA	Scaffold95	67.86	28	9	0	197	224	1988906	1988989	1.3	36.6
HVIT016363-PA	Scaffold95	47.62	42	21	1	213	253	414885	415010	2.1	36.2
HVIT016363-PA	Scaffold456	61.70	47	18	0	203	249	867461	867601	2e-06	55.1
HVIT016363-PA	Scaffold456	76.47	34	8	0	200	233	766597	766698	9e-06	53.1
HVIT016363-PA	Scaffold249	75.61	41	9	1	199	239	1005529	1005410	2e-06	55.1
HVIT016363-PA	Scaffold718	60.38	53	19	1	200	252	256657	256505	3e-06	54.7
HVIT016363-PA	Scaffold130	59.18	49	20	0	191	239	1921439	1921293	3e-06	54.7
HVIT016363-PA	Scaffold51270	74.07	27	7	0	198	224	1055	975	3e-06	46.2
HVIT016363-PA	Scaffold51270	82.35	17	3	0	225	241	976	926	3e-06	28.9
HVIT016363-PA	Scaffold411	50.68	73	28	2	198	265	137070	136861	3e-06	54.7
HVIT016363-PA	Scaffold411	54.00	50	20	1	192	238	1548318	1548169	8e-05	50.1
HVIT016363-PA	Scaffold411	65.38	26	9	0	199	224	204384	204461	0.81	37.4
HVIT016363-PA	Scaffold385	71.43	35	10	0	199	233	737402	737298	3e-06	54.7
HVIT016363-PA	Scaffold37473	58.33	48	20	0	199	246	146	3	3e-06	54.3
HVIT016363-PA	Scaffold409	58.00	50	21	0	200	249	1109425	1109276	4e-06	54.3
HVIT016363-PA	Scaffold230	74.36	39	9	1	200	238	942547	942434	4e-06	54.3
HVIT016363-PA	Scaffold230	58.33	36	15	0	201	236	742432	742539	0.003	45.1
HVIT016363-PA	Scaffold213	76.92	39	8	1	200	238	195670	195557	4e-06	54.3
HVIT016363-PA	Scaffold213	48.72	39	20	0	187	225	1552507	1552623	0.002	34.7
HVIT016363-PA	Scaffold213	60.00	25	10	0	225	249	1552622	1552696	0.002	30.0
HVIT016363-PA	Scaffold213	88.89	18	2	0	200	217	2124667	2124614	2.3	35.8
HVIT016363-PA	Scaffold654	55.93	59	20	1	191	249	361599	361441	5e-06	53.9
HVIT016363-PA	Scaffold654	52.17	46	20	1	200	243	683212	683075	0.045	41.2
HVIT016363-PA	Scaffold71	71.79	39	11	0	200	238	481307	481423	7e-06	53.5
HVIT016363-PA	Scaffold71	73.08	26	7	0	199	224	482265	482188	4e-04	42.0
HVIT016363-PA	Scaffold71	48.00	25	13	0	225	249	482189	482115	4e-04	25.4
HVIT016363-PA	Scaffold71	62.50	24	9	0	201	224	1161256	1161185	0.008	32.7
HVIT016363-PA	Scaffold71	64.00	25	9	0	225	249	1161186	1161112	0.008	30.0
HVIT016363-PA	Scaffold71	72.00	25	7	0	200	224	1705056	1704982	0.016	38.9
HVIT016363-PA	Scaffold71	83.33	12	2	0	225	236	1704983	1704948	0.016	22.7
HVIT016363-PA	Scaffold71	54.55	33	15	0	192	224	1243592	1243690	1.4	36.6
HVIT016363-PA	Scaffold1101	76.92	26	6	0	213	238	422499	422576	7e-06	43.1
HVIT016363-PA	Scaffold1101	87.50	16	2	0	200	215	422450	422497	7e-06	30.4
HVIT016363-PA	Scaffold465	55.77	52	23	0	198	249	656971	657126	8e-06	53.1
HVIT016363-PA	Scaffold465	56.00	25	11	0	199	223	1089184	1089110	0.091	31.2
HVIT016363-PA	Scaffold465	58.33	24	10	0	226	249	1089105	1089034	0.091	27.7
HVIT016363-PA	Scaffold465	68.18	22	7	0	199	220	1016689	1016754	4.9	35.0
HVIT016363-PA	Scaffold36	53.33	45	19	1	180	224	3558345	3558473	8e-06	48.9
HVIT016363-PA	Scaffold36	64.29	14	5	0	225	238	3558472	3558513	8e-06	24.3
HVIT016363-PA	Scaffold36	75.00	28	7	0	201	228	3713188	3713105	0.011	43.5
HVIT016363-PA	Scaffold36	57.14	35	15	0	190	224	2872409	2872305	0.084	40.4
HVIT016363-PA	Scaffold358	55.10	49	20	1	180	228	837620	837480	1e-05	53.1
HVIT016363-PA	Scaffold182	84.21	38	6	0	201	238	606653	606540	1e-05	52.8
HVIT016363-PA	Scaffold182	59.26	27	11	0	198	224	2388407	2388327	0.63	37.7
HVIT016363-PA	Scaffold182	56.25	48	7	3	199	241	1557038	1557154	0.68	37.7
HVIT016363-PA	Scaffold182	52.94	34	16	0	193	226	1904407	1904306	2.6	35.8
HVIT016363-PA	Scaffold39	60.00	50	19	1	200	249	567970	567824	1e-05	52.4
HVIT016363-PA	Scaffold39	61.90	42	8	2	200	239	2093051	2093158	0.009	43.5
HVIT016363-PA	Scaffold39	34.18	79	45	2	200	275	3131453	3131677	0.028	42.0
HVIT016363-PA	Scaffold39	69.23	26	8	0	199	224	1056316	1056239	0.13	40.0
HVIT016363-PA	Scaffold582	60.00	50	19	1	200	249	804976	804830	2e-05	52.4
HVIT016363-PA	Scaffold31	58.33	48	20	0	199	246	779050	778907	2e-05	52.4
HVIT016363-PA	Scaffold31	60.53	38	14	1	197	233	21189	21076	0.007	43.9
HVIT016363-PA	Scaffold3852	69.23	39	12	0	200	238	88006	88122	2e-05	52.4
HVIT016363-PA	Scaffold590	57.69	52	22	0	200	251	201042	201197	2e-05	52.0
HVIT016363-PA	Scaffold590	83.33	24	4	0	201	224	837605	837534	0.062	40.8
HVIT016363-PA	Scaffold590	71.43	21	6	0	201	221	201612	201550	5.8	34.7
HVIT016363-PA	Scaffold392	61.22	49	13	2	193	238	732013	731876	2e-05	52.0
HVIT016363-PA	Scaffold392	68.00	25	8	0	200	224	754055	753981	0.26	33.9
HVIT016363-PA	Scaffold392	40.00	30	18	0	220	249	753997	753908	0.26	23.5
HVIT016363-PA	Scaffold392	51.61	31	15	0	195	225	731304	731396	3.6	35.4
HVIT016363-PA	Scaffold97	58.00	50	21	0	200	249	2497650	2497501	2e-05	52.0
HVIT016363-PA	Scaffold97	50.00	42	19	1	199	238	2121015	2121140	6.2	34.7
HVIT016363-PA	Scaffold269	51.61	31	15	0	194	224	2013137	2013045	2e-05	38.9
HVIT016363-PA	Scaffold269	68.00	25	8	0	225	249	2013046	2012972	2e-05	33.1
HVIT016363-PA	Scaffold269	73.53	34	8	1	201	233	1839730	1839831	0.003	45.1
HVIT016363-PA	Scaffold26541	81.25	32	6	0	207	238	345	250	2e-05	51.6
HVIT016363-PA	Scaffold793	75.00	24	6	0	200	223	938	1009	2e-05	42.0
HVIT016363-PA	Scaffold793	64.00	25	9	0	225	249	1011	1085	2e-05	30.0
HVIT016363-PA	Scaffold171	62.75	51	16	2	200	249	1223930	1224076	3e-05	51.6
HVIT016363-PA	Scaffold204	61.90	42	13	1	200	238	2314327	2314202	3e-05	51.2
HVIT016363-PA	Scaffold204	64.86	37	13	0	200	236	2893071	2893181	0.003	45.1
HVIT016363-PA	Scaffold204	64.00	25	9	0	225	249	2895237	2895163	0.13	29.6
HVIT016363-PA	Scaffold204	52.00	25	12	0	200	224	2895310	2895236	0.13	28.5
HVIT016363-PA	Scaffold204	61.36	44	9	2	198	239	2870702	2870589	0.16	39.7
HVIT016363-PA	Scaffold204	73.08	26	7	0	213	238	2445411	2445488	0.16	39.7
HVIT016363-PA	Scaffold204	52.63	38	18	0	193	230	2362369	2362256	0.59	37.7
HVIT016363-PA	Scaffold204	62.50	24	9	0	200	223	2445271	2445342	1.0	31.6
HVIT016363-PA	Scaffold204	83.33	12	2	0	226	237	2445347	2445382	1.0	23.5
HVIT016363-PA	Scaffold20	76.00	25	6	0	200	224	4934168	4934094	4e-05	40.0
HVIT016363-PA	Scaffold20	60.00	25	10	0	225	249	4934095	4934021	4e-05	30.8
HVIT016363-PA	Scaffold20	69.57	23	7	0	201	223	2737654	2737586	3.6	35.4
HVIT016363-PA	Scaffold160	68.57	35	11	0	198	232	896480	896584	4e-05	51.2
HVIT016363-PA	Scaffold160	68.57	35	11	0	198	232	900186	900290	4e-05	51.2
HVIT016363-PA	Scaffold160	43.14	51	29	0	200	250	413379	413227	0.42	38.1
HVIT016363-PA	Scaffold711	67.86	28	9	0	197	224	53531	53448	4e-05	43.9
HVIT016363-PA	Scaffold711	78.57	14	3	0	225	238	53449	53408	4e-05	26.9
HVIT016363-PA	Scaffold711	37.68	69	37	2	176	242	559339	559533	0.26	38.9
HVIT016363-PA	Scaffold83	68.29	41	13	0	201	241	883732	883854	4e-05	51.2
HVIT016363-PA	Scaffold83	60.61	33	13	0	192	224	879688	879786	0.004	38.9
HVIT016363-PA	Scaffold83	58.82	17	7	0	225	241	879785	879835	0.004	24.6
HVIT016363-PA	Scaffold83	60.61	33	13	0	196	228	304762	304664	0.010	43.5
HVIT016363-PA	Scaffold665	72.00	25	7	0	200	224	88209	88283	4e-05	41.2
HVIT016363-PA	Scaffold665	92.86	14	1	0	225	238	88282	88323	4e-05	29.3
HVIT016363-PA	Scaffold118	75.76	33	8	0	201	233	1516498	1516400	4e-05	50.8
HVIT016363-PA	Scaffold118	46.15	65	25	3	181	238	1937231	1937046	0.65	37.7
HVIT016363-PA	Scaffold23	70.83	24	7	0	200	223	597576	597647	5e-05	38.1
HVIT016363-PA	Scaffold23	94.12	17	1	0	225	241	597649	597699	5e-05	32.3
HVIT016363-PA	Scaffold23	83.33	24	4	0	200	223	593377	593306	0.019	42.0
HVIT016363-PA	Scaffold23	70.00	10	3	0	226	235	593301	593272	0.019	19.2
HVIT016363-PA	Scaffold23	67.86	28	9	0	197	224	724291	724208	0.22	39.3
HVIT016363-PA	Scaffold23	62.50	24	9	0	226	249	347596	347525	3.1	31.6
HVIT016363-PA	Scaffold23	44.00	25	14	0	195	219	347690	347616	3.1	21.9
HVIT016363-PA	Scaffold781	74.29	35	9	0	204	238	103937	103833	5e-05	50.8
HVIT016363-PA	Scaffold781	67.86	28	9	0	196	223	36196	36279	0.038	41.6
HVIT016363-PA	Scaffold815	71.79	39	10	1	200	238	125097	124984	5e-05	50.8
HVIT016363-PA	Scaffold815	73.08	26	6	1	200	224	213126	213049	0.86	37.4
HVIT016363-PA	Scaffold2594	69.23	39	12	0	207	245	28311	28427	7e-05	50.1
HVIT016363-PA	Scaffold2594	70.83	24	7	0	201	224	41658	41587	0.19	37.0
HVIT016363-PA	Scaffold2594	42.86	28	10	1	226	253	41585	41520	0.19	21.2
HVIT016363-PA	Scaffold3120	72.00	25	7	0	200	224	152410	152336	8e-05	40.8
HVIT016363-PA	Scaffold3120	92.86	14	1	0	225	238	152337	152296	8e-05	29.3
HVIT016363-PA	Scaffold34	67.86	28	9	0	197	224	329550	329467	8e-05	40.0
HVIT016363-PA	Scaffold34	64.00	25	9	0	225	249	329468	329394	8e-05	29.6
HVIT016363-PA	Scaffold34	51.43	35	17	0	189	223	4301055	4301159	0.14	37.0
HVIT016363-PA	Scaffold34	81.82	11	2	0	227	237	4301167	4301199	0.14	21.2
HVIT016363-PA	Scaffold34	71.43	21	6	0	199	219	1144401	1144463	0.34	34.3
HVIT016363-PA	Scaffold34	76.92	13	3	0	226	238	1144480	1144518	0.34	22.7
HVIT016363-PA	Scaffold34	80.00	20	4	0	197	216	4297250	4297191	2.6	35.8
HVIT016363-PA	Scaffold85	65.52	29	10	0	196	224	1295241	1295327	8e-05	39.3
HVIT016363-PA	Scaffold85	60.00	25	10	0	225	249	1295326	1295400	8e-05	30.4
HVIT016363-PA	Scaffold85	50.00	50	23	2	201	249	736849	736703	9.2	33.9
HVIT016363-PA	Scaffold298	59.38	32	13	0	192	223	564321	564226	9e-05	40.4
HVIT016363-PA	Scaffold298	82.35	17	3	0	225	241	564224	564174	9e-05	29.3
HVIT016363-PA	Scaffold162	65.38	26	9	0	225	250	2275520	2275443	9e-05	35.8
HVIT016363-PA	Scaffold162	64.00	25	9	0	200	224	2275593	2275519	9e-05	33.9
HVIT016363-PA	Scaffold558	60.53	38	11	1	191	224	716038	716151	1e-04	41.6
HVIT016363-PA	Scaffold558	60.00	25	10	0	225	249	716150	716224	1e-04	28.1
HVIT016363-PA	Scaffold558	69.57	23	7	0	202	224	725077	725145	0.018	33.1
HVIT016363-PA	Scaffold558	60.00	25	10	0	225	249	725144	725218	0.018	28.1
HVIT016363-PA	Scaffold575	59.46	37	11	1	191	223	753530	753640	1e-04	42.7
HVIT016363-PA	Scaffold575	92.31	13	1	0	226	238	753648	753686	1e-04	26.6
HVIT016363-PA	Scaffold481	73.08	26	7	0	199	224	329069	329146	1e-04	42.0
HVIT016363-PA	Scaffold481	58.33	24	10	0	226	249	329148	329219	1e-04	27.7
HVIT016363-PA	Scaffold39308	56.86	51	22	0	199	249	710	558	1e-04	49.3
HVIT016363-PA	Scaffold39308	77.27	22	5	0	199	220	99	164	1.3	36.6
HVIT016363-PA	Scaffold833	66.67	42	13	1	197	238	213786	213908	1e-04	49.7
HVIT016363-PA	Scaffold184	71.05	38	11	0	202	239	404262	404375	1e-04	49.7
HVIT016363-PA	Scaffold192	64.00	25	9	0	196	220	733084	733158	1e-04	39.3
HVIT016363-PA	Scaffold192	52.00	25	12	0	225	249	733172	733246	1e-04	29.6
HVIT016363-PA	Scaffold192	85.00	20	3	0	201	220	384345	384286	6e-04	38.1
HVIT016363-PA	Scaffold192	77.78	18	4	0	221	238	384305	384252	6e-04	28.5
HVIT016363-PA	Scaffold192	88.89	18	2	0	201	218	382841	382788	9.5	33.9
HVIT016363-PA	Scaffold693	65.62	32	11	0	193	224	703277	703372	1e-04	45.1
HVIT016363-PA	Scaffold693	83.33	12	2	0	226	237	703374	703409	1e-04	23.9
HVIT016363-PA	Scaffold1175	76.00	25	6	0	199	223	301852	301778	2e-04	42.4
HVIT016363-PA	Scaffold1175	56.00	25	11	0	225	249	301770	301696	2e-04	26.6
HVIT016363-PA	Scaffold969	69.23	39	11	1	200	238	137696	137583	2e-04	49.3
HVIT016363-PA	Scaffold907	69.23	26	6	1	200	223	139652	139575	2e-04	37.7
HVIT016363-PA	Scaffold907	76.19	21	5	0	225	245	139573	139511	2e-04	31.2
HVIT016363-PA	Scaffold315	46.97	66	29	2	200	259	966575	966772	2e-04	48.9
HVIT016363-PA	Scaffold1001	68.57	35	11	0	199	233	284372	284476	2e-04	48.9
HVIT016363-PA	Scaffold22208	66.67	42	13	1	197	238	13341	13219	2e-04	48.9
HVIT016363-PA	Scaffold337	65.91	44	14	1	198	241	842723	842595	2e-04	48.9
HVIT016363-PA	Scaffold1	81.82	22	4	0	200	221	9516342	9516277	2e-04	40.4
HVIT016363-PA	Scaffold1	71.43	21	5	1	221	241	9516274	9516215	2e-04	27.7
HVIT016363-PA	Scaffold1	68.00	25	8	0	200	224	8633592	8633666	0.86	37.4
HVIT016363-PA	Scaffold1	44.44	54	23	3	200	251	4395802	4395948	7.8	34.3
HVIT016363-PA	Scaffold355	73.08	26	7	0	199	224	205519	205596	2e-04	41.2
HVIT016363-PA	Scaffold355	48.00	25	13	0	226	250	205598	205672	2e-04	26.9
HVIT016363-PA	Scaffold14	71.43	42	12	0	200	241	2042976	2043101	2e-04	48.5
HVIT016363-PA	Scaffold14	55.26	38	17	0	201	238	1291611	1291724	2.1	36.2
HVIT016363-PA	Scaffold14	55.81	43	16	2	201	241	2043565	2043440	4.6	35.0
HVIT016363-PA	Scaffold37514	66.67	39	13	0	200	238	2452	2336	2e-04	48.5
HVIT016363-PA	Scaffold22	50.00	60	23	2	200	253	2157193	2157369	2e-04	48.5
HVIT016363-PA	Scaffold22	68.00	25	8	0	200	224	3725837	3725911	0.007	35.0
HVIT016363-PA	Scaffold22	58.33	24	10	0	226	249	3725913	3725984	0.007	27.7
HVIT016363-PA	Scaffold3372	71.43	28	8	0	197	224	53713	53630	3e-04	42.4
HVIT016363-PA	Scaffold3372	78.57	14	3	0	225	238	53631	53590	3e-04	25.8
HVIT016363-PA	Scaffold279	57.45	47	15	1	199	245	1459573	1459698	3e-04	48.1
HVIT016363-PA	Scaffold279	72.22	18	5	0	200	217	1828722	1828775	0.40	32.0
HVIT016363-PA	Scaffold279	71.43	14	4	0	225	238	1828790	1828831	0.40	24.6
HVIT016363-PA	Scaffold279	60.00	25	10	0	200	224	449962	450036	8.4	34.3
HVIT016363-PA	Scaffold264	71.43	35	10	0	199	233	674030	673926	3e-04	48.1
HVIT016363-PA	Scaffold308	72.00	25	7	0	200	224	238149	238223	4e-04	40.0
HVIT016363-PA	Scaffold308	37.25	51	29	1	225	272	238222	238374	4e-04	27.3
HVIT016363-PA	Scaffold452	69.70	33	10	0	190	222	594068	594166	4e-04	48.1
HVIT016363-PA	Scaffold452	70.37	27	7	1	198	223	568012	568092	1.5	36.6
HVIT016363-PA	Scaffold452	71.43	21	6	0	201	221	594658	594596	5.4	34.7
HVIT016363-PA	Scaffold1392	60.00	30	12	0	194	223	274172	274083	4e-04	40.8
HVIT016363-PA	Scaffold1392	92.31	13	1	0	226	238	274078	274040	4e-04	26.6
HVIT016363-PA	Scaffold2	57.78	45	16	2	190	231	3262340	3262206	4e-04	47.8
HVIT016363-PA	Scaffold2	51.72	58	22	1	200	257	2786667	2786822	0.003	45.1
HVIT016363-PA	Scaffold2	64.10	39	13	1	203	241	3172509	3172622	0.003	45.1
HVIT016363-PA	Scaffold2	65.71	35	12	0	190	224	3484353	3484457	0.021	42.4
HVIT016363-PA	Scaffold2	66.67	27	9	0	198	224	4572103	4572183	0.035	37.4
HVIT016363-PA	Scaffold2	69.23	13	4	0	226	238	4572188	4572226	0.035	23.1
HVIT016363-PA	Scaffold2	56.41	39	16	1	198	235	6657579	6657463	0.054	41.2
HVIT016363-PA	Scaffold2	66.67	27	9	0	198	224	2523942	2523862	0.61	37.7
HVIT016363-PA	Scaffold2	59.38	32	13	0	193	224	6905972	6905877	0.95	37.4
HVIT016363-PA	Scaffold2	52.78	36	17	0	186	221	2788814	2788707	1.1	37.0
HVIT016363-PA	Scaffold2	57.14	35	14	1	202	235	8862271	8862167	8.1	34.3
HVIT016363-PA	Scaffold2	48.00	50	24	1	200	249	2687011	2686868	9.2	33.9
HVIT016363-PA	Scaffold1014	75.00	32	8	0	199	230	52899	52804	4e-04	47.8
HVIT016363-PA	Scaffold574	69.23	39	11	1	198	235	632869	632753	4e-04	47.8
HVIT016363-PA	Scaffold574	76.19	21	5	0	201	221	632277	632339	7.2	34.3
HVIT016363-PA	Scaffold59	61.90	42	14	1	200	241	4028515	4028396	4e-04	47.8
HVIT016363-PA	Scaffold59	57.14	35	15	0	190	224	4041681	4041577	4e-04	40.4
HVIT016363-PA	Scaffold59	76.47	17	4	0	225	241	4041578	4041528	4e-04	26.6
HVIT016363-PA	Scaffold59	62.07	29	11	0	221	249	2226941	2227027	4.4	35.0
HVIT016363-PA	Scaffold59	62.50	24	9	0	226	249	3559998	3559927	7.3	31.6
HVIT016363-PA	Scaffold59	60.00	15	6	0	212	226	3560038	3559994	7.3	20.4
HVIT016363-PA	Scaffold62	61.54	39	14	1	200	238	1915203	1915090	4e-04	47.8
HVIT016363-PA	Scaffold62	61.54	39	14	1	200	238	1913648	1913535	4e-04	47.8
HVIT016363-PA	Scaffold62	72.00	25	7	0	200	224	2050849	2050923	0.001	38.5
HVIT016363-PA	Scaffold62	52.00	25	12	0	225	249	2050922	2050996	0.001	27.3
HVIT016363-PA	Scaffold3364	67.86	28	9	0	197	224	39224	39307	4e-04	40.0
HVIT016363-PA	Scaffold3364	60.00	25	10	0	225	249	39306	39380	4e-04	27.3
HVIT016363-PA	Scaffold617	50.00	56	26	1	200	253	732381	732214	5e-04	47.8
HVIT016363-PA	Scaffold1377	75.76	33	7	1	199	230	94205	94303	5e-04	47.8
HVIT016363-PA	Scaffold620	76.67	30	7	0	200	229	120772	120683	5e-04	47.8
HVIT016363-PA	Scaffold754	53.49	43	20	0	196	238	44846	44718	5e-04	47.4
HVIT016363-PA	Scaffold754	56.41	39	16	1	186	224	826364	826477	0.006	44.3
HVIT016363-PA	Scaffold7604	64.29	28	10	0	222	249	22362	22279	5e-04	36.2
HVIT016363-PA	Scaffold7604	64.00	25	7	1	201	223	22430	22356	5e-04	31.2
HVIT016363-PA	Scaffold17	70.83	24	7	0	200	223	3577871	3577800	5e-04	38.1
HVIT016363-PA	Scaffold17	85.71	14	2	0	225	238	3577798	3577757	5e-04	28.5
HVIT016363-PA	Scaffold17	70.83	24	7	0	200	223	2592417	2592488	0.51	38.1
HVIT016363-PA	Scaffold7	53.85	52	23	1	200	250	6840112	6839957	5e-04	47.4
HVIT016363-PA	Scaffold4053	77.42	31	7	0	211	241	33346	33438	5e-04	47.4
HVIT016363-PA	Scaffold285	64.86	37	12	1	199	235	1155941	1156048	7e-04	47.0
HVIT016363-PA	Scaffold285	66.67	30	10	0	209	238	322228	322139	0.013	43.1
HVIT016363-PA	Scaffold222	68.00	25	8	0	200	224	1197061	1196987	7e-04	38.9
HVIT016363-PA	Scaffold222	85.71	14	2	0	225	238	1196988	1196947	7e-04	27.7
HVIT016363-PA	Scaffold222	70.37	27	8	0	198	224	1195319	1195239	0.038	41.6
HVIT016363-PA	Scaffold177	64.71	34	12	0	200	233	2060845	2060946	8e-04	47.0
HVIT016363-PA	Scaffold36470	72.22	36	4	1	200	235	368	457	0.001	46.6
HVIT016363-PA	Scaffold25372	58.82	51	19	2	186	234	885	1037	0.001	46.6
HVIT016363-PA	Scaffold92	80.00	25	5	0	199	223	342337	342411	0.001	46.6
HVIT016363-PA	Scaffold6	72.00	25	7	0	200	224	5130125	5130051	0.001	40.4
HVIT016363-PA	Scaffold6	71.43	14	4	0	225	238	5130052	5130011	0.001	25.4
HVIT016363-PA	Scaffold6	30.89	123	61	3	192	297	5181667	5181320	2.1	36.2
HVIT016363-PA	Scaffold888	75.00	24	6	0	200	223	284477	284548	0.001	38.9
HVIT016363-PA	Scaffold888	92.31	13	1	0	226	238	284553	284591	0.001	26.9
HVIT016363-PA	Scaffold475	70.83	24	7	0	200	223	196951	196880	0.001	37.0
HVIT016363-PA	Scaffold475	60.00	25	10	0	226	250	196875	196801	0.001	28.9
HVIT016363-PA	Scaffold1942	72.00	25	7	0	200	224	111205	111279	0.001	40.4
HVIT016363-PA	Scaffold1942	70.59	17	5	0	225	241	111278	111328	0.001	25.4
HVIT016363-PA	Scaffold1942	52.94	34	16	0	190	223	110003	110104	1.3	35.0
HVIT016363-PA	Scaffold1942	69.23	13	4	0	226	238	110112	110150	1.3	20.0
HVIT016363-PA	Scaffold3147	68.97	29	9	0	200	228	53178	53264	0.001	41.6
HVIT016363-PA	Scaffold3147	78.57	14	3	0	228	241	53263	53304	0.001	24.3
HVIT016363-PA	Scaffold41540	53.33	30	14	0	195	224	1229	1318	0.001	38.1
HVIT016363-PA	Scaffold41540	60.00	25	10	0	225	249	1317	1391	0.001	27.7
HVIT016363-PA	Scaffold333	48.39	62	31	1	189	249	812336	812151	0.001	46.2
HVIT016363-PA	Scaffold98	70.83	24	7	0	200	223	745536	745465	0.001	38.9
HVIT016363-PA	Scaffold98	92.31	13	1	0	226	238	745460	745422	0.001	26.6
HVIT016363-PA	Scaffold98	55.56	27	12	0	190	216	742545	742625	9.0	33.9
HVIT016363-PA	Scaffold8797	61.54	39	13	1	200	238	9674	9784	0.001	46.2
HVIT016363-PA	Scaffold250	68.00	25	8	0	225	249	465361	465287	0.001	34.3
HVIT016363-PA	Scaffold250	57.69	26	11	0	199	224	465437	465360	0.001	30.8
HVIT016363-PA	Scaffold250	38.33	60	23	2	158	216	40164	40024	2.4	28.9
HVIT016363-PA	Scaffold250	85.71	14	2	0	225	238	40003	39962	2.4	25.0
HVIT016363-PA	Scaffold564	46.27	67	29	2	200	259	403991	404191	0.002	46.2
HVIT016363-PA	Scaffold564	49.15	59	27	2	197	253	699498	699671	0.003	45.4
HVIT016363-PA	Scaffold228	80.00	25	5	0	200	224	984988	985062	0.002	45.8
HVIT016363-PA	Scaffold228	74.19	31	8	0	199	229	1245034	1244942	0.003	45.4
HVIT016363-PA	Scaffold228	69.23	26	8	0	199	224	1200966	1200889	2.0	36.2
HVIT016363-PA	Scaffold18496	61.54	39	12	1	200	238	8910	9017	0.002	45.8
HVIT016363-PA	Scaffold53	49.23	65	22	3	200	254	1025252	1025061	0.002	45.8
HVIT016363-PA	Scaffold46605	74.19	31	8	0	199	229	1424	1516	0.002	45.4
HVIT016363-PA	Scaffold12639	48.94	47	20	1	181	223	6434	6294	0.002	38.5
HVIT016363-PA	Scaffold12639	63.64	22	8	0	228	249	6289	6224	0.002	26.6
HVIT016363-PA	Scaffold1343	58.33	36	13	1	189	224	20877	20776	0.002	38.9
HVIT016363-PA	Scaffold1343	48.00	25	13	0	225	249	20777	20703	0.002	26.2
HVIT016363-PA	Scaffold32	80.00	25	5	0	200	224	2503121	2503047	0.002	43.9
HVIT016363-PA	Scaffold32	81.82	11	2	0	225	235	2503048	2503016	0.002	20.4
HVIT016363-PA	Scaffold32	70.37	27	5	1	198	224	4029848	4029777	5.6	34.7
HVIT016363-PA	Scaffold32	52.17	46	8	2	200	238	4455536	4455652	5.7	34.7
HVIT016363-PA	Scaffold1160	64.71	34	12	0	200	233	261892	261791	0.002	45.4
HVIT016363-PA	Scaffold1160	66.67	27	9	0	198	224	262185	262105	0.78	37.4
HVIT016363-PA	Scaffold858	68.00	25	8	0	200	224	39734	39660	0.002	37.7
HVIT016363-PA	Scaffold858	85.71	14	2	0	225	238	39661	39620	0.002	26.9
HVIT016363-PA	Scaffold858	68.00	25	8	0	200	224	55536	55610	0.50	38.1
HVIT016363-PA	Scaffold1089	76.00	25	6	0	200	224	183752	183826	0.003	37.0
HVIT016363-PA	Scaffold1089	75.00	16	4	0	225	240	183825	183872	0.003	27.3
HVIT016363-PA	Scaffold441	77.78	27	6	0	198	224	954100	954180	0.003	45.4
HVIT016363-PA	Scaffold345	39.22	51	24	1	181	224	1098228	1098380	0.003	33.9
HVIT016363-PA	Scaffold345	60.00	25	10	0	225	249	1098379	1098453	0.003	30.4
HVIT016363-PA	Scaffold365	55.32	47	19	1	194	238	985189	985049	0.003	45.4
HVIT016363-PA	Scaffold365	53.85	39	14	1	201	239	29440	29336	7.4	34.3
HVIT016363-PA	Scaffold35	68.00	25	8	0	199	223	1122403	1122329	0.003	37.0
HVIT016363-PA	Scaffold35	58.33	24	10	0	226	249	1122324	1122253	0.003	27.3
HVIT016363-PA	Scaffold186	60.71	28	11	0	200	227	552755	552672	0.003	37.7
HVIT016363-PA	Scaffold186	81.25	16	3	0	226	241	552675	552628	0.003	26.6
HVIT016363-PA	Scaffold186	56.10	41	17	1	194	234	1516134	1516253	0.29	38.9
HVIT016363-PA	Scaffold186	60.00	35	13	1	215	249	911547	911648	0.34	38.5
HVIT016363-PA	Scaffold959	64.71	34	12	0	200	233	343796	343695	0.003	45.4
HVIT016363-PA	Scaffold94	45.00	40	22	0	212	251	1583556	1583437	0.003	34.3
HVIT016363-PA	Scaffold94	77.78	18	4	0	200	217	1583594	1583541	0.003	30.0
HVIT016363-PA	Scaffold94	40.00	60	36	0	165	224	1687645	1687466	0.044	41.6
HVIT016363-PA	Scaffold362	70.59	34	10	0	200	233	1857144	1857245	0.003	45.1
HVIT016363-PA	Scaffold44	58.54	41	17	0	209	249	2863626	2863748	0.003	45.1
HVIT016363-PA	Scaffold44	62.07	29	11	0	198	226	2138100	2138014	2.0	36.2
HVIT016363-PA	Scaffold44	60.87	23	9	0	199	221	4966209	4966141	9.1	33.9
HVIT016363-PA	Scaffold462	76.92	26	6	0	199	224	145908	145831	0.003	45.1
HVIT016363-PA	Scaffold746	59.52	42	16	1	197	238	208611	208489	0.003	45.1
HVIT016363-PA	Scaffold671	68.00	25	8	0	200	224	398252	398178	0.003	39.3
HVIT016363-PA	Scaffold671	73.33	15	4	0	225	239	398179	398135	0.003	25.0
HVIT016363-PA	Scaffold256	62.50	40	15	0	199	238	1160128	1160009	0.004	44.7
HVIT016363-PA	Scaffold373	57.58	33	14	0	194	226	354493	354591	0.004	42.4
HVIT016363-PA	Scaffold373	72.73	11	3	0	225	235	354584	354616	0.004	21.6
HVIT016363-PA	Scaffold373	72.00	25	7	0	200	224	528065	527991	0.44	38.1
HVIT016363-PA	Scaffold862	84.00	25	4	0	200	224	611349	611423	0.004	44.7
HVIT016363-PA	Scaffold254	72.00	25	7	0	200	224	2619334	2619260	0.004	38.1
HVIT016363-PA	Scaffold254	85.71	14	2	0	225	238	2619261	2619220	0.004	25.8
HVIT016363-PA	Scaffold254	68.00	25	8	0	200	224	2340992	2341066	0.005	35.8
HVIT016363-PA	Scaffold254	53.85	26	12	0	225	250	2341065	2341142	0.005	27.7
HVIT016363-PA	Scaffold254	46.15	52	27	1	194	245	1779124	1778972	1.6	36.6
HVIT016363-PA	Scaffold254	43.18	44	17	2	224	259	2076056	2076187	2.8	27.3
HVIT016363-PA	Scaffold254	66.67	15	5	0	200	214	2075985	2076029	2.8	26.2
HVIT016363-PA	Scaffold254	85.71	14	2	0	225	238	2169114	2169073	8.1	26.9
HVIT016363-PA	Scaffold254	71.43	14	4	0	210	223	2169157	2169116	8.1	24.6
HVIT016363-PA	Scaffold981	72.73	33	8	1	201	233	362440	362535	0.004	44.7
HVIT016363-PA	Scaffold981	48.15	54	24	1	200	253	122923	122774	0.024	42.4
HVIT016363-PA	Scaffold6840	62.50	40	10	2	199	238	26488	26592	0.004	44.7
HVIT016363-PA	Scaffold187	50.94	53	20	1	192	238	1598759	1598917	0.004	44.7
HVIT016363-PA	Scaffold187	79.17	24	5	0	200	223	636452	636381	0.020	42.4
HVIT016363-PA	Scaffold153	49.18	61	28	2	190	249	1483321	1483497	0.004	44.7
HVIT016363-PA	Scaffold153	50.00	44	19	2	196	238	1475398	1475523	3.1	35.4
HVIT016363-PA	Scaffold525	72.00	25	7	0	200	224	165959	165885	0.004	37.4
HVIT016363-PA	Scaffold525	60.00	25	10	0	225	249	165886	165812	0.004	26.2
HVIT016363-PA	Scaffold46	80.00	20	4	0	200	219	146272	146213	0.005	35.0
HVIT016363-PA	Scaffold46	62.50	24	9	0	226	249	146199	146128	0.005	28.5
HVIT016363-PA	Scaffold46	62.96	27	10	0	200	226	3540597	3540677	0.021	35.4
HVIT016363-PA	Scaffold46	73.33	15	4	0	225	239	3540670	3540714	0.021	25.8
HVIT016363-PA	Scaffold3232	75.00	28	7	0	199	226	78837	78754	0.005	44.7
HVIT016363-PA	Scaffold383	75.00	32	8	0	207	238	833460	833365	0.005	44.7
HVIT016363-PA	Scaffold383	42.86	56	24	2	200	247	834762	834595	4.8	35.0
HVIT016363-PA	Scaffold2691	64.00	25	9	0	225	249	170344	170418	0.005	32.0
HVIT016363-PA	Scaffold2691	54.29	35	12	1	190	224	170253	170345	0.005	31.6
HVIT016363-PA	Scaffold45	75.00	24	6	0	201	224	3930648	3930577	0.005	39.7
HVIT016363-PA	Scaffold45	84.62	13	2	0	226	238	3930575	3930537	0.005	23.9
HVIT016363-PA	Scaffold8335	72.00	25	7	0	200	224	6203	6277	0.005	40.0
HVIT016363-PA	Scaffold8335	78.57	14	3	0	225	238	6276	6317	0.005	23.9
HVIT016363-PA	Scaffold37965	76.00	25	6	0	200	224	508	434	0.005	41.2
HVIT016363-PA	Scaffold37965	54.55	22	10	0	228	249	410	345	0.005	22.7
HVIT016363-PA	Scaffold198	80.00	25	5	0	200	224	635334	635260	0.005	44.3
HVIT016363-PA	Scaffold198	66.67	24	8	0	201	224	1306596	1306667	6.3	34.7
HVIT016363-PA	Scaffold52961	70.00	30	9	0	197	226	1059	1148	0.005	43.9
HVIT016363-PA	Scaffold3945	52.27	44	20	1	201	243	62873	62742	0.005	44.3
HVIT016363-PA	Scaffold24694	73.33	30	8	0	200	229	4643	4554	0.005	44.3
HVIT016363-PA	Scaffold84	76.00	25	6	0	200	224	413041	413115	0.006	41.2
HVIT016363-PA	Scaffold84	81.82	11	2	0	225	235	413114	413146	0.006	21.9
HVIT016363-PA	Scaffold84	53.12	32	15	0	193	224	1280361	1280456	0.024	37.0
HVIT016363-PA	Scaffold84	71.43	14	4	0	225	238	1280455	1280496	0.024	24.3
HVIT016363-PA	Scaffold84	62.96	27	10	0	196	222	2991323	2991403	0.20	39.3
HVIT016363-PA	Scaffold84	55.00	40	17	1	199	238	374801	374917	0.66	37.7
HVIT016363-PA	Scaffold84	45.45	55	25	2	200	249	3956496	3956332	1.8	36.2
HVIT016363-PA	Scaffold208	70.83	24	7	0	200	223	748419	748490	0.006	38.5
HVIT016363-PA	Scaffold208	84.62	13	2	0	226	238	748495	748533	0.006	24.6
HVIT016363-PA	Scaffold225	64.00	25	9	0	225	249	1342277	1342351	0.007	32.0
HVIT016363-PA	Scaffold225	64.00	25	9	0	200	224	1342204	1342278	0.007	31.2
HVIT016363-PA	Scaffold225	66.67	27	9	0	200	226	720185	720265	0.014	35.8
HVIT016363-PA	Scaffold225	54.17	24	11	0	226	249	720261	720332	0.014	26.2
HVIT016363-PA	Scaffold10798	63.64	33	12	0	195	227	11930	12028	0.007	43.9
HVIT016363-PA	Scaffold147	46.67	60	30	2	191	250	890693	890520	0.007	43.9
HVIT016363-PA	Scaffold147	72.00	25	7	0	200	224	1716985	1716911	0.11	40.0
HVIT016363-PA	Scaffold212	45.61	57	30	1	198	253	606964	607134	0.007	43.9
HVIT016363-PA	Scaffold212	45.61	57	30	1	198	253	625136	625306	0.007	43.9
HVIT016363-PA	Scaffold212	56.67	30	13	0	192	221	157836	157925	0.39	33.1
HVIT016363-PA	Scaffold212	83.33	12	2	0	226	237	157936	157971	0.39	23.5
HVIT016363-PA	Scaffold477	37.08	89	43	2	181	265	603725	603964	0.008	43.9
HVIT016363-PA	Scaffold5625	72.00	25	7	0	200	224	30018	29944	0.008	38.1
HVIT016363-PA	Scaffold5625	48.00	25	13	0	226	250	29942	29868	0.008	25.0
HVIT016363-PA	Scaffold16	61.90	42	12	1	201	242	3534787	3534674	0.009	43.5
HVIT016363-PA	Scaffold16	56.41	39	17	0	213	251	3600444	3600560	0.031	42.0
HVIT016363-PA	Scaffold16	55.17	29	13	0	198	226	3311858	3311772	9.5	32.3
HVIT016363-PA	Scaffold16	70.00	10	3	0	225	234	3311779	3311750	9.5	19.2
HVIT016363-PA	Scaffold11	80.00	25	5	0	200	224	4419273	4419347	0.009	43.5
HVIT016363-PA	Scaffold1466	53.49	43	17	1	193	232	202898	202770	0.009	43.5
HVIT016363-PA	Scaffold12826	70.00	30	9	0	209	238	2670	2581	0.009	43.5
HVIT016363-PA	Scaffold12826	52.27	44	18	2	179	221	1378	1503	1.6	36.6
HVIT016363-PA	Scaffold197	68.00	25	8	0	200	224	1893573	1893647	0.009	39.3
HVIT016363-PA	Scaffold197	69.23	13	4	0	226	238	1893649	1893687	0.009	23.5
HVIT016363-PA	Scaffold821	76.00	25	6	0	198	222	558755	558829	0.009	43.5
HVIT016363-PA	Scaffold291	70.37	27	8	0	200	226	355200	355280	0.009	43.5
HVIT016363-PA	Scaffold291	76.00	25	6	0	200	224	494466	494540	0.13	40.0
HVIT016363-PA	Scaffold291	55.17	29	13	0	192	220	443569	443483	0.44	30.8
HVIT016363-PA	Scaffold291	73.33	15	4	0	221	235	443502	443458	0.44	25.8
HVIT016363-PA	Scaffold53441	66.67	33	11	0	201	233	723	821	0.009	42.7
HVIT016363-PA	Scaffold5466	75.00	24	6	0	201	224	12603	12532	0.009	37.7
HVIT016363-PA	Scaffold5466	76.92	13	3	0	225	237	12533	12495	0.009	25.0
HVIT016363-PA	Scaffold180	71.43	28	7	1	198	224	756686	756603	0.010	37.7
HVIT016363-PA	Scaffold180	78.57	14	3	0	225	238	756604	756563	0.010	24.6
HVIT016363-PA	Scaffold180	69.23	26	8	0	199	224	447859	447782	0.14	39.7
HVIT016363-PA	Scaffold340	74.07	27	7	0	200	226	341645	341565	0.010	43.5
HVIT016363-PA	Scaffold980	35.87	92	48	2	168	249	648596	648324	0.010	43.5
HVIT016363-PA	Scaffold3605	68.97	29	9	0	196	224	87970	87884	0.010	42.4
HVIT016363-PA	Scaffold3605	72.73	11	3	0	225	235	87885	87853	0.010	20.4
HVIT016363-PA	Scaffold120	58.06	31	13	0	194	224	1265059	1264967	0.010	37.4
HVIT016363-PA	Scaffold120	71.43	14	4	0	225	238	1264968	1264927	0.010	25.0
HVIT016363-PA	Scaffold120	57.58	33	14	0	191	223	2472457	2472359	0.018	37.4
HVIT016363-PA	Scaffold120	78.57	14	3	0	225	238	2472357	2472316	0.018	23.9
HVIT016363-PA	Scaffold791	60.87	23	9	0	201	223	384944	385012	0.011	33.5
HVIT016363-PA	Scaffold791	60.00	25	10	0	225	249	385014	385088	0.011	28.9
HVIT016363-PA	Scaffold34258	66.67	33	11	0	209	241	143	45	0.011	43.1
HVIT016363-PA	Scaffold1388	75.00	24	6	0	200	223	261559	261630	0.011	39.3
HVIT016363-PA	Scaffold1388	71.43	14	4	0	225	238	261632	261673	0.011	23.1
HVIT016363-PA	Scaffold903	56.00	50	21	1	200	249	39175	39321	0.012	43.1
HVIT016363-PA	Scaffold714	66.67	21	7	0	204	224	141470	141532	0.012	31.6
HVIT016363-PA	Scaffold714	64.00	25	9	0	225	249	141531	141605	0.012	30.8
HVIT016363-PA	Scaffold433	55.93	59	26	0	193	251	1254831	1255007	0.012	43.1
HVIT016363-PA	Scaffold396	44.07	59	21	2	181	231	1014616	1014452	0.013	42.4
HVIT016363-PA	Scaffold396	80.00	10	2	0	230	239	1014459	1014430	0.013	19.6
HVIT016363-PA	Scaffold466	44.19	43	24	0	200	242	724373	724245	0.013	43.1
HVIT016363-PA	Scaffold5	64.00	25	9	0	200	224	4605639	4605713	0.013	34.3
HVIT016363-PA	Scaffold5	85.71	14	2	0	225	238	4605712	4605753	0.013	27.3
HVIT016363-PA	Scaffold5	76.19	21	5	0	221	241	634553	634491	7.5	34.3
HVIT016363-PA	Scaffold3	73.91	23	6	0	200	222	4033680	4033612	0.014	37.0
HVIT016363-PA	Scaffold3	56.00	25	11	0	225	249	4033600	4033526	0.014	24.6
HVIT016363-PA	Scaffold3	77.78	27	6	0	198	224	463006	462926	0.020	42.4
HVIT016363-PA	Scaffold3	68.00	25	8	0	200	224	5877260	5877186	0.52	35.8
HVIT016363-PA	Scaffold3	81.82	11	2	0	225	235	5877187	5877155	0.52	20.4
HVIT016363-PA	Scaffold3	46.34	41	18	1	200	240	6744314	6744204	1.1	37.0
HVIT016363-PA	Scaffold3	45.71	35	19	0	226	260	5876315	5876211	1.8	29.6
HVIT016363-PA	Scaffold3	90.91	11	1	0	200	210	5876391	5876359	1.8	24.3
HVIT016363-PA	Scaffold3	59.26	27	11	0	197	223	5675976	5676056	2.5	35.8
HVIT016363-PA	Scaffold1164	80.00	25	5	0	199	223	153333	153259	0.014	43.1
HVIT016363-PA	Scaffold1164	58.62	29	12	0	202	230	153407	153493	8.6	34.3
HVIT016363-PA	Scaffold15337	71.43	21	6	0	200	220	10920	10858	0.014	33.9
HVIT016363-PA	Scaffold15337	44.19	43	15	2	221	256	10877	10755	0.014	28.1
HVIT016363-PA	Scaffold330	36.59	82	37	1	194	260	706162	706407	0.016	42.7
HVIT016363-PA	Scaffold20593	76.00	25	6	0	200	224	3059	2985	0.016	38.1
HVIT016363-PA	Scaffold20593	78.57	14	3	0	225	238	2986	2945	0.016	24.3
HVIT016363-PA	Scaffold1283	56.00	50	14	1	200	249	172834	172709	0.016	42.7
HVIT016363-PA	Scaffold1283	40.43	47	28	0	197	243	118152	118292	4.8	35.0
HVIT016363-PA	Scaffold1505	65.62	32	11	0	193	224	141068	141163	0.017	42.7
HVIT016363-PA	Scaffold2182	64.00	25	9	0	225	249	169062	169136	0.017	31.2
HVIT016363-PA	Scaffold2182	56.00	25	11	0	200	224	168989	169063	0.017	30.8
HVIT016363-PA	Scaffold3726	51.92	52	24	1	198	249	63367	63519	0.019	42.7
HVIT016363-PA	Scaffold347	48.98	49	16	1	185	224	1272365	1272511	0.020	42.4
HVIT016363-PA	Scaffold2081	54.90	51	22	1	191	241	23103	23252	0.020	42.4
HVIT016363-PA	Scaffold313	65.52	29	10	0	196	224	308611	308525	0.020	42.4
HVIT016363-PA	Scaffold18007	68.97	29	9	0	210	238	9799	9713	0.021	42.4
HVIT016363-PA	Scaffold164	46.67	30	16	0	197	226	991519	991430	0.021	35.0
HVIT016363-PA	Scaffold164	48.00	25	13	0	225	249	991437	991363	0.021	26.2
HVIT016363-PA	Scaffold132	64.00	25	9	0	225	249	1779435	1779361	0.021	30.8
HVIT016363-PA	Scaffold132	60.00	25	10	0	200	224	1779508	1779434	0.021	30.4
HVIT016363-PA	Scaffold638	28.74	87	59	1	18	104	589711	589460	0.021	42.4
HVIT016363-PA	Scaffold638	41.67	48	27	1	30	76	590005	589862	0.19	39.3
HVIT016363-PA	Scaffold638	35.29	51	31	2	2	51	589447	589298	4.8	35.0
HVIT016363-PA	Scaffold231	68.00	25	8	0	198	222	537842	537768	0.022	39.3
HVIT016363-PA	Scaffold231	60.00	15	6	0	224	238	537763	537719	0.022	21.9
HVIT016363-PA	Scaffold231	62.07	29	9	1	210	238	738662	738742	3.7	35.4
HVIT016363-PA	Scaffold52	51.16	43	19	1	181	223	1400598	1400720	0.023	42.4
HVIT016363-PA	Scaffold229	72.00	25	7	0	199	223	134122	134048	0.023	42.4
HVIT016363-PA	Scaffold229	70.83	24	7	0	200	223	133298	133227	0.14	40.0
HVIT016363-PA	Scaffold229	62.50	24	9	0	226	249	531645	531716	5.9	29.6
HVIT016363-PA	Scaffold229	68.75	16	5	0	208	223	531593	531640	5.9	22.7
HVIT016363-PA	Scaffold317	68.18	22	7	0	203	224	583490	583425	0.023	32.0
HVIT016363-PA	Scaffold317	60.00	25	10	0	225	249	583426	583352	0.023	29.3
HVIT016363-PA	Scaffold317	69.70	33	9	1	201	233	661252	661157	0.059	40.8
HVIT016363-PA	Scaffold769	67.74	31	10	0	199	229	136391	136299	0.024	42.4
HVIT016363-PA	Scaffold1354	83.33	18	3	0	225	242	114735	114682	0.024	30.8
HVIT016363-PA	Scaffold1354	65.22	23	8	0	202	224	114802	114734	0.024	30.4
HVIT016363-PA	Scaffold144	60.61	33	13	0	191	223	610077	610175	0.024	42.4
HVIT016363-PA	Scaffold8099	45.76	59	29	2	197	253	8490	8317	0.025	42.4
HVIT016363-PA	Scaffold248	53.33	45	18	1	200	241	643019	643153	0.026	42.0
HVIT016363-PA	Scaffold248	53.33	45	18	1	200	241	636251	636117	0.038	41.6
HVIT016363-PA	Scaffold248	62.50	32	12	0	200	231	530886	530791	1.1	37.0
HVIT016363-PA	Scaffold8	61.90	42	16	0	197	238	1010230	1010105	0.029	42.0
HVIT016363-PA	Scaffold321	39.74	78	46	1	172	249	931865	932095	0.031	42.0
HVIT016363-PA	Scaffold321	40.00	60	25	2	173	221	525984	525805	0.67	37.7
HVIT016363-PA	Scaffold454	88.24	17	2	0	201	217	468654	468604	0.032	32.0
HVIT016363-PA	Scaffold454	66.67	18	6	0	221	238	468614	468561	0.032	28.9
HVIT016363-PA	Scaffold165	58.33	24	10	0	201	224	1487286	1487357	0.033	30.4
HVIT016363-PA	Scaffold165	53.33	30	14	0	220	249	1487341	1487430	0.033	30.4
HVIT016363-PA	Scaffold675	70.37	27	8	0	200	226	254292	254372	0.033	42.0
HVIT016363-PA	Scaffold31672	61.54	39	14	1	200	238	1837	1724	0.036	41.6
HVIT016363-PA	Scaffold31672	51.16	43	16	2	176	216	1216	1335	5.7	34.7
HVIT016363-PA	Scaffold10739	72.00	25	7	0	200	224	1001	1075	0.037	38.1
HVIT016363-PA	Scaffold10739	50.00	18	9	0	226	243	1080	1133	0.037	22.7
HVIT016363-PA	Scaffold16696	58.97	39	15	1	200	238	13658	13771	0.037	41.6
HVIT016363-PA	Scaffold3384	68.00	25	8	0	200	224	42753	42679	0.039	35.0
HVIT016363-PA	Scaffold3384	54.17	24	11	0	226	249	42677	42606	0.039	25.8
HVIT016363-PA	Scaffold809	79.17	24	5	0	215	238	217226	217297	0.040	41.6
HVIT016363-PA	Scaffold125	66.67	24	8	0	200	223	192978	192907	0.041	35.0
HVIT016363-PA	Scaffold125	54.17	24	11	0	226	249	192902	192831	0.041	25.0
HVIT016363-PA	Scaffold125	54.17	24	11	0	226	249	2203361	2203432	8.3	27.3
HVIT016363-PA	Scaffold125	65.00	20	7	0	204	223	2203297	2203356	8.3	24.6
HVIT016363-PA	Scaffold9289	79.17	24	5	0	200	223	19012	18941	0.041	40.8
HVIT016363-PA	Scaffold9289	80.00	10	2	0	226	235	18936	18907	0.041	20.0
HVIT016363-PA	Scaffold16155	66.67	27	9	0	198	224	3486	3406	0.042	41.2
HVIT016363-PA	Scaffold54912	72.00	25	7	0	200	224	43	117	0.042	40.0
HVIT016363-PA	Scaffold54912	46.88	32	15	2	218	249	98	187	0.042	20.8
HVIT016363-PA	Scaffold368	65.38	26	9	0	199	224	1295309	1295386	0.042	33.9
HVIT016363-PA	Scaffold368	78.57	14	3	0	225	238	1295385	1295426	0.042	26.6
HVIT016363-PA	Scaffold368	61.90	42	11	2	202	238	419214	419089	5.1	34.7
HVIT016363-PA	Scaffold119	56.41	39	14	1	200	238	586553	586446	0.043	41.6
HVIT016363-PA	Scaffold119	55.00	40	14	1	199	238	733321	733428	0.13	40.0
HVIT016363-PA	Scaffold119	60.00	25	10	0	200	224	1701825	1701899	0.23	35.8
HVIT016363-PA	Scaffold119	83.33	12	2	0	227	238	1701904	1701939	0.23	21.9
HVIT016363-PA	Scaffold119	63.64	22	8	0	203	224	1012946	1012881	7.1	28.9
HVIT016363-PA	Scaffold119	56.00	25	11	0	225	249	1012882	1012808	7.1	23.1
HVIT016363-PA	Scaffold16771	73.08	26	7	0	199	224	1162	1239	0.045	41.2
HVIT016363-PA	Scaffold801	86.36	22	3	0	198	219	583021	583086	0.046	41.2
HVIT016363-PA	Scaffold801	57.69	26	10	1	201	226	890796	890722	1.2	27.7
HVIT016363-PA	Scaffold801	85.71	14	2	0	225	238	890729	890688	1.2	27.3
HVIT016363-PA	Scaffold64	50.00	54	27	0	198	251	1835873	1835712	0.047	41.2
HVIT016363-PA	Scaffold64	66.67	24	8	0	201	224	255402	255473	0.49	34.7
HVIT016363-PA	Scaffold64	75.00	12	3	0	225	236	255472	255507	0.49	21.6
HVIT016363-PA	Scaffold64	52.38	21	10	0	200	220	1823401	1823339	2.6	27.7
HVIT016363-PA	Scaffold64	34.55	55	33	1	221	272	1823358	1823194	2.6	25.8
HVIT016363-PA	Scaffold63	41.18	51	30	0	174	224	1491813	1491661	0.051	41.2
HVIT016363-PA	Scaffold139	61.29	31	12	0	194	224	717267	717175	0.054	37.7
HVIT016363-PA	Scaffold139	81.82	11	2	0	225	235	717176	717144	0.054	21.9
HVIT016363-PA	Scaffold139	60.00	30	12	0	200	229	2503186	2503275	0.35	38.5
HVIT016363-PA	Scaffold139	64.00	25	9	0	219	243	1019716	1019790	3.3	35.4
HVIT016363-PA	Scaffold139	43.33	60	19	2	200	253	2585910	2585758	5.5	34.7
HVIT016363-PA	Scaffold1479	54.55	33	14	1	193	224	455879	455781	0.054	35.0
HVIT016363-PA	Scaffold1479	78.57	14	3	0	225	238	455782	455741	0.054	24.6
HVIT016363-PA	Scaffold40341	50.00	44	19	2	179	220	426	554	0.054	37.7
HVIT016363-PA	Scaffold40341	66.67	15	5	0	221	235	535	579	0.054	22.7
HVIT016363-PA	Scaffold241	60.98	41	15	1	201	241	1318401	1318282	0.059	41.2
HVIT016363-PA	Scaffold309	80.00	25	5	0	200	224	516962	517036	0.060	40.8
HVIT016363-PA	Scaffold309	60.53	38	14	1	201	238	274173	274063	0.54	38.1
HVIT016363-PA	Scaffold929	50.88	57	13	2	200	249	225988	225842	0.062	40.8
HVIT016363-PA	Scaffold929	52.94	34	12	1	200	233	223894	223983	5.2	34.7
HVIT016363-PA	Scaffold901	76.00	25	6	0	200	224	27718	27792	0.064	40.8
HVIT016363-PA	Scaffold73	75.00	24	6	0	199	222	3446812	3446741	0.064	40.8
HVIT016363-PA	Scaffold1297	50.00	50	15	1	200	239	217792	217643	0.065	40.8
HVIT016363-PA	Scaffold57468	52.17	46	15	2	199	238	305	439	0.065	40.4
HVIT016363-PA	Scaffold24	79.17	24	5	0	200	223	802761	802690	0.068	40.8
HVIT016363-PA	Scaffold24	42.11	57	33	0	168	224	2959038	2958868	0.073	40.8
HVIT016363-PA	Scaffold41	83.33	18	3	0	200	217	550156	550209	0.070	33.9
HVIT016363-PA	Scaffold41	84.62	13	2	0	226	238	550223	550261	0.070	25.4
HVIT016363-PA	Scaffold161	47.37	57	29	1	193	249	196352	196185	0.073	40.8
HVIT016363-PA	Scaffold161	78.26	23	5	0	201	223	2096681	2096749	0.41	38.5
HVIT016363-PA	Scaffold161	73.08	26	7	0	198	223	403225	403148	1.3	37.0
HVIT016363-PA	Scaffold161	48.84	43	22	0	202	244	317165	317293	5.3	34.7
HVIT016363-PA	Scaffold161	53.12	32	15	0	190	221	881658	881753	8.4	34.3
HVIT016363-PA	Scaffold320	45.83	72	28	3	198	260	794117	794326	0.075	40.8
HVIT016363-PA	Scaffold176	64.00	25	9	0	225	249	28239	28165	0.077	30.4
HVIT016363-PA	Scaffold176	54.17	24	11	0	194	217	28319	28248	0.077	28.9
HVIT016363-PA	Scaffold268	66.67	30	10	0	195	224	778861	778950	0.078	40.8
HVIT016363-PA	Scaffold268	63.64	22	8	0	203	224	156991	156926	2.6	28.9
HVIT016363-PA	Scaffold268	71.43	14	4	0	225	238	156927	156886	2.6	25.0
HVIT016363-PA	Scaffold891	57.14	42	15	2	198	238	490390	490509	0.078	40.4
HVIT016363-PA	Scaffold891	52.00	25	12	0	225	249	80032	80106	6.6	27.3
HVIT016363-PA	Scaffold891	60.00	20	8	0	207	226	79980	80039	6.6	25.4
HVIT016363-PA	Scaffold631	52.94	51	21	2	200	249	190513	190367	0.091	40.4
HVIT016363-PA	Scaffold246	75.00	20	5	0	200	219	1422266	1422325	0.098	33.1
HVIT016363-PA	Scaffold246	75.00	16	4	0	223	238	1422385	1422432	0.098	25.4
HVIT016363-PA	Scaffold497	75.00	24	6	0	201	224	236302	236231	0.098	38.1
HVIT016363-PA	Scaffold497	61.11	18	7	0	225	242	236232	236179	0.098	20.8
HVIT016363-PA	Scaffold555	36.92	65	32	2	198	256	7341	7156	0.099	40.4
HVIT016363-PA	Scaffold367	53.06	49	14	3	200	248	194304	194185	0.11	40.0
HVIT016363-PA	Scaffold367	70.83	24	7	0	200	223	133460	133389	0.32	38.5
HVIT016363-PA	Scaffold1652	62.96	27	10	0	198	224	40860	40780	0.11	34.3
HVIT016363-PA	Scaffold1652	71.43	14	4	0	225	238	40781	40740	0.11	24.6
HVIT016363-PA	Scaffold537	56.52	23	10	0	198	220	660437	660369	0.12	32.7
HVIT016363-PA	Scaffold537	80.00	15	3	0	225	239	660376	660332	0.12	26.2
HVIT016363-PA	Scaffold537	53.66	41	17	1	200	238	973225	973103	0.51	38.1
HVIT016363-PA	Scaffold416	64.00	25	9	0	225	249	792231	792305	0.12	31.2
HVIT016363-PA	Scaffold416	66.67	18	6	0	207	224	792179	792232	0.12	27.3
HVIT016363-PA	Scaffold416	66.67	18	6	0	207	224	793103	793156	3.7	27.3
HVIT016363-PA	Scaffold416	76.47	17	4	0	225	241	793155	793205	3.7	25.8
HVIT016363-PA	Scaffold55	48.78	41	20	1	199	238	988579	988457	0.12	40.0
HVIT016363-PA	Scaffold55	55.17	29	13	0	199	227	990569	990483	0.82	37.4
HVIT016363-PA	Scaffold976	72.00	25	7	0	200	224	511852	511926	0.14	37.7
HVIT016363-PA	Scaffold976	81.82	11	2	0	225	235	511925	511957	0.14	20.8
HVIT016363-PA	Scaffold976	64.00	25	9	0	200	224	512324	512398	7.1	31.6
HVIT016363-PA	Scaffold976	81.82	11	2	0	225	235	512397	512429	7.1	20.8
HVIT016363-PA	Scaffold2383	78.26	23	5	0	202	224	105679	105611	0.14	38.1
HVIT016363-PA	Scaffold2383	81.82	11	2	0	225	235	105612	105580	0.14	20.4
HVIT016363-PA	Scaffold1295	72.00	25	7	0	200	224	107344	107270	0.14	39.7
HVIT016363-PA	Scaffold8584	52.94	51	23	1	185	235	12223	12074	0.14	39.7
HVIT016363-PA	Scaffold281	70.00	20	6	0	201	220	648561	648620	0.15	30.8
HVIT016363-PA	Scaffold281	56.00	25	11	0	225	249	648634	648708	0.15	27.7
HVIT016363-PA	Scaffold1291	69.23	26	8	0	198	223	59352	59275	0.15	39.7
HVIT016363-PA	Scaffold215	58.97	39	15	1	200	238	49971	49858	0.15	39.7
HVIT016363-PA	Scaffold78	66.67	27	9	0	198	224	1379662	1379582	0.16	37.4
HVIT016363-PA	Scaffold78	69.23	13	4	0	225	237	1379583	1379545	0.16	20.8
HVIT016363-PA	Scaffold78	72.00	25	7	0	200	224	1532112	1532186	1.4	36.6
HVIT016363-PA	Scaffold10162	72.00	25	7	0	200	224	8284	8210	0.16	39.7
HVIT016363-PA	Scaffold101	67.86	28	9	0	194	221	685470	685387	0.17	39.7
HVIT016363-PA	Scaffold122	43.33	60	33	1	190	249	2531956	2531780	0.17	39.7
HVIT016363-PA	Scaffold442	73.08	26	7	0	199	224	539316	539239	0.17	39.7
HVIT016363-PA	Scaffold48	54.17	24	11	0	201	224	2173973	2174044	0.19	30.0
HVIT016363-PA	Scaffold48	40.00	50	27	1	225	271	2174043	2174192	0.19	27.7
HVIT016363-PA	Scaffold48	70.83	24	7	0	201	224	158169	158240	0.29	34.3
HVIT016363-PA	Scaffold48	83.33	12	2	0	227	238	158248	158283	0.29	22.7
HVIT016363-PA	Scaffold48	61.54	26	10	0	225	250	2812142	2812065	0.61	30.8
HVIT016363-PA	Scaffold48	72.22	18	5	0	207	224	2812194	2812141	0.61	25.4
HVIT016363-PA	Scaffold48	68.00	25	8	0	200	224	1813726	1813652	4.7	35.0
HVIT016363-PA	Scaffold219	72.00	25	7	0	200	224	1217047	1216973	0.21	39.3
HVIT016363-PA	Scaffold219	70.00	20	6	0	204	223	1094555	1094496	0.35	29.6
HVIT016363-PA	Scaffold219	70.59	17	5	0	225	241	1094494	1094444	0.35	27.3
HVIT016363-PA	Scaffold219	60.00	40	12	3	200	238	1894091	1893981	8.9	33.9
HVIT016363-PA	Scaffold686	50.00	44	18	1	181	224	183823	183942	0.21	39.3
HVIT016363-PA	Scaffold686	53.57	28	13	0	200	227	465451	465368	2.0	36.2
HVIT016363-PA	Scaffold361	69.23	26	8	0	198	223	1607305	1607228	0.21	39.3
HVIT016363-PA	Scaffold42	68.00	25	8	0	199	223	4485140	4485214	0.21	36.6
HVIT016363-PA	Scaffold42	44.00	25	12	1	219	243	4485213	4485281	0.21	21.2
HVIT016363-PA	Scaffold42	59.38	32	13	0	190	221	4477401	4477306	1.1	37.0
HVIT016363-PA	Scaffold679	59.18	49	20	0	203	251	421311	421457	0.22	39.3
HVIT016363-PA	Scaffold54492	76.92	26	5	1	199	224	2536	2610	0.22	37.4
HVIT016363-PA	Scaffold54492	81.82	11	2	0	225	235	2609	2641	0.22	20.8
HVIT016363-PA	Scaffold54492	71.43	21	6	0	201	221	3109	3047	2.6	35.8
HVIT016363-PA	Scaffold206	65.38	26	9	0	199	224	746937	747014	0.23	39.3
HVIT016363-PA	Scaffold69	50.00	40	19	1	194	233	681749	681865	0.25	38.9
HVIT016363-PA	Scaffold69	40.00	50	20	1	200	239	497605	497456	3.1	35.4
HVIT016363-PA	Scaffold88	82.61	23	4	0	219	241	1367869	1367801	0.25	38.9
HVIT016363-PA	Scaffold159	68.00	25	8	0	200	224	754830	754756	0.26	38.9
HVIT016363-PA	Scaffold202	48.89	45	23	0	198	242	625658	625792	0.26	38.9
HVIT016363-PA	Scaffold202	69.23	26	7	1	198	223	93599	93673	4.2	35.0
HVIT016363-PA	Scaffold90	38.57	70	38	1	201	265	783665	783874	0.27	38.9
HVIT016363-PA	Scaffold527	57.58	33	14	0	191	223	476334	476236	0.27	38.9
HVIT016363-PA	Scaffold6296	65.38	26	9	0	198	223	15292	15369	0.29	35.8
HVIT016363-PA	Scaffold6296	76.92	13	3	0	226	238	15374	15412	0.29	21.9
HVIT016363-PA	Scaffold39618	66.67	21	7	0	200	220	1273	1335	0.29	30.4
HVIT016363-PA	Scaffold39618	66.67	18	6	0	221	238	1316	1369	0.29	27.3
HVIT016363-PA	Scaffold4572	72.00	25	7	0	200	224	39	113	0.33	38.5
HVIT016363-PA	Scaffold4572	68.00	25	8	0	200	224	1820	1894	2.1	36.2
HVIT016363-PA	Scaffold46002	48.98	49	24	1	201	249	1088	945	0.33	38.1
HVIT016363-PA	Scaffold730	57.69	26	11	0	199	224	599466	599543	0.33	35.8
HVIT016363-PA	Scaffold730	72.73	11	3	0	225	235	599542	599574	0.33	21.2
HVIT016363-PA	Scaffold50131	75.00	24	6	0	200	223	2916	2845	0.34	38.5
HVIT016363-PA	Scaffold8616	56.41	39	14	1	200	238	3442	3335	0.35	38.5
HVIT016363-PA	Scaffold1525	60.71	28	11	0	197	224	427603	427520	0.37	38.5
HVIT016363-PA	Scaffold692	75.00	24	6	0	200	223	620761	620690	0.38	38.5
HVIT016363-PA	Scaffold884	80.95	21	4	0	201	221	847924	847862	0.39	38.5
HVIT016363-PA	Scaffold663	51.85	27	13	0	200	226	526243	526323	0.41	31.2
HVIT016363-PA	Scaffold663	75.00	16	4	0	226	241	526319	526366	0.41	25.4
HVIT016363-PA	Scaffold663	54.55	22	10	0	203	224	526463	526528	7.1	26.6
HVIT016363-PA	Scaffold663	78.57	14	3	0	225	238	526527	526568	7.1	25.4
HVIT016363-PA	Scaffold65	73.91	23	6	0	200	222	375872	375940	0.43	38.1
HVIT016363-PA	Scaffold65	62.96	27	9	1	198	224	375941	376018	5.4	34.7
HVIT016363-PA	Scaffold423	48.78	41	21	0	184	224	498910	498788	0.44	38.1
HVIT016363-PA	Scaffold4159	68.00	25	8	0	200	224	64070	63996	0.45	37.7
HVIT016363-PA	Scaffold4159	81.82	11	2	0	225	235	63997	63965	0.45	18.9
HVIT016363-PA	Scaffold1381	50.00	42	21	0	200	241	142482	142607	0.45	38.1
HVIT016363-PA	Scaffold43	56.41	39	17	0	200	238	1145438	1145322	0.47	38.1
HVIT016363-PA	Scaffold6466	63.33	30	10	1	195	224	8737	8823	0.51	38.1
HVIT016363-PA	Scaffold10	68.00	25	8	0	200	224	3604703	3604777	0.51	38.1
HVIT016363-PA	Scaffold224	80.00	25	5	0	200	224	132016	131942	0.52	30.4
HVIT016363-PA	Scaffold224	76.47	17	4	0	225	241	131943	131893	0.52	25.8
HVIT016363-PA	Scaffold49	38.57	70	39	1	200	265	2295781	2295572	0.54	38.1
HVIT016363-PA	Scaffold49	63.64	22	8	0	201	222	2951135	2951070	2.0	30.8
HVIT016363-PA	Scaffold49	84.62	13	2	0	225	237	2951065	2951027	2.0	23.1
HVIT016363-PA	Scaffold41207	61.54	39	15	0	200	238	611	727	0.56	37.7
HVIT016363-PA	Scaffold245	72.00	25	7	0	200	224	900986	900912	0.59	35.4
HVIT016363-PA	Scaffold245	50.00	22	11	0	228	249	900903	900838	0.59	20.4
HVIT016363-PA	Scaffold282	57.14	28	12	0	197	224	1056261	1056344	0.62	37.7
HVIT016363-PA	Scaffold2356	56.41	39	17	0	200	238	116922	116806	0.63	37.7
HVIT016363-PA	Scaffold3036	62.96	27	10	0	198	224	38263	38343	0.63	34.7
HVIT016363-PA	Scaffold3036	81.82	11	2	0	225	235	38342	38374	0.63	21.6
HVIT016363-PA	Scaffold614	56.10	41	16	1	200	238	774077	774199	0.64	37.7
HVIT016363-PA	Scaffold596	73.68	19	5	0	205	223	221828	221772	0.69	31.6
HVIT016363-PA	Scaffold596	80.00	15	3	0	227	241	221764	221720	0.69	24.3
HVIT016363-PA	Scaffold598	65.62	32	10	1	207	238	108369	108461	0.70	37.7
HVIT016363-PA	Scaffold21	68.00	25	8	0	200	224	2647960	2647886	0.71	37.7
HVIT016363-PA	Scaffold21	54.29	35	13	1	201	235	2286462	2286367	7.9	34.3
HVIT016363-PA	Scaffold622	54.55	33	14	1	189	221	595655	595750	0.72	33.9
HVIT016363-PA	Scaffold622	45.71	35	15	1	221	251	595728	595832	0.72	21.9
HVIT016363-PA	Scaffold630	75.00	24	6	0	201	224	608491	608420	0.75	37.4
HVIT016363-PA	Scaffold172	56.76	37	16	0	201	237	1058229	1058339	0.75	37.4
HVIT016363-PA	Scaffold785	53.33	30	14	0	194	223	1132101	1132190	0.77	32.0
HVIT016363-PA	Scaffold785	34.15	41	24	1	226	263	1132195	1132317	0.77	23.5
HVIT016363-PA	Scaffold52171	62.50	24	9	0	200	223	1221	1292	0.78	32.3
HVIT016363-PA	Scaffold52171	37.50	40	24	1	229	267	1309	1428	0.78	23.9
HVIT016363-PA	Scaffold988	70.59	17	5	0	225	241	111536	111486	0.79	28.1
HVIT016363-PA	Scaffold988	40.00	50	14	2	178	226	111633	111529	0.79	27.3
HVIT016363-PA	Scaffold510	67.74	31	9	1	196	226	111045	111134	0.80	37.4
HVIT016363-PA	Scaffold510	64.10	39	9	2	201	234	754164	754048	1.3	36.6
HVIT016363-PA	Scaffold535	56.67	30	13	0	194	223	848035	847946	0.85	37.4
HVIT016363-PA	Scaffold535	60.00	30	10	1	200	227	760079	760168	5.6	34.7
HVIT016363-PA	Scaffold585	68.00	25	7	1	218	241	319794	319720	0.87	31.6
HVIT016363-PA	Scaffold585	70.59	17	5	0	201	217	319822	319772	0.87	23.9
HVIT016363-PA	Scaffold242	66.67	24	8	0	200	223	615454	615383	0.89	37.4
HVIT016363-PA	Scaffold723	64.00	25	9	0	196	220	886792	886866	0.91	37.4
HVIT016363-PA	Scaffold2109	76.19	21	5	0	201	221	366461	366523	0.93	37.4
HVIT016363-PA	Scaffold1464	51.85	27	13	0	196	222	235508	235588	0.94	29.3
HVIT016363-PA	Scaffold1464	65.00	20	7	0	227	246	235591	235650	0.94	26.2
HVIT016363-PA	Scaffold26284	43.14	51	17	1	210	248	1544	1392	0.94	37.0
HVIT016363-PA	Scaffold178	64.00	25	9	0	200	224	1338623	1338697	0.96	37.0
HVIT016363-PA	Scaffold32858	54.55	33	14	1	189	221	670	765	0.96	33.9
HVIT016363-PA	Scaffold32858	45.71	35	15	1	221	251	743	847	0.96	21.9
HVIT016363-PA	Scaffold1328	72.00	25	6	1	200	224	591870	591799	0.97	37.0
HVIT016363-PA	Scaffold1328	50.00	50	21	1	200	249	634895	635032	0.98	37.0
HVIT016363-PA	Scaffold554	58.62	29	12	0	194	222	277667	277753	1.0	37.0
HVIT016363-PA	Scaffold16614	57.14	35	15	0	196	230	669	773	1.1	37.0
HVIT016363-PA	Scaffold407	68.00	25	8	0	200	224	236072	236146	1.1	37.0
HVIT016363-PA	Scaffold369	60.00	25	10	0	200	224	494732	494658	1.1	33.1
HVIT016363-PA	Scaffold369	47.06	17	9	0	226	242	494653	494603	1.1	22.3
HVIT016363-PA	Scaffold312	61.90	21	8	0	203	223	956427	956365	1.2	28.1
HVIT016363-PA	Scaffold312	36.36	44	27	1	226	268	956357	956226	1.2	26.9
HVIT016363-PA	Scaffold312	30.38	79	54	1	224	302	79443	79210	3.8	35.0
HVIT016363-PA	Scaffold54	76.19	21	5	0	197	217	93976	94038	1.2	37.0
HVIT016363-PA	Scaffold54	65.38	26	8	1	199	224	961015	961089	3.7	35.4
HVIT016363-PA	Scaffold54	38.46	52	32	0	194	245	94372	94217	9.1	33.9
HVIT016363-PA	Scaffold12291	68.18	22	7	0	201	222	3107	3172	1.2	32.0
HVIT016363-PA	Scaffold12291	84.62	13	2	0	225	237	3177	3215	1.2	23.5
HVIT016363-PA	Scaffold55594	50.00	44	16	1	187	224	1013	1144	1.3	36.2
HVIT016363-PA	Scaffold55594	80.00	10	2	0	226	235	1146	1175	1.3	19.6
HVIT016363-PA	Scaffold54217	65.22	23	8	0	201	223	413	345	1.3	36.6
HVIT016363-PA	Scaffold2219	59.38	32	9	1	203	234	212840	212757	1.3	36.6
HVIT016363-PA	Scaffold234	77.27	22	5	0	217	238	393711	393646	1.4	36.6
HVIT016363-PA	Scaffold263	45.45	44	16	1	191	226	529441	529310	1.4	36.6
HVIT016363-PA	Scaffold133	57.69	26	10	1	200	224	242971	242894	1.4	31.2
HVIT016363-PA	Scaffold133	71.43	14	4	0	225	238	242895	242854	1.4	23.5
HVIT016363-PA	Scaffold594	61.29	31	12	0	219	249	264081	264173	1.4	36.6
HVIT016363-PA	Scaffold594	71.43	21	6	0	201	221	264528	264466	6.3	34.7
HVIT016363-PA	Scaffold76	58.97	39	8	1	201	239	1194883	1194975	1.4	36.6
HVIT016363-PA	Scaffold400	83.33	18	3	0	200	217	347827	347880	1.6	32.0
HVIT016363-PA	Scaffold400	64.29	14	5	0	226	239	347909	347950	1.6	22.3
HVIT016363-PA	Scaffold400	69.57	23	7	0	199	221	348399	348331	3.3	35.4
HVIT016363-PA	Scaffold400	54.05	37	10	1	199	235	584040	584129	5.2	34.7
HVIT016363-PA	Scaffold1925	66.67	24	8	0	198	221	130012	130083	1.6	36.6
HVIT016363-PA	Scaffold40441	68.00	25	8	0	200	224	170	244	1.6	35.8
HVIT016363-PA	Scaffold238	72.00	25	7	0	209	233	1346099	1346025	1.6	36.6
HVIT016363-PA	Scaffold44690	51.16	43	11	1	197	239	647	549	1.6	36.2
HVIT016363-PA	Scaffold351	64.00	25	9	0	193	217	319653	319579	1.7	32.3
HVIT016363-PA	Scaffold351	61.54	13	5	0	221	233	319573	319535	1.7	21.9
HVIT016363-PA	Scaffold149	60.71	28	11	0	197	224	1704751	1704668	1.7	36.2
HVIT016363-PA	Scaffold41328	47.83	46	20	1	201	246	744	869	1.7	36.2
HVIT016363-PA	Scaffold427	46.15	39	21	0	186	224	280843	280727	1.8	36.2
HVIT016363-PA	Scaffold952	63.33	30	10	1	194	223	103421	103335	1.8	36.2
HVIT016363-PA	Scaffold2328	69.57	23	7	0	201	223	154248	154180	1.8	36.2
HVIT016363-PA	Scaffold1582	57.89	38	10	1	201	238	466391	466296	1.9	36.2
HVIT016363-PA	Scaffold13	48.65	37	16	1	187	220	3694588	3694478	1.9	32.7
HVIT016363-PA	Scaffold13	81.82	11	2	0	228	238	3694475	3694443	1.9	21.6
HVIT016363-PA	Scaffold58761	94.44	18	1	0	200	217	725	778	1.9	36.2
HVIT016363-PA	Scaffold447	66.67	24	8	0	196	219	772242	772171	2.0	36.2
HVIT016363-PA	Scaffold183	76.19	21	5	0	201	221	1258121	1258059	2.0	36.2
HVIT016363-PA	Scaffold1031	94.44	18	1	0	200	217	60670	60617	2.1	36.2
HVIT016363-PA	Scaffold857	70.83	24	7	0	200	223	844228	844299	2.1	36.2
HVIT016363-PA	Scaffold381	62.07	29	11	0	195	223	538239	538325	2.1	36.2
HVIT016363-PA	Scaffold381	45.65	46	24	1	179	223	72337	72474	8.2	34.3
HVIT016363-PA	Scaffold1083	73.91	23	6	0	201	223	330119	330187	2.4	35.8
HVIT016363-PA	Scaffold1773	88.89	18	2	0	198	215	37520	37467	2.4	35.8
HVIT016363-PA	Scaffold1149	57.69	26	11	0	226	251	300762	300839	2.5	32.0
HVIT016363-PA	Scaffold1149	53.33	15	7	0	209	223	300713	300757	2.5	21.9
HVIT016363-PA	Scaffold10355	52.08	48	20	2	180	224	1312	1169	2.5	35.8
HVIT016363-PA	Scaffold1024	69.57	23	7	0	202	224	403101	403033	2.6	32.7
HVIT016363-PA	Scaffold1024	81.82	11	2	0	225	235	403034	403002	2.6	21.2
HVIT016363-PA	Scaffold770	69.23	26	8	0	199	224	470926	471003	2.7	35.8
HVIT016363-PA	Scaffold676	55.56	27	12	0	198	224	669260	669340	2.7	35.8
HVIT016363-PA	Scaffold20369	70.83	24	7	0	201	224	349	278	2.8	35.4
HVIT016363-PA	Scaffold265	69.23	26	7	1	200	224	1859088	1859011	2.9	32.7
HVIT016363-PA	Scaffold265	81.82	11	2	0	225	235	1859012	1858980	2.9	20.8
HVIT016363-PA	Scaffold105	33.87	62	34	2	165	224	391893	392063	3.0	32.7
HVIT016363-PA	Scaffold105	81.82	11	2	0	225	235	392062	392094	3.0	20.4
HVIT016363-PA	Scaffold521	60.00	25	10	0	200	224	479284	479358	3.1	33.1
HVIT016363-PA	Scaffold521	76.92	13	3	0	225	237	479357	479395	3.1	20.4
HVIT016363-PA	Scaffold261	70.83	24	7	0	201	224	925814	925743	3.1	35.4
HVIT016363-PA	Scaffold1021	59.26	27	11	0	200	226	192504	192584	3.2	35.4
HVIT016363-PA	Scaffold207	85.71	21	2	1	200	220	371089	371148	3.2	35.4
HVIT016363-PA	Scaffold343	56.67	30	12	1	189	217	104465	104376	3.3	35.4
HVIT016363-PA	Scaffold7243	62.50	24	9	0	201	224	6508	6437	3.4	31.2
HVIT016363-PA	Scaffold7243	69.23	13	4	0	226	238	6432	6394	3.4	22.7
HVIT016363-PA	Scaffold374	77.78	18	4	0	200	217	114771	114718	3.6	30.0
HVIT016363-PA	Scaffold374	69.23	13	4	0	226	238	114715	114677	3.6	23.1
HVIT016363-PA	Scaffold103	64.00	25	8	1	200	224	2362339	2362410	3.7	30.0
HVIT016363-PA	Scaffold103	44.00	25	14	0	225	249	2362409	2362483	3.7	22.7
HVIT016363-PA	Scaffold25	60.00	25	10	0	199	223	2202520	2202446	3.8	35.4
HVIT016363-PA	Scaffold457	63.64	33	11	1	200	232	1957113	1957208	3.8	35.4
HVIT016363-PA	Scaffold200	72.22	18	5	0	221	238	2540987	2540934	4.1	28.9
HVIT016363-PA	Scaffold200	57.14	21	9	0	199	219	2541033	2540971	4.1	24.3
HVIT016363-PA	Scaffold1256	61.29	31	11	1	194	224	69580	69669	4.1	35.0
HVIT016363-PA	Scaffold1026	81.25	16	3	0	209	224	209342	209389	4.3	26.6
HVIT016363-PA	Scaffold1026	84.62	13	2	0	225	237	209388	209426	4.3	26.2
HVIT016363-PA	Scaffold636	43.75	48	22	2	178	220	250034	249891	4.3	35.0
HVIT016363-PA	Scaffold295	55.17	29	13	0	199	227	544258	544172	4.3	35.0
HVIT016363-PA	Scaffold11733	58.62	29	10	1	197	223	29	115	4.7	35.0
HVIT016363-PA	Scaffold43529	64.00	25	9	0	200	224	2226	2152	4.7	34.7
HVIT016363-PA	Scaffold156	71.05	38	11	0	201	238	632620	632507	4.8	35.0
HVIT016363-PA	Scaffold1182	47.62	42	19	1	200	241	222135	222019	4.9	35.0
HVIT016363-PA	Scaffold191	59.26	27	11	0	194	220	1500509	1500589	4.9	35.0
HVIT016363-PA	Scaffold871	64.00	25	9	0	200	224	552324	552250	5.0	33.9
HVIT016363-PA	Scaffold871	66.67	12	4	0	225	236	552251	552216	5.0	18.9
HVIT016363-PA	Scaffold637	61.54	26	10	0	199	224	402953	403030	5.3	34.7
HVIT016363-PA	Scaffold726	72.22	18	5	0	199	216	549760	549707	5.8	28.1
HVIT016363-PA	Scaffold726	47.22	36	13	2	210	239	549705	549598	5.8	24.6
HVIT016363-PA	Scaffold274	45.00	40	22	0	182	221	547345	547464	5.8	34.7
HVIT016363-PA	Scaffold1338	72.22	18	5	0	207	224	301278	301331	5.8	26.9
HVIT016363-PA	Scaffold1338	71.43	14	4	0	225	238	301330	301371	5.8	25.4
HVIT016363-PA	Scaffold1981	56.00	25	11	0	225	249	129613	129539	6.2	26.6
HVIT016363-PA	Scaffold1981	70.59	17	5	0	200	216	129668	129618	6.2	25.8
HVIT016363-PA	Scaffold111	51.52	33	16	0	194	226	2692317	2692219	6.3	34.7
HVIT016363-PA	Scaffold866	88.89	18	2	0	200	217	205853	205906	6.3	34.7
HVIT016363-PA	Scaffold864	51.61	31	15	0	219	249	57164	57072	6.4	32.0
HVIT016363-PA	Scaffold864	79.17	24	5	0	200	223	57246	57175	6.4	20.4
HVIT016363-PA	Scaffold23354	73.91	23	6	0	202	224	7148	7080	6.7	34.3
HVIT016363-PA	Scaffold284	59.26	27	11	0	198	224	501570	501490	7.2	34.3
HVIT016363-PA	Scaffold349	68.00	25	8	0	200	224	832597	832523	7.3	34.3
HVIT016363-PA	Scaffold113	65.38	26	9	0	199	224	1442006	1442083	8.1	34.3
HVIT016363-PA	Scaffold14768	46.51	43	17	2	200	237	7336	7211	8.2	34.3
HVIT016363-PA	Scaffold17829	66.67	21	7	0	201	221	5602	5664	8.4	34.3
HVIT016363-PA	Scaffold1996	66.67	24	8	0	201	224	68889	68818	8.5	34.3
HVIT016363-PA	Scaffold548	53.85	26	12	0	196	221	148859	148782	9.3	33.9
HVIT016363-PA	Scaffold528	54.05	37	17	0	203	239	612332	612442	9.5	33.9
HVIT016363-PA	Scaffold503	87.50	16	2	0	201	216	587243	587290	9.7	30.4
HVIT016363-PA	Scaffold503	61.11	18	7	0	229	246	587296	587349	9.7	21.2
HVIT016363-PA	Scaffold17376	53.66	41	15	1	184	224	9533	9423	9.9	33.9
