 	Full Command:                      hmmsearch --cpu 4 --pfamtblout OR37/OR37.hmm.faa.pfam.tbl OR37/OR37.Uniprot.hmm HVIT.genome/Hvit.faa 
	Memory (kb):                       91408 
	# SWAP  (freq):                    0 
	# Waits (freq):                    168 
	CPU (percent):                     293% 
	Time (seconds):                    0.24 
	Time (hh:mm:ss.ms):                0:00.24 
	System CPU Time (seconds):         0.04 
	User   CPU Time (seconds):         0.67 
