  Started on:            chrom17
  Started at:            Sat Mar 5 20:48:21 PST 2016
# hmmsearch :: search profile(s) against a sequence database
# HMMER 3.1b1 (May 2013); http://hmmer.org/
# Copyright (C) 2013 Howard Hughes Medical Institute.
# Freely distributed under the GNU General Public License (GPLv3).
# - - - - - - - - - - - - - - - - - - - - - - - - - - - - - - - - - - - -
# query HMM file:                  BmGEMININ/BmGEMININ.Uniprot.hmm
# target sequence database:        HVIT.genome/Hvit.faa
# pfam-style tabular hit output:   BmGEMININ/BmGEMININ.hmm.faa.pfam.tbl
# number of worker threads:        4
# - - - - - - - - - - - - - - - - - - - - - - - - - - - - - - - - - - - -

Query:       BmGEMININ.Uniprot  [M=170]
Scores for complete sequences (score includes all domains):
   --- full sequence ---   --- best 1 domain ---    -#dom-
    E-value  score  bias    E-value  score  bias    exp  N  Sequence      Description
    ------- ------ -----    ------- ------ -----   ---- --  --------      -----------
  ------ inclusion threshold ------
        1.3    9.8   9.5       0.68   10.7   1.0    2.0  2  HVIT000703-PA  


Domain annotation for each sequence (and alignments):
>> HVIT000703-PA  
   #    score  bias  c-Evalue  i-Evalue hmmfrom  hmm to    alifrom  ali to    envfrom  env to     acc
 ---   ------ ----- --------- --------- ------- -------    ------- -------    ------- -------    ----
   1 ?   10.7   1.0   2.1e-05      0.68     106     139 ..       3      37 ..       1      39 [. 0.81
   2 ?    3.6   3.4    0.0031     1e+02      95     124 ..      38      67 ..      33      79 .. 0.68

  Alignments for each domain:
  == domain 1  score: 10.7 bits;  conditional E-value: 2.1e-05
  BmGEMININ.Uniprot 106 eklrktieelkeenaslkqml.eeansfveiikee 139
                        eklrkt e+lke +a   + l    ns+ e+ k e
      HVIT000703-PA   3 EKLRKTEEDLKESKAQTDKNLsPGKNSMSELEKRE 37 
                        9*************987665515689999988876 PP

  == domain 2  score: 3.6 bits;  conditional E-value: 0.0031
  BmGEMININ.Uniprot  95 qlalqdaldeneklrktieelkeenaslkq 124
                        + a++  l e e   k +e+lk en  l++
      HVIT000703-PA  38 RRAMERKLSEMEEELKQVEKLKCENQKLRD 67 
                        457777888888888888888888877653 PP



Internal pipeline statistics summary:
-------------------------------------
Query model(s):                              1  (170 nodes)
Target sequences:                        33019  (9418578 residues searched)
Passed MSV filter:                      1385  (0.0419455); expected 660.4 (0.02)
Passed bias filter:                      611  (0.0185045); expected 660.4 (0.02)
Passed Vit filter:                        52  (0.00157485); expected 33.0 (0.001)
Passed Fwd filter:                         1  (3.02856e-05); expected 0.3 (1e-05)
Initial search space (Z):              33019  [actual number of targets]
Domain search space  (domZ):               1  [number of targets reported over threshold]
# CPU time: 0.44u 0.02s 00:00:00.46 Elapsed: 00:00:00.14
# Mc/sec: 11436.84
//
[ok]
  Finished at:            Sat Mar 5 20:48:21 PST 2016
