 	Full Command:                      hmmsearch --cpu 4 --pfamtblout nrv1/nrv1.hmm.faa.pfam.tbl nrv1/nrv1.Uniprot.hmm HVIT.genome/Hvit.faa 
	Memory (kb):                       73024 
	# SWAP  (freq):                    0 
	# Waits (freq):                    167 
	CPU (percent):                     272% 
	Time (seconds):                    0.21 
	Time (hh:mm:ss.ms):                0:00.21 
	System CPU Time (seconds):         0.03 
	User   CPU Time (seconds):         0.54 
