HVIT006966-PA	Scaffold23	96.83	914	21	3	157	1066	940176	942905	0.0	1689
HVIT006966-PA	Scaffold23	91.80	61	5	0	132	192	937538	937720	1e-24	118
HVIT006966-PA	Scaffold23	100.00	47	0	0	1105	1151	954693	954833	6e-21	106
HVIT006966-PA	Scaffold23	66.39	122	20	3	65	173	937305	937646	4e-19	100
HVIT006966-PA	Scaffold23	98.51	67	1	0	2	68	936512	936712	1e-18	99.0
HVIT006966-PA	Scaffold866	58.82	51	18	1	301	348	716220	716372	2e-07	61.6
HVIT006966-PA	Scaffold866	40.48	42	25	0	301	342	707596	707721	2.6	38.1
HVIT006966-PA	Scaffold40186	39.08	87	42	5	273	350	317	571	0.052	43.5
HVIT006966-PA	Scaffold228	37.18	78	44	3	277	350	940932	940702	0.058	43.5
HVIT006966-PA	Scaffold56	37.50	56	34	1	296	350	1166641	1166474	1.1	39.7
HVIT006966-PA	Scaffold3	37.50	56	34	1	296	350	229480	229313	1.1	39.7
HVIT006966-PA	Scaffold127	48.15	27	14	0	317	343	320675	320755	1.5	38.9
HVIT006966-PA	Scaffold1990	31.03	87	34	4	261	338	88044	88253	5.5	37.4
HVIT017555-PA	Scaffold424	70.85	247	45	3	79	298	1250526	1249786	2e-87	297
HVIT017555-PA	Scaffold424	98.99	99	1	0	245	343	1249912	1249616	1e-54	202
HVIT017555-PA	Scaffold424	90.10	101	6	1	1	101	1250764	1250474	4e-30	129
HVIT017555-PA	Scaffold424	42.86	84	46	2	248	330	965240	964992	1e-09	65.9
HVIT017555-PA	Scaffold424	43.08	65	33	2	190	250	1137984	1137790	6e-05	50.8
HVIT017555-PA	Scaffold424	43.75	48	26	1	192	238	1166075	1165932	7e-04	47.4
HVIT017555-PA	Scaffold424	39.22	51	31	0	266	316	1165795	1165643	0.19	39.7
HVIT017555-PA	Scaffold424	32.73	55	35	1	183	235	1185488	1185324	2.2	36.2
HVIT017555-PA	Scaffold424	45.45	44	23	1	198	241	1303208	1303080	9.2	34.3
HVIT017555-PA	Scaffold58557	48.98	343	99	6	60	326	544	1572	6e-75	256
HVIT017555-PA	Scaffold1471	49.12	342	100	9	60	330	144678	143662	2e-71	251
HVIT017555-PA	Scaffold1471	47.62	42	22	0	190	231	180652	180527	0.001	47.0
HVIT017555-PA	Scaffold59	49.55	220	65	7	162	338	929886	929236	5e-66	172
HVIT017555-PA	Scaffold59	68.49	73	22	1	1	72	930471	930253	5e-66	62.4
HVIT017555-PA	Scaffold59	70.18	57	17	0	97	153	930100	929930	5e-66	55.8
HVIT017555-PA	Scaffold59	54.55	33	12	2	65	95	930278	930183	5e-66	26.9
HVIT017555-PA	Scaffold59	70.91	55	14	1	183	235	3908667	3908503	5e-12	73.2
HVIT017555-PA	Scaffold59	32.12	165	85	3	193	331	2865301	2865792	3e-11	70.5
HVIT017555-PA	Scaffold59	38.41	164	70	5	89	222	2636675	2637163	2e-10	68.2
HVIT017555-PA	Scaffold59	27.40	281	150	8	100	327	2897793	2896954	3e-09	64.3
HVIT017555-PA	Scaffold59	47.69	65	34	0	266	330	2637384	2637578	2e-08	61.6
HVIT017555-PA	Scaffold59	31.58	171	70	6	143	267	1025254	1024745	5e-06	54.3
HVIT017555-PA	Scaffold59	30.04	233	113	6	67	250	1025562	1024867	3e-05	52.0
HVIT017555-PA	Scaffold59	31.93	166	88	7	107	250	2300284	2299796	1e-04	50.1
HVIT017555-PA	Scaffold59	46.30	54	29	0	284	337	1017055	1016894	5e-04	47.8
HVIT017555-PA	Scaffold59	22.88	118	48	3	61	145	3909173	3908850	0.53	38.1
HVIT017555-PA	Scaffold59	60.00	25	10	0	190	214	2905352	2905426	1.9	36.6
HVIT017555-PA	Scaffold21	44.41	349	115	8	60	330	2201853	2200810	1e-63	228
HVIT017555-PA	Scaffold21	40.48	289	114	8	97	330	2174023	2173166	5e-42	164
HVIT017555-PA	Scaffold21	41.94	62	36	0	252	313	527009	526824	1e-04	49.7
HVIT017555-PA	Scaffold214	41.71	350	123	8	61	330	76153	75107	3e-61	221
HVIT017555-PA	Scaffold94	43.18	352	115	10	60	330	1622554	1623597	4e-61	220
HVIT017555-PA	Scaffold94	40.86	350	126	7	61	330	1631158	1632204	2e-59	216
HVIT017555-PA	Scaffold94	39.24	344	125	9	66	330	1636169	1637185	1e-52	196
HVIT017555-PA	Scaffold94	61.82	55	21	0	97	151	1643943	1644107	2e-13	52.4
HVIT017555-PA	Scaffold94	51.61	31	15	0	215	245	1644322	1644414	2e-13	35.0
HVIT017555-PA	Scaffold94	36.17	47	28	1	168	212	1644182	1644322	2e-13	31.2
HVIT017555-PA	Scaffold149	57.89	95	23	2	173	250	531712	531996	1e-60	95.1
HVIT017555-PA	Scaffold149	62.50	64	23	1	266	328	532110	532301	1e-60	84.3
HVIT017555-PA	Scaffold149	55.06	89	36	1	1	89	531127	531381	1e-60	60.1
HVIT017555-PA	Scaffold149	66.67	57	19	0	97	153	531465	531635	1e-60	56.2
HVIT017555-PA	Scaffold149	60.00	15	6	0	254	268	532070	532114	1e-60	24.3
HVIT017555-PA	Scaffold492	43.84	349	117	8	60	330	1090172	1091215	2e-60	218
HVIT017555-PA	Scaffold492	44.83	290	105	7	95	330	1000371	1001237	6e-51	191
HVIT017555-PA	Scaffold14	45.17	290	104	6	95	330	1961392	1962258	2e-53	198
HVIT017555-PA	Scaffold14	33.90	292	139	7	92	330	1807104	1806232	2e-29	127
HVIT017555-PA	Scaffold14	33.08	130	73	4	97	213	3737756	3738142	2e-05	36.6
HVIT017555-PA	Scaffold14	36.67	60	29	2	214	273	3738148	3738300	2e-05	35.4
HVIT017555-PA	Scaffold14	51.43	70	33	1	95	164	4050041	4049835	3e-04	46.6
HVIT017555-PA	Scaffold14	66.67	12	4	0	170	181	4049785	4049750	3e-04	21.2
HVIT017555-PA	Scaffold14	39.62	53	32	0	198	250	4014212	4014370	1.2	37.0
HVIT017555-PA	Scaffold857	41.10	309	111	10	1	250	251271	250381	1e-52	152
HVIT017555-PA	Scaffold857	48.78	82	36	1	255	330	250310	250065	1e-52	79.0
HVIT017555-PA	Scaffold857	44.24	165	61	3	183	319	501137	501622	4e-24	110
HVIT017555-PA	Scaffold857	63.79	58	20	1	190	247	460346	460176	7e-13	75.5
HVIT017555-PA	Scaffold857	37.50	72	40	3	190	260	693496	693699	2e-04	48.9
HVIT017555-PA	Scaffold857	42.86	49	28	0	266	314	132322	132468	0.072	40.8
HVIT017555-PA	Scaffold857	38.78	49	30	0	282	330	460003	459857	0.14	40.0
HVIT017555-PA	Scaffold857	39.53	43	26	0	277	319	693842	693970	7.2	34.7
HVIT017555-PA	Scaffold179	43.10	290	110	7	95	330	35403	34537	5e-46	176
HVIT017555-PA	Scaffold179	57.32	82	30	2	174	250	814340	814585	4e-18	84.0
HVIT017555-PA	Scaffold179	41.18	34	20	0	266	299	814704	814805	4e-18	31.6
HVIT017555-PA	Scaffold179	38.81	134	48	3	194	298	1006146	1005760	1e-14	72.4
HVIT017555-PA	Scaffold179	40.00	35	21	0	296	330	1005776	1005672	1e-14	31.2
HVIT017555-PA	Scaffold179	53.66	41	19	0	290	330	1107175	1107297	4e-04	48.1
HVIT017555-PA	Scaffold179	37.61	109	41	2	67	148	1006673	1006347	0.80	37.7
HVIT017555-PA	Scaffold1	38.24	340	132	8	67	330	1997366	1996353	1e-45	175
HVIT017555-PA	Scaffold1	37.85	177	59	7	95	226	3544358	3543846	9e-16	72.0
HVIT017555-PA	Scaffold1	43.48	23	13	0	67	89	3544525	3544457	9e-16	29.6
HVIT017555-PA	Scaffold1	54.55	22	10	0	222	243	3543859	3543794	9e-16	25.4
HVIT017555-PA	Scaffold1	60.38	53	18	2	183	233	3543981	3543826	2e-07	58.5
HVIT017555-PA	Scaffold1	36.99	73	45	1	259	330	2288211	2287993	0.001	47.0
HVIT017555-PA	Scaffold1	49.09	55	27	1	110	164	2299804	2299643	0.001	46.6
HVIT017555-PA	Scaffold1	50.00	36	18	0	278	313	1191042	1191149	0.040	42.0
HVIT017555-PA	Scaffold183	37.19	242	99	6	61	250	1913207	1913929	2e-45	124
HVIT017555-PA	Scaffold183	50.00	82	41	0	249	330	1913995	1914240	2e-45	82.8
HVIT017555-PA	Scaffold183	47.13	157	46	5	60	181	1375213	1374749	1e-18	93.2
HVIT017555-PA	Scaffold183	37.32	142	60	6	133	250	1945288	1945698	8e-15	81.3
HVIT017555-PA	Scaffold183	27.50	160	88	5	184	315	2525024	2525503	4e-05	51.6
HVIT017555-PA	Scaffold183	43.86	57	24	2	191	247	1980189	1980335	8e-04	47.0
HVIT017555-PA	Scaffold183	32.58	89	53	2	73	161	2045859	2046104	0.92	37.4
HVIT017555-PA	Scaffold183	42.00	50	25	1	286	335	1945850	1945987	3.1	35.8
HVIT017555-PA	Scaffold259	47.40	192	70	5	88	250	703459	704028	3e-45	142
HVIT017555-PA	Scaffold259	54.29	35	16	0	266	300	704150	704254	3e-45	48.1
HVIT017555-PA	Scaffold259	34.83	89	50	2	1	89	703130	703372	3e-45	36.2
HVIT017555-PA	Scaffold259	60.71	56	22	0	192	247	704306	704473	5e-14	79.0
HVIT017555-PA	Scaffold259	53.19	47	22	0	284	330	705924	706064	1e-05	53.1
HVIT017555-PA	Scaffold411	37.83	341	138	8	63	330	517190	516171	9e-45	172
HVIT017555-PA	Scaffold411	27.14	280	142	11	83	308	1894292	1895107	5e-09	63.9
HVIT017555-PA	Scaffold411	68.18	22	7	0	133	154	121404	121469	0.21	35.4
HVIT017555-PA	Scaffold411	58.33	12	5	0	106	117	121324	121359	0.21	22.3
HVIT017555-PA	Scaffold411	67.86	28	7	1	182	207	1863592	1863675	0.36	38.9
HVIT017555-PA	Scaffold136	49.14	232	65	7	133	314	1989862	1989176	1e-44	170
HVIT017555-PA	Scaffold136	60.87	23	9	0	97	119	1989957	1989889	1e-44	33.5
HVIT017555-PA	Scaffold136	83.33	18	3	0	133	150	1991210	1991157	6e-05	36.6
HVIT017555-PA	Scaffold136	60.87	23	9	0	97	119	1991305	1991237	6e-05	33.5
HVIT017555-PA	Scaffold136	27.21	147	78	5	188	307	1808287	1807853	2.1	36.2
HVIT017555-PA	Scaffold2245	54.86	175	52	3	183	330	77062	76538	3e-44	171
HVIT017555-PA	Scaffold177	42.71	288	110	7	95	330	1738154	1739008	4e-44	171
HVIT017555-PA	Scaffold177	37.98	287	124	6	97	330	1924598	1925455	2e-39	157
HVIT017555-PA	Scaffold177	41.96	143	63	3	205	330	2469999	2469580	7e-38	95.9
HVIT017555-PA	Scaffold177	68.63	51	16	0	95	145	2470411	2470259	7e-38	55.8
HVIT017555-PA	Scaffold177	37.36	91	27	5	145	206	2470265	2469996	7e-38	47.8
HVIT017555-PA	Scaffold177	52.94	17	8	0	73	89	2470557	2470507	7e-38	22.7
HVIT017555-PA	Scaffold177	36.36	154	72	3	202	330	46432	46890	6e-24	81.6
HVIT017555-PA	Scaffold177	37.96	137	60	4	97	210	46055	46459	6e-24	53.5
HVIT017555-PA	Scaffold177	48.68	76	36	2	180	253	1542731	1542507	2e-06	55.5
HVIT017555-PA	Scaffold48	42.86	259	93	7	95	299	3358387	3357614	3e-42	164
HVIT017555-PA	Scaffold48	37.25	51	24	1	300	342	3357615	3357463	3e-42	31.2
HVIT017555-PA	Scaffold48	60.00	15	6	0	75	89	3358526	3358482	3e-42	21.6
HVIT017555-PA	Scaffold204	79.41	68	12	1	183	248	1217607	1217810	6e-42	106
HVIT017555-PA	Scaffold204	47.47	158	44	6	60	181	1217096	1217560	6e-42	89.0
HVIT017555-PA	Scaffold204	65.57	61	21	0	266	326	1217935	1218117	5e-16	85.1
HVIT017555-PA	Scaffold204	43.08	65	31	1	266	330	2291397	2291221	9e-07	56.6
HVIT017555-PA	Scaffold204	44.16	77	41	1	176	250	2102516	2102286	4e-06	54.7
HVIT017555-PA	Scaffold204	36.25	80	44	2	109	181	2295254	2295015	3e-05	35.4
HVIT017555-PA	Scaffold204	53.57	28	13	0	211	238	2294892	2294809	3e-05	31.6
HVIT017555-PA	Scaffold204	66.67	15	5	0	195	209	2294938	2294894	3e-05	23.1
HVIT017555-PA	Scaffold4711	41.02	295	117	10	97	341	87423	88286	1e-41	164
HVIT017555-PA	Scaffold4711	40.47	257	100	8	95	302	76631	77389	2e-34	142
HVIT017555-PA	Scaffold41573	41.84	141	54	4	215	330	1714	1301	5e-41	93.6
HVIT017555-PA	Scaffold41573	35.56	180	60	6	67	191	2316	1780	5e-41	75.9
HVIT017555-PA	Scaffold41573	76.92	26	6	0	185	210	1796	1719	5e-41	43.9
HVIT017555-PA	Scaffold727	37.54	341	135	9	67	331	358395	357379	2e-40	160
HVIT017555-PA	Scaffold727	44.05	168	64	3	190	330	942309	941815	1e-23	109
HVIT017555-PA	Scaffold727	40.71	140	59	5	133	250	1434184	1434597	7e-17	87.8
HVIT017555-PA	Scaffold727	36.70	109	42	2	69	150	942836	942510	4e-05	51.2
HVIT017555-PA	Scaffold2043	36.54	353	136	11	63	330	75696	76745	2e-39	157
HVIT017555-PA	Scaffold80	40.42	287	110	10	81	313	2721415	2720576	2e-39	157
HVIT017555-PA	Scaffold334	37.74	318	120	11	63	304	1226227	1227174	3e-39	156
HVIT017555-PA	Scaffold334	42.13	178	76	4	188	341	1158343	1158867	2e-24	111
HVIT017555-PA	Scaffold334	32.77	296	113	10	67	282	1171894	1171025	2e-23	108
HVIT017555-PA	Scaffold334	38.55	83	50	1	249	330	1171130	1170882	8e-05	50.4
HVIT017555-PA	Scaffold41	38.26	298	124	9	91	330	2055762	2056649	3e-39	156
HVIT017555-PA	Scaffold41	37.59	266	113	7	98	314	470350	471135	2e-33	139
HVIT017555-PA	Scaffold41	73.13	67	16	1	183	247	1016302	1016502	3e-20	98.2
HVIT017555-PA	Scaffold41	52.31	65	31	0	266	330	1016627	1016821	1e-11	71.6
HVIT017555-PA	Scaffold41	41.86	43	24	1	190	231	1116056	1116184	0.007	44.3
HVIT017555-PA	Scaffold41	37.33	75	43	2	180	250	418247	418023	0.018	43.1
HVIT017555-PA	Scaffold41	32.79	61	30	1	133	182	1015764	1015946	4.5	35.4
HVIT017555-PA	Scaffold154	36.00	350	136	10	66	330	705977	707017	4e-39	156
HVIT017555-PA	Scaffold154	32.84	271	111	9	97	302	464280	463486	7e-21	97.8
HVIT017555-PA	Scaffold154	45.45	33	18	0	298	330	463502	463404	7e-21	26.9
HVIT017555-PA	Scaffold154	70.15	67	18	1	183	247	120126	119926	9e-18	90.5
HVIT017555-PA	Scaffold154	68.63	51	16	0	95	145	120460	120308	4e-10	58.5
HVIT017555-PA	Scaffold154	28.57	91	49	2	1	87	120801	120565	4e-10	30.0
HVIT017555-PA	Scaffold83	40.07	287	116	8	97	330	132234	131383	6e-39	155
HVIT017555-PA	Scaffold2103	38.18	296	133	8	91	338	134457	135338	7e-39	155
HVIT017555-PA	Scaffold100	40.74	297	115	10	97	341	44509	43646	8e-39	155
HVIT017555-PA	Scaffold100	48.53	68	35	0	263	330	1302634	1302431	9e-10	66.2
HVIT017555-PA	Scaffold100	32.29	96	41	3	210	282	1302860	1302576	0.065	41.2
HVIT017555-PA	Scaffold371	51.43	175	58	3	183	330	20575	21099	9e-39	151
HVIT017555-PA	Scaffold371	58.62	29	11	1	136	164	20376	20459	9e-39	33.9
HVIT017555-PA	Scaffold371	40.28	216	77	6	67	230	19815	19168	7e-28	122
HVIT017555-PA	Scaffold371	48.72	39	17	1	84	119	16954	17070	0.17	35.0
HVIT017555-PA	Scaffold371	38.10	21	13	0	67	87	16829	16891	0.17	23.5
HVIT017555-PA	Scaffold512	44.58	240	74	6	67	248	600721	601437	3e-38	154
HVIT017555-PA	Scaffold512	60.66	61	24	0	270	330	601574	601756	9e-15	81.3
HVIT017555-PA	Scaffold512	44.00	50	25	2	185	231	164474	164623	0.50	38.5
HVIT017555-PA	Scaffold512	40.43	47	27	1	193	238	1378941	1379081	3.2	35.8
HVIT017555-PA	Scaffold41810	42.37	177	56	5	183	330	715	236	9e-38	108
HVIT017555-PA	Scaffold41810	37.82	156	56	4	67	182	1263	799	9e-38	73.2
HVIT017555-PA	Scaffold162	39.30	285	120	8	96	330	1275767	1276612	1e-37	152
HVIT017555-PA	Scaffold45	69.70	66	19	1	183	247	3118508	3118705	1e-37	87.8
HVIT017555-PA	Scaffold45	50.00	48	23	1	254	300	3118794	3118937	1e-37	53.5
HVIT017555-PA	Scaffold45	28.08	146	59	6	1	115	3117883	3118275	1e-37	41.2
HVIT017555-PA	Scaffold45	59.38	32	12	1	133	164	3118326	3118418	1e-37	38.9
HVIT017555-PA	Scaffold45	30.85	188	99	5	183	342	2154561	2154007	3e-12	73.6
HVIT017555-PA	Scaffold45	33.10	142	69	4	192	308	1068090	1068512	1e-09	65.9
HVIT017555-PA	Scaffold4412	36.77	310	140	9	75	330	8493	9416	2e-37	151
HVIT017555-PA	Scaffold130	46.25	160	58	6	104	239	617831	617364	2e-37	105
HVIT017555-PA	Scaffold130	43.56	101	49	1	236	328	617319	617017	2e-37	75.5
HVIT017555-PA	Scaffold130	29.14	151	83	3	95	221	1813458	1813910	5e-04	47.8
HVIT017555-PA	Scaffold888	46.20	171	55	4	1	144	231638	231156	8e-37	89.4
HVIT017555-PA	Scaffold888	41.25	160	56	7	158	281	231096	230623	8e-37	89.0
HVIT017555-PA	Scaffold888	67.69	65	21	0	266	330	230669	230475	8e-19	94.0
HVIT017555-PA	Scaffold888	19.29	197	124	4	178	339	143309	143899	3.7	35.4
HVIT017555-PA	Scaffold380	37.10	345	130	10	69	330	1324549	1323527	1e-36	148
HVIT017555-PA	Scaffold380	34.51	142	71	2	211	330	1462648	1463073	8e-12	72.4
HVIT017555-PA	Scaffold380	43.33	60	26	2	191	250	1543388	1543233	0.001	46.6
HVIT017555-PA	Scaffold906	38.60	285	122	8	96	330	228538	229383	2e-36	148
HVIT017555-PA	Scaffold910	38.63	233	96	7	63	250	345579	346271	2e-36	110
HVIT017555-PA	Scaffold910	43.75	80	38	1	258	330	346346	346585	2e-36	66.6
HVIT017555-PA	Scaffold910	44.19	43	23	1	190	231	889250	889122	0.001	47.0
HVIT017555-PA	Scaffold910	61.70	47	18	0	97	143	728648	728508	0.002	45.8
HVIT017555-PA	Scaffold910	38.46	65	27	2	192	243	266935	267129	0.009	38.1
HVIT017555-PA	Scaffold910	31.71	41	28	0	267	307	267222	267344	0.009	24.6
HVIT017555-PA	Scaffold910	40.00	50	27	2	185	231	477763	477912	0.47	38.5
HVIT017555-PA	Scaffold8	37.24	290	128	9	90	330	1022309	1021455	7e-36	146
HVIT017555-PA	Scaffold8	32.20	59	36	3	183	238	4368218	4368045	0.16	40.0
HVIT017555-PA	Scaffold129	46.81	188	68	5	175	330	467877	467314	9e-36	146
HVIT017555-PA	Scaffold129	37.91	182	68	4	1	153	468542	468045	5e-11	69.7
HVIT017555-PA	Scaffold61	38.41	289	121	10	97	330	3663540	3662680	1e-35	145
HVIT017555-PA	Scaffold73	42.86	112	43	3	150	240	2363379	2363044	2e-35	76.6
HVIT017555-PA	Scaffold73	60.92	87	30	1	9	95	2363785	2363537	2e-35	75.1
HVIT017555-PA	Scaffold73	62.75	51	19	0	103	153	2363519	2363367	2e-35	42.7
HVIT017555-PA	Scaffold73	41.04	173	63	4	190	330	2363197	2362700	1e-23	109
HVIT017555-PA	Scaffold73	40.32	62	24	3	133	182	3137022	3137204	0.014	43.1
HVIT017555-PA	Scaffold73	34.67	75	22	2	64	111	916009	916233	1.5	37.0
HVIT017555-PA	Scaffold339	37.24	145	65	3	212	331	1090460	1090029	2e-35	87.4
HVIT017555-PA	Scaffold339	36.79	212	72	7	63	214	1091080	1090451	2e-35	86.3
HVIT017555-PA	Scaffold339	33.60	253	114	10	107	310	1688921	1688178	1e-14	80.9
HVIT017555-PA	Scaffold339	34.00	100	58	3	183	274	807546	807247	2e-07	40.4
HVIT017555-PA	Scaffold339	50.00	38	18	1	273	310	807191	807081	2e-07	38.5
HVIT017555-PA	Scaffold339	38.66	119	42	3	63	150	1630068	1629712	9e-05	50.4
HVIT017555-PA	Scaffold339	56.25	32	14	0	190	221	768282	768377	0.059	41.2
HVIT017555-PA	Scaffold71	44.00	175	69	4	176	322	1415324	1414803	4e-35	122
HVIT017555-PA	Scaffold71	48.57	70	35	1	98	167	1415628	1415422	4e-35	49.7
HVIT017555-PA	Scaffold71	40.32	248	87	9	64	252	3079088	3079825	4e-33	120
HVIT017555-PA	Scaffold71	40.00	65	30	2	266	328	3079938	3080111	4e-33	44.7
HVIT017555-PA	Scaffold71	61.97	71	24	2	182	250	55147	54938	1e-16	87.0
HVIT017555-PA	Scaffold71	35.46	141	63	4	183	296	54701	54282	2e-13	77.4
HVIT017555-PA	Scaffold71	61.22	49	18	1	266	314	1037159	1037016	1e-07	59.3
HVIT017555-PA	Scaffold71	36.45	107	43	2	183	287	1037490	1037239	3e-06	55.1
HVIT017555-PA	Scaffold71	46.34	41	22	0	192	232	470819	470941	0.002	45.8
HVIT017555-PA	Scaffold71	31.61	155	85	3	106	239	1037779	1037315	0.067	41.2
HVIT017555-PA	Scaffold71	54.55	33	13	1	186	216	3379156	3379254	0.35	38.9
HVIT017555-PA	Scaffold617	40.07	287	116	11	104	341	1430539	1431378	7e-35	143
HVIT017555-PA	Scaffold617	31.06	322	158	9	66	330	150650	151594	8e-22	103
HVIT017555-PA	Scaffold617	39.58	144	60	5	133	250	583724	584152	3e-18	92.0
HVIT017555-PA	Scaffold617	55.00	40	18	0	291	330	133301	133182	4e-04	48.5
HVIT017555-PA	Scaffold617	69.57	23	7	0	97	119	1399664	1399732	0.002	34.7
HVIT017555-PA	Scaffold617	75.00	16	4	0	133	148	1399771	1399818	0.002	30.8
HVIT017555-PA	Scaffold1582	41.22	148	60	5	137	260	72202	72636	1e-34	92.4
HVIT017555-PA	Scaffold1582	46.84	79	41	1	264	341	72720	72956	1e-34	70.9
HVIT017555-PA	Scaffold1582	50.00	24	12	0	96	119	72080	72151	1e-34	28.1
HVIT017555-PA	Scaffold47	38.35	279	120	7	102	330	2767864	2767034	1e-34	142
HVIT017555-PA	Scaffold47	41.10	73	33	2	170	242	1891093	1890905	0.002	45.8
HVIT017555-PA	Scaffold1774	57.55	212	53	7	1	177	244949	245578	1e-34	142
HVIT017555-PA	Scaffold1774	32.08	212	83	10	135	290	158148	158768	1e-18	87.0
HVIT017555-PA	Scaffold1774	32.08	212	83	10	135	290	213107	213727	1e-18	87.0
HVIT017555-PA	Scaffold1774	58.33	24	9	1	96	119	158032	158100	1e-18	30.4
HVIT017555-PA	Scaffold1774	58.33	24	9	1	96	119	212991	213059	1e-18	30.4
HVIT017555-PA	Scaffold1774	28.74	167	80	6	180	307	128939	128439	2e-07	58.9
HVIT017555-PA	Scaffold1774	35.09	57	36	1	194	250	94208	94041	0.007	44.3
HVIT017555-PA	Scaffold1774	31.94	72	45	2	256	325	99586	99377	0.039	42.0
HVIT017555-PA	Scaffold1774	42.31	52	27	2	183	231	99882	99727	0.041	42.0
HVIT017555-PA	Scaffold1774	39.22	51	31	0	280	330	158734	158886	0.12	40.4
HVIT017555-PA	Scaffold1774	39.22	51	31	0	280	330	213693	213845	0.15	40.0
HVIT017555-PA	Scaffold777	46.99	183	68	4	176	330	929501	928956	2e-34	142
HVIT017555-PA	Scaffold777	27.56	156	86	5	183	311	868825	868358	7e-07	57.0
HVIT017555-PA	Scaffold19	41.18	238	90	4	143	330	3340216	3340929	3e-34	141
HVIT017555-PA	Scaffold19	35.06	154	78	6	190	322	1951387	1950929	1e-09	65.9
HVIT017555-PA	Scaffold19	47.14	70	37	0	97	166	3340077	3340286	2e-08	48.5
HVIT017555-PA	Scaffold19	42.86	28	16	0	60	87	3339884	3339967	2e-08	33.5
HVIT017555-PA	Scaffold19	38.00	50	28	2	185	231	3560170	3560021	0.45	38.5
HVIT017555-PA	Scaffold19	52.50	40	17	1	183	220	4104430	4104549	4.1	35.4
HVIT017555-PA	Scaffold363	45.34	161	60	5	111	247	1219592	1219122	8e-34	98.6
HVIT017555-PA	Scaffold363	51.61	62	30	0	269	330	1219003	1218818	8e-34	69.7
HVIT017555-PA	Scaffold693	38.10	252	99	9	133	330	1245623	1244877	2e-33	139
HVIT017555-PA	Scaffold237	46.34	123	44	3	147	247	33784	34152	2e-33	97.1
HVIT017555-PA	Scaffold237	61.02	59	23	0	95	153	33612	33788	2e-33	58.5
HVIT017555-PA	Scaffold237	52.38	21	10	0	67	87	33443	33505	2e-33	31.6
HVIT017555-PA	Scaffold237	25.81	155	79	5	190	308	119033	118569	0.005	44.7
HVIT017555-PA	Scaffold237	37.74	53	30	2	183	232	26550	26708	0.19	39.7
HVIT017555-PA	Scaffold215	39.15	281	119	10	97	328	2558309	2559142	6e-33	137
HVIT017555-PA	Scaffold215	30.24	205	80	6	195	341	2671222	2670623	3e-10	67.4
HVIT017555-PA	Scaffold215	30.59	170	88	6	194	335	2364932	2364429	2e-08	62.0
HVIT017555-PA	Scaffold215	32.65	49	30	2	186	231	2693639	2693493	1.4	37.0
HVIT017555-PA	Scaffold215	24.22	128	79	4	193	302	24690	25073	5.6	35.0
HVIT017555-PA	Scaffold2820	48.02	177	60	4	183	330	181781	181260	6e-33	137
HVIT017555-PA	Scaffold1365	38.21	246	103	7	133	330	1698	2432	7e-33	137
HVIT017555-PA	Scaffold2617	40.43	141	60	4	133	250	40408	39989	7e-33	90.9
HVIT017555-PA	Scaffold2617	45.24	84	45	1	248	330	39926	39675	7e-33	74.3
HVIT017555-PA	Scaffold2617	29.34	167	74	6	203	327	65400	64906	4e-06	48.1
HVIT017555-PA	Scaffold2617	52.17	23	9	1	183	203	65467	65399	4e-06	26.9
HVIT017555-PA	Scaffold2617	29.01	162	89	4	192	328	102186	101704	0.025	42.4
HVIT017555-PA	Scaffold194	67.82	87	28	0	1	87	2584311	2584051	9e-33	78.6
HVIT017555-PA	Scaffold194	37.95	166	69	5	97	237	2583953	2583483	9e-33	75.1
HVIT017555-PA	Scaffold194	48.72	39	19	1	244	281	2583393	2583277	9e-33	31.6
HVIT017555-PA	Scaffold194	42.11	76	32	3	175	250	2402383	2402574	2e-05	52.0
HVIT017555-PA	Scaffold1622	42.61	176	72	5	183	330	270793	270269	1e-32	121
HVIT017555-PA	Scaffold1622	44.93	69	36	1	96	164	271113	270913	1e-32	43.1
HVIT017555-PA	Scaffold413	43.71	151	52	6	133	253	157822	158265	1e-32	103
HVIT017555-PA	Scaffold413	55.81	43	19	0	266	308	158375	158503	1e-32	50.4
HVIT017555-PA	Scaffold413	56.52	23	10	0	97	119	157719	157787	1e-32	30.8
HVIT017555-PA	Scaffold9762	42.61	176	72	5	183	330	16601	16077	1e-31	115
HVIT017555-PA	Scaffold9762	47.76	67	33	1	98	164	16915	16721	1e-31	45.4
HVIT017555-PA	Scaffold105	45.71	175	67	3	183	330	323058	322537	4e-31	132
HVIT017555-PA	Scaffold55187	41.18	153	64	3	203	330	482	937	1e-30	101
HVIT017555-PA	Scaffold55187	38.41	138	55	6	97	205	81	491	1e-30	56.2
HVIT017555-PA	Scaffold20	47.43	175	64	3	183	330	4971718	4972239	1e-30	130
HVIT017555-PA	Scaffold20	39.74	151	54	5	183	304	5014880	5015308	3e-17	89.0
HVIT017555-PA	Scaffold20	46.15	65	35	0	266	330	2500186	2499992	2e-08	61.6
HVIT017555-PA	Scaffold20	38.14	118	46	2	63	153	5014371	5014724	3e-06	54.7
HVIT017555-PA	Scaffold20	34.52	84	48	2	216	295	2810800	2810558	0.002	46.2
HVIT017555-PA	Scaffold20	42.59	54	29	1	277	330	5641960	5642115	0.016	43.1
HVIT017555-PA	Scaffold20	54.55	33	15	0	194	226	3519911	3519813	6.6	34.7
HVIT017555-PA	Scaffold46	64.62	65	23	0	183	247	9152	9346	1e-30	91.3
HVIT017555-PA	Scaffold46	34.53	223	96	8	1	182	8466	9107	1e-30	66.6
HVIT017555-PA	Scaffold46	43.78	185	72	4	177	330	389251	389802	1e-29	127
HVIT017555-PA	Scaffold46	73.13	67	16	1	183	247	2962534	2962334	5e-20	97.8
HVIT017555-PA	Scaffold46	38.10	168	68	3	90	226	3127822	3127334	9e-18	79.0
HVIT017555-PA	Scaffold46	66.67	27	9	0	224	250	3127343	3127263	9e-18	35.4
HVIT017555-PA	Scaffold46	51.47	68	33	0	95	162	2962872	2962669	6e-09	53.9
HVIT017555-PA	Scaffold46	40.74	27	16	0	61	87	2963039	2962959	6e-09	30.4
HVIT017555-PA	Scaffold46	63.41	41	15	0	279	319	2962166	2962044	6e-08	60.5
HVIT017555-PA	Scaffold46	46.15	52	25	2	183	231	48512	48357	7e-04	47.4
HVIT017555-PA	Scaffold46	38.57	70	38	1	84	148	388898	389107	0.083	40.8
HVIT017555-PA	Scaffold510	38.34	253	96	8	94	294	143953	143219	1e-30	130
HVIT017555-PA	Scaffold510	32.94	85	50	2	249	330	143360	143118	0.10	40.4
HVIT017555-PA	Scaffold7482	38.80	250	100	10	133	330	16349	15603	1e-30	126
HVIT017555-PA	Scaffold7482	70.00	20	6	0	97	116	16455	16396	1e-30	31.2
HVIT017555-PA	Scaffold2691	37.36	182	85	4	97	250	87373	87915	1e-30	89.4
HVIT017555-PA	Scaffold2691	50.77	65	32	0	266	330	88035	88229	1e-30	68.2
HVIT017555-PA	Scaffold465	46.29	175	66	6	183	330	1132190	1131669	3e-30	129
HVIT017555-PA	Scaffold465	50.88	57	28	0	97	153	1132519	1132349	0.002	46.2
HVIT017555-PA	Scaffold1239	45.98	174	64	4	95	239	210209	209691	4e-30	122
HVIT017555-PA	Scaffold1239	45.16	31	17	0	67	97	210381	210289	4e-30	33.1
HVIT017555-PA	Scaffold1323	40.52	153	64	3	203	330	14353	13901	7e-30	94.4
HVIT017555-PA	Scaffold1323	40.00	140	58	4	97	210	14751	14332	7e-30	60.8
HVIT017555-PA	Scaffold11	43.66	142	53	7	133	250	2369991	2370407	1e-29	90.1
HVIT017555-PA	Scaffold11	43.59	78	44	0	253	330	2370488	2370721	1e-29	64.3
HVIT017555-PA	Scaffold2775	32.57	350	149	10	63	330	139087	140121	1e-29	127
HVIT017555-PA	Scaffold2775	28.57	161	88	5	192	327	183721	184197	3e-08	61.2
HVIT017555-PA	Scaffold2775	35.53	76	45	2	266	337	45451	45678	0.11	40.4
HVIT017555-PA	Scaffold2775	40.85	71	40	2	266	334	155017	155229	0.46	38.5
HVIT017555-PA	Scaffold2775	22.64	159	101	5	190	327	118622	119095	1.0	37.4
HVIT017555-PA	Scaffold2239	42.54	134	40	6	143	247	72834	73211	2e-29	82.0
HVIT017555-PA	Scaffold2239	52.70	74	30	2	257	330	73297	73503	2e-29	71.6
HVIT017555-PA	Scaffold7204	51.81	166	58	3	97	240	17397	16900	3e-29	126
HVIT017555-PA	Scaffold7204	58.49	53	21	1	198	250	18146	17991	1e-08	62.4
HVIT017555-PA	Scaffold7204	54.17	48	22	0	96	143	18519	18376	0.49	38.5
HVIT017555-PA	Scaffold1445	36.27	284	107	8	1	223	73550	72738	4e-29	126
HVIT017555-PA	Scaffold1445	27.81	151	65	3	1	119	82281	81865	7e-05	50.4
HVIT017555-PA	Scaffold1445	52.78	36	17	0	212	247	72772	72665	0.11	40.4
HVIT017555-PA	Scaffold66	41.14	158	61	4	201	330	1516251	1516712	8e-29	104
HVIT017555-PA	Scaffold66	40.21	97	48	3	97	186	1515875	1516156	8e-29	47.0
HVIT017555-PA	Scaffold66	45.56	90	33	1	174	247	1446034	1445765	8e-21	77.0
HVIT017555-PA	Scaffold66	50.00	62	26	1	97	153	1446297	1446112	8e-21	47.4
HVIT017555-PA	Scaffold96	45.76	177	63	6	97	243	1849398	1849919	8e-29	114
HVIT017555-PA	Scaffold96	30.69	101	59	2	236	328	1849945	1850238	8e-29	37.7
HVIT017555-PA	Scaffold96	29.58	213	102	9	153	330	1523381	1523980	3e-09	64.3
HVIT017555-PA	Scaffold96	39.05	105	41	2	60	141	2232374	2232060	3e-06	54.7
HVIT017555-PA	Scaffold96	37.41	147	56	8	97	215	2545437	2545853	9e-06	53.5
HVIT017555-PA	Scaffold96	39.68	63	32	2	190	246	1495890	1496078	0.002	46.2
HVIT017555-PA	Scaffold96	36.36	55	34	1	209	263	35256	35095	0.086	40.8
HVIT017555-PA	Scaffold96	26.88	160	85	9	183	314	1892300	1892767	1.8	36.6
HVIT017555-PA	Scaffold281	43.45	168	69	3	188	330	506097	505597	1e-28	125
HVIT017555-PA	Scaffold281	54.39	57	25	1	98	154	506413	506246	5e-04	47.8
HVIT017555-PA	Scaffold2470	40.46	131	58	3	219	329	55843	55451	1e-28	89.7
HVIT017555-PA	Scaffold2470	47.95	73	31	2	154	226	56016	55819	1e-28	61.6
HVIT017555-PA	Scaffold2470	24.52	261	138	8	112	315	29822	29046	7e-07	57.0
HVIT017555-PA	Scaffold2470	47.27	55	29	0	192	246	195385	195549	6e-06	53.9
HVIT017555-PA	Scaffold2470	27.78	180	103	6	183	335	198448	198987	1e-05	53.1
HVIT017555-PA	Scaffold1684	37.35	166	77	4	198	337	44810	44316	1e-28	98.6
HVIT017555-PA	Scaffold1684	36.76	136	56	5	87	198	45198	44809	1e-28	52.4
HVIT017555-PA	Scaffold93	39.73	224	72	7	69	237	104429	103782	1e-28	124
HVIT017555-PA	Scaffold93	63.64	66	21	2	183	246	370054	370248	3e-15	82.8
HVIT017555-PA	Scaffold93	30.06	173	90	7	183	327	1137296	1137805	3e-09	64.3
HVIT017555-PA	Scaffold93	45.16	62	30	1	84	141	124973	125158	0.012	43.5
HVIT017555-PA	Scaffold69	49.68	157	49	6	95	223	3015493	3015957	2e-28	111
HVIT017555-PA	Scaffold69	51.52	33	16	0	215	247	3015932	3016030	2e-28	38.5
HVIT017555-PA	Scaffold69	38.17	186	84	5	97	252	526856	526302	2e-20	99.4
HVIT017555-PA	Scaffold69	46.67	60	24	2	191	250	2751995	2752150	4e-05	51.2
HVIT017555-PA	Scaffold69	60.00	35	14	0	278	312	526159	526055	2e-04	49.3
HVIT017555-PA	Scaffold69	44.00	50	28	0	281	330	686901	687050	0.002	46.2
HVIT017555-PA	Scaffold69	69.23	26	6	1	183	206	686591	686668	7.2	34.7
HVIT017555-PA	Scaffold409	41.56	154	65	5	172	302	1526884	1527339	3e-28	95.5
HVIT017555-PA	Scaffold409	49.28	69	33	1	96	164	1526592	1526792	3e-28	47.4
HVIT017555-PA	Scaffold409	44.44	27	15	0	304	330	1527345	1527425	3e-28	26.9
HVIT017555-PA	Scaffold409	57.69	52	22	0	279	330	1266814	1266969	1e-22	62.4
HVIT017555-PA	Scaffold409	33.00	100	41	4	206	280	1266522	1266818	1e-22	44.7
HVIT017555-PA	Scaffold409	29.15	199	87	8	60	212	1265959	1266531	1e-22	43.9
HVIT017555-PA	Scaffold409	49.23	65	33	0	266	330	1041557	1041363	4e-11	70.1
HVIT017555-PA	Scaffold409	51.35	37	18	0	193	229	1139374	1139264	0.002	42.4
HVIT017555-PA	Scaffold409	75.00	12	3	0	239	250	1139241	1139206	0.002	22.3
HVIT017555-PA	Scaffold409	29.01	131	69	4	194	302	1753042	1753428	0.030	42.4
HVIT017555-PA	Scaffold462	36.16	307	126	9	1	250	34408	35289	3e-28	123
HVIT017555-PA	Scaffold462	43.20	125	49	3	202	304	65688	66062	1e-15	84.3
HVIT017555-PA	Scaffold462	36.47	85	51	2	246	329	65885	66133	0.16	40.0
HVIT017555-PA	Scaffold5901	38.41	151	62	4	191	311	21377	20928	5e-28	87.8
HVIT017555-PA	Scaffold5901	35.37	147	62	3	67	180	21907	21467	5e-28	61.2
HVIT017555-PA	Scaffold494	35.34	283	128	7	101	330	926536	925694	7e-28	122
HVIT017555-PA	Scaffold1926	44.57	175	69	3	183	330	187495	188016	7e-28	122
HVIT017555-PA	Scaffold14170	43.43	175	71	6	183	330	5332	5853	7e-28	122
HVIT017555-PA	Scaffold967	35.90	234	100	6	149	335	269114	268422	1e-27	122
HVIT017555-PA	Scaffold967	39.86	143	56	6	133	250	277755	277342	6e-17	87.8
HVIT017555-PA	Scaffold967	49.02	51	26	0	280	330	276449	276297	5e-05	51.2
HVIT017555-PA	Scaffold967	60.00	30	12	0	279	308	277181	277092	0.17	39.7
HVIT017555-PA	Scaffold59142	41.38	174	74	4	184	330	1	519	1e-27	118
HVIT017555-PA	Scaffold144	35.10	339	145	13	63	330	1821702	1820698	1e-27	121
HVIT017555-PA	Scaffold144	40.91	66	36	2	191	255	270673	270864	0.045	41.6
HVIT017555-PA	Scaffold144	44.74	38	21	0	266	303	270989	271102	0.17	39.7
HVIT017555-PA	Scaffold1001	43.88	139	50	3	95	205	282871	282455	1e-27	83.2
HVIT017555-PA	Scaffold1001	31.85	157	75	4	202	329	282474	282013	1e-27	64.3
HVIT017555-PA	Scaffold42	43.02	172	73	5	183	330	570982	571494	3e-27	120
HVIT017555-PA	Scaffold42	32.03	231	116	6	106	334	1218674	1218099	3e-11	70.5
HVIT017555-PA	Scaffold260	36.08	291	118	9	98	330	1144578	1145420	3e-27	120
HVIT017555-PA	Scaffold260	36.46	192	89	4	166	327	1825424	1825990	6e-18	90.5
HVIT017555-PA	Scaffold260	34.48	58	35	2	93	149	1825143	1825310	6e-18	24.6
HVIT017555-PA	Scaffold1163	39.38	193	85	5	169	330	263062	262487	4e-27	107
HVIT017555-PA	Scaffold1163	40.35	57	33	1	97	153	263325	263158	4e-27	38.9
HVIT017555-PA	Scaffold4	42.47	146	58	4	210	330	7033912	7034346	4e-27	101
HVIT017555-PA	Scaffold4	78.57	28	4	1	183	208	7033826	7033909	4e-27	43.9
HVIT017555-PA	Scaffold4	34.29	210	76	7	61	210	1674002	1673379	5e-13	75.9
HVIT017555-PA	Scaffold4	36.00	175	81	7	182	327	4576714	4577232	8e-13	75.5
HVIT017555-PA	Scaffold4	45.65	46	25	0	285	330	5226386	5226523	9e-12	52.4
HVIT017555-PA	Scaffold4	58.62	29	11	1	214	242	5226099	5226182	9e-12	32.0
HVIT017555-PA	Scaffold4	40.00	35	20	1	251	284	5226283	5226387	9e-12	28.5
HVIT017555-PA	Scaffold4	40.77	130	50	2	61	163	7033287	7033676	7e-10	66.2
HVIT017555-PA	Scaffold4	30.32	188	98	7	179	335	3003934	3004491	2e-09	64.7
HVIT017555-PA	Scaffold4	36.67	90	50	2	163	246	4999869	5000135	2e-06	55.5
HVIT017555-PA	Scaffold4	55.81	43	18	1	190	231	5201342	5201214	2e-05	52.4
HVIT017555-PA	Scaffold4	48.84	43	22	0	193	235	1735340	1735468	0.007	44.3
HVIT017555-PA	Scaffold4	50.00	40	20	0	288	327	1735746	1735865	4.4	35.4
HVIT017555-PA	Scaffold4	37.21	43	27	0	192	234	3053638	3053766	5.3	35.0
HVIT017555-PA	Scaffold1198	62.69	67	22	2	183	247	52966	52769	7e-27	77.4
HVIT017555-PA	Scaffold1198	45.24	84	46	0	247	330	52698	52447	7e-27	67.4
HVIT017555-PA	Scaffold18	42.20	173	75	3	183	330	1658508	1657990	1e-26	118
HVIT017555-PA	Scaffold18	33.04	112	50	6	133	220	3464590	3464258	0.014	43.5
HVIT017555-PA	Scaffold18	55.56	54	24	0	97	150	1659841	1659680	0.069	41.2
HVIT017555-PA	Scaffold18	41.30	46	25	1	182	225	4424694	4424557	0.79	37.7
HVIT017555-PA	Scaffold122	41.76	182	81	5	92	250	1393081	1392542	3e-26	97.4
HVIT017555-PA	Scaffold122	53.33	45	19	1	262	304	1392438	1392304	3e-26	45.4
HVIT017555-PA	Scaffold122	35.76	151	64	6	190	311	2515546	2515986	9e-10	66.2
HVIT017555-PA	Scaffold122	28.35	261	128	9	97	304	2190263	2189499	5e-04	47.8
HVIT017555-PA	Scaffold122	46.81	47	25	0	190	236	2713935	2714075	6e-04	47.8
HVIT017555-PA	Scaffold458	76.36	55	11	1	183	235	860909	861073	5e-26	82.0
HVIT017555-PA	Scaffold458	34.48	87	30	2	60	119	860390	860650	5e-26	45.4
HVIT017555-PA	Scaffold458	50.00	36	18	0	133	168	860689	860796	5e-26	34.7
HVIT017555-PA	Scaffold458	57.41	54	23	0	266	319	861238	861399	2e-11	71.2
HVIT017555-PA	Scaffold458	66.67	21	7	0	97	117	868595	868657	2.2	33.1
HVIT017555-PA	Scaffold458	41.38	29	13	1	73	101	868443	868517	2.2	21.2
HVIT017555-PA	Scaffold99	40.70	172	74	3	188	334	1231935	1232441	6e-26	116
HVIT017555-PA	Scaffold99	40.67	150	64	3	205	330	2514920	2514474	8e-22	98.6
HVIT017555-PA	Scaffold99	54.17	24	9	1	183	204	2514985	2514914	8e-22	29.6
HVIT017555-PA	Scaffold99	40.68	118	44	5	195	290	707406	707065	1e-17	63.5
HVIT017555-PA	Scaffold99	38.98	59	27	2	291	342	707066	706896	1e-17	38.9
HVIT017555-PA	Scaffold99	70.83	24	5	1	182	203	707477	707406	1e-17	31.2
HVIT017555-PA	Scaffold99	39.37	127	50	1	60	159	707983	707603	2e-10	68.2
HVIT017555-PA	Scaffold99	57.89	57	24	0	97	153	1231546	1231716	1e-05	53.1
HVIT017555-PA	Scaffold3	46.15	169	51	5	186	330	5226351	5226809	6e-26	116
HVIT017555-PA	Scaffold3	37.63	194	95	7	157	330	520677	521240	3e-21	101
HVIT017555-PA	Scaffold3	33.08	266	123	8	117	330	4875953	4875165	6e-21	100
HVIT017555-PA	Scaffold3	36.23	207	79	9	133	289	4365976	4366587	2e-20	99.4
HVIT017555-PA	Scaffold3	37.04	135	56	3	221	330	4307153	4306761	7e-19	72.8
HVIT017555-PA	Scaffold3	64.52	31	11	0	194	224	4307242	4307150	7e-19	45.1
HVIT017555-PA	Scaffold3	40.83	169	65	5	190	330	3914912	3914427	6e-18	91.3
HVIT017555-PA	Scaffold3	28.39	391	185	12	1	304	3915651	3914503	3e-17	89.0
HVIT017555-PA	Scaffold3	50.77	65	32	0	266	330	4647620	4647426	3e-09	64.3
HVIT017555-PA	Scaffold3	39.36	94	50	2	163	250	7406834	7407112	1e-08	62.8
HVIT017555-PA	Scaffold3	52.83	53	25	0	195	247	5247775	5247933	4e-07	57.8
HVIT017555-PA	Scaffold3	77.42	31	7	0	188	218	4647921	4647829	6e-06	53.9
HVIT017555-PA	Scaffold3	54.39	57	26	0	97	153	4307604	4307434	2e-04	49.3
HVIT017555-PA	Scaffold3	44.19	43	23	1	190	231	4838247	4838375	7e-04	47.4
HVIT017555-PA	Scaffold3	35.09	57	35	1	177	231	8134270	8134440	0.12	40.4
HVIT017555-PA	Scaffold3	78.26	23	3	1	183	203	4018341	4018409	0.31	36.6
HVIT017555-PA	Scaffold3	87.50	8	1	0	206	213	4018414	4018437	0.31	20.4
HVIT017555-PA	Scaffold3	38.00	50	28	2	185	231	4381663	4381514	0.63	38.1
HVIT017555-PA	Scaffold3	31.03	58	37	2	184	238	6622176	6622003	7.1	34.7
HVIT017555-PA	Scaffold1372	35.53	197	77	5	67	213	218265	217675	7e-26	82.0
HVIT017555-PA	Scaffold1372	33.33	147	64	3	213	330	217672	217247	7e-26	59.7
HVIT017555-PA	Scaffold60	32.08	346	154	11	63	330	4505102	4506130	2e-25	114
HVIT017555-PA	Scaffold60	28.79	132	78	3	192	307	2389434	2389829	5e-04	48.1
HVIT017555-PA	Scaffold60	37.50	88	47	3	248	330	1961962	1961708	0.007	44.3
HVIT017555-PA	Scaffold60	38.71	62	25	2	133	182	3840144	3839962	0.027	42.4
HVIT017555-PA	Scaffold60	51.72	58	24	2	97	154	4033615	4033776	0.36	38.9
HVIT017555-PA	Scaffold60	45.71	35	18	1	198	231	1241623	1241519	5.1	35.0
HVIT017555-PA	Scaffold722	44.51	182	71	5	97	250	419627	419088	3e-25	114
HVIT017555-PA	Scaffold722	52.46	61	29	0	270	330	418959	418777	8e-10	66.2
HVIT017555-PA	Scaffold722	49.28	69	34	1	97	165	383193	382990	9e-05	50.4
HVIT017555-PA	Scaffold722	42.86	35	18	1	186	218	310831	310727	3.2	35.8
HVIT017555-PA	Scaffold5809	44.67	150	57	3	190	314	18142	18588	3e-25	114
HVIT017555-PA	Scaffold5809	43.14	51	27	1	98	148	11088	11234	2.5	36.2
HVIT017555-PA	Scaffold2111	37.29	236	90	8	67	247	180263	179565	4e-25	114
HVIT017555-PA	Scaffold2111	40.00	65	39	0	266	330	56242	56436	6e-05	50.8
HVIT017555-PA	Scaffold2111	32.58	89	55	1	249	337	179380	179129	5e-04	47.8
HVIT017555-PA	Scaffold2111	50.00	40	18	1	184	221	48985	49104	0.007	44.3
HVIT017555-PA	Scaffold2111	44.44	36	18	1	185	218	211708	211601	1.9	36.6
HVIT017555-PA	Scaffold145	38.29	175	81	4	92	239	130248	129724	4e-25	91.7
HVIT017555-PA	Scaffold145	37.31	67	42	0	264	330	129619	129419	4e-25	47.4
HVIT017555-PA	Scaffold145	57.14	42	16	1	183	222	648313	648438	0.013	43.5
HVIT017555-PA	Scaffold145	28.99	138	78	3	194	311	584936	585349	1.8	36.6
HVIT017555-PA	Scaffold1932	46.37	179	63	7	104	252	247360	246833	6e-25	113
HVIT017555-PA	Scaffold1932	50.00	58	29	0	273	330	246698	246525	1e-07	59.7
HVIT017555-PA	Scaffold1932	28.57	168	87	8	172	307	119019	119519	0.002	46.2
HVIT017555-PA	Scaffold75	35.19	270	127	8	92	317	2672669	2671872	2e-24	112
HVIT017555-PA	Scaffold75	53.73	67	14	3	176	226	1596505	1596702	3e-08	61.2
HVIT017555-PA	Scaffold75	50.00	38	15	1	269	306	1597578	1597679	0.001	40.8
HVIT017555-PA	Scaffold75	44.12	34	17	1	299	330	1597654	1597755	0.001	25.0
HVIT017555-PA	Scaffold75	47.06	51	24	2	185	232	3124333	3124181	0.011	43.5
HVIT017555-PA	Scaffold399	37.89	227	87	8	60	235	154312	154983	3e-24	111
HVIT017555-PA	Scaffold399	38.52	135	50	5	224	330	142786	143175	9e-12	72.0
HVIT017555-PA	Scaffold92	38.19	254	90	9	63	254	662724	661978	3e-24	111
HVIT017555-PA	Scaffold92	36.68	289	126	10	97	330	148384	147524	5e-24	110
HVIT017555-PA	Scaffold92	37.11	97	53	1	233	321	661993	661703	7e-07	57.0
HVIT017555-PA	Scaffold92	47.95	73	30	3	183	250	641482	641273	5e-06	54.3
HVIT017555-PA	Scaffold12499	38.17	131	54	3	225	330	9527	9141	8e-24	71.2
HVIT017555-PA	Scaffold12499	56.06	66	23	2	166	225	9723	9526	8e-24	63.5
HVIT017555-PA	Scaffold242	34.81	270	137	6	96	328	864758	863955	1e-23	109
HVIT017555-PA	Scaffold630	38.33	227	104	9	133	330	622200	621541	2e-23	108
HVIT017555-PA	Scaffold759	29.73	333	152	10	66	327	1154224	1155189	5e-23	107
HVIT017555-PA	Scaffold759	48.19	83	40	2	167	247	1144931	1145176	2e-12	74.3
HVIT017555-PA	Scaffold759	49.06	53	27	0	279	331	1145356	1145514	6e-06	53.9
HVIT017555-PA	Scaffold437	49.21	63	15	2	170	215	818576	818388	9e-23	52.0
HVIT017555-PA	Scaffold437	58.93	56	23	0	95	150	818829	818662	9e-23	49.7
HVIT017555-PA	Scaffold437	51.52	33	16	0	215	247	818392	818294	9e-23	37.0
HVIT017555-PA	Scaffold437	34.48	87	49	2	1	87	819163	818927	9e-23	31.6
HVIT017555-PA	Scaffold38544	38.55	166	77	2	190	330	1084	587	1e-22	103
HVIT017555-PA	Scaffold2081	40.61	165	72	3	191	330	108030	108521	2e-22	105
HVIT017555-PA	Scaffold37	35.56	239	97	7	60	247	5233652	5232954	2e-22	105
HVIT017555-PA	Scaffold37	70.45	44	13	0	188	231	5788695	5788826	1e-16	65.9
HVIT017555-PA	Scaffold37	38.82	85	44	2	98	175	5788363	5788614	1e-16	44.7
HVIT017555-PA	Scaffold37	47.69	65	34	0	266	330	5232825	5232631	2e-09	64.7
HVIT017555-PA	Scaffold37	50.00	62	31	0	269	330	5789011	5789196	2e-08	62.0
HVIT017555-PA	Scaffold37	46.07	89	35	3	106	182	1763858	1763595	3e-05	51.6
HVIT017555-PA	Scaffold37	68.18	22	7	0	133	154	7367206	7367271	4.4	35.4
HVIT017555-PA	Scaffold55030	40.00	90	43	1	242	331	1505	1269	2e-22	71.2
HVIT017555-PA	Scaffold55030	55.00	60	26	1	188	247	1795	1619	2e-22	58.9
HVIT017555-PA	Scaffold55030	38.24	136	57	4	97	205	2154	1747	3e-06	54.7
HVIT017555-PA	Scaffold27	45.60	182	66	7	101	252	570327	569791	3e-22	104
HVIT017555-PA	Scaffold27	44.74	38	21	0	293	330	569632	569519	0.45	38.5
HVIT017555-PA	Scaffold32671	31.73	249	112	7	137	330	66	803	3e-22	104
HVIT017555-PA	Scaffold19602	72.34	47	13	0	183	229	14630	14770	4e-22	68.9
HVIT017555-PA	Scaffold19602	28.08	146	59	6	1	115	14005	14397	4e-22	41.2
HVIT017555-PA	Scaffold19602	59.38	32	12	1	133	164	14448	14540	4e-22	38.9
HVIT017555-PA	Scaffold1346	35.32	235	93	8	133	313	51988	51299	6e-22	103
HVIT017555-PA	Scaffold1346	45.65	92	42	3	163	248	41403	41134	6e-11	69.7
HVIT017555-PA	Scaffold932	51.67	120	30	3	62	153	67238	66879	1e-21	75.9
HVIT017555-PA	Scaffold932	62.26	53	13	4	184	233	66727	66581	1e-21	45.4
HVIT017555-PA	Scaffold932	45.24	42	15	2	147	182	66894	66775	1e-21	26.2
HVIT017555-PA	Scaffold932	45.95	74	33	1	266	339	66422	66222	7e-07	57.0
HVIT017555-PA	Scaffold58260	39.09	197	67	8	176	341	1420	896	1e-21	100
HVIT017555-PA	Scaffold28	40.52	153	65	2	203	330	4621168	4620713	2e-21	102
HVIT017555-PA	Scaffold28	32.80	186	80	8	183	327	4283073	4282528	4e-13	76.3
HVIT017555-PA	Scaffold28	28.52	284	153	7	93	327	1322726	1323574	3e-12	73.6
HVIT017555-PA	Scaffold28	35.10	208	81	8	67	221	4621733	4621113	5e-11	70.1
HVIT017555-PA	Scaffold28	27.69	260	135	7	95	302	4618105	4617329	2e-07	58.9
HVIT017555-PA	Scaffold28	46.43	56	30	0	262	317	2041001	2040834	3e-06	55.1
HVIT017555-PA	Scaffold28	40.35	57	32	1	177	231	1377647	1377477	3e-04	48.5
HVIT017555-PA	Scaffold28	56.67	30	13	0	200	229	7636	7547	2.2	36.2
HVIT017555-PA	Scaffold272	50.77	65	32	0	266	330	403487	403293	4e-21	65.5
HVIT017555-PA	Scaffold272	36.36	132	47	6	134	252	403923	403600	4e-21	60.5
HVIT017555-PA	Scaffold95	32.62	279	138	7	97	330	3684050	3684871	4e-21	101
HVIT017555-PA	Scaffold95	55.36	56	20	2	182	232	3127276	3127109	3e-05	52.0
HVIT017555-PA	Scaffold623	45.32	139	49	6	133	248	548368	548772	4e-21	90.1
HVIT017555-PA	Scaffold623	65.22	23	8	0	97	119	548256	548324	4e-21	35.8
HVIT017555-PA	Scaffold623	60.00	40	15	1	279	318	548934	549050	1e-05	52.8
HVIT017555-PA	Scaffold208	44.70	132	45	4	133	236	758631	758236	4e-21	101
HVIT017555-PA	Scaffold208	58.33	36	15	0	212	247	1898283	1898176	0.002	45.8
HVIT017555-PA	Scaffold208	61.29	31	12	0	217	247	75250	75342	0.052	41.6
HVIT017555-PA	Scaffold91	36.70	188	81	4	183	339	2093067	2093609	6e-21	100
HVIT017555-PA	Scaffold91	62.71	59	22	0	95	153	2092736	2092912	9e-10	65.9
HVIT017555-PA	Scaffold91	43.64	110	35	5	133	224	603901	603599	1e-08	62.4
HVIT017555-PA	Scaffold91	41.07	56	33	0	264	319	603073	602906	0.013	43.5
HVIT017555-PA	Scaffold582	34.21	266	119	9	102	315	868558	869343	6e-21	100
HVIT017555-PA	Scaffold773	40.65	155	66	4	201	330	62425	62886	1e-20	99.8
HVIT017555-PA	Scaffold1618	35.80	176	84	4	183	330	250082	250606	1e-20	99.8
HVIT017555-PA	Scaffold1618	25.62	160	84	7	185	313	44494	44961	0.76	37.7
HVIT017555-PA	Scaffold1618	43.59	39	21	1	199	236	52070	52186	7.2	34.7
HVIT017555-PA	Scaffold1618	37.50	48	28	1	182	227	101496	101353	7.4	34.7
HVIT017555-PA	Scaffold167	45.93	135	48	4	136	245	1703833	1704237	1e-20	95.5
HVIT017555-PA	Scaffold167	68.75	16	5	0	104	119	1703738	1703785	1e-20	28.1
HVIT017555-PA	Scaffold167	44.62	65	36	0	266	330	1278305	1278111	2e-07	58.5
HVIT017555-PA	Scaffold167	53.33	30	14	0	266	295	1704372	1704461	3e-05	38.5
HVIT017555-PA	Scaffold167	60.00	35	10	2	299	332	1704458	1704553	3e-05	33.1
HVIT017555-PA	Scaffold167	34.09	44	28	1	190	232	663993	664124	3.9	35.4
HVIT017555-PA	Scaffold501	54.84	93	25	2	172	247	497171	497449	6e-20	97.4
HVIT017555-PA	Scaffold501	48.76	121	32	5	133	224	496747	497106	1e-19	96.7
HVIT017555-PA	Scaffold16886	35.32	235	80	5	103	316	89	640	1e-19	96.7
HVIT017555-PA	Scaffold187	38.67	181	74	8	195	341	491951	491418	2e-19	95.9
HVIT017555-PA	Scaffold187	35.11	94	54	2	163	250	1476172	1475894	2e-05	52.8
HVIT017555-PA	Scaffold187	41.51	53	28	2	183	232	1928321	1928163	0.025	42.4
HVIT017555-PA	Scaffold1552	58.21	67	26	1	183	247	112853	112653	4e-19	79.3
HVIT017555-PA	Scaffold1552	34.29	70	43	1	264	330	112540	112331	4e-19	39.7
HVIT017555-PA	Scaffold1552	38.71	62	38	0	92	153	113199	113014	0.72	37.7
HVIT017555-PA	Scaffold17	31.25	256	122	7	92	294	3094677	3093913	4e-19	95.1
HVIT017555-PA	Scaffold17	63.49	63	22	1	190	252	2580365	2580550	3e-14	79.7
HVIT017555-PA	Scaffold17	37.29	177	79	5	183	330	3296370	3295849	2e-13	77.4
HVIT017555-PA	Scaffold17	50.00	36	11	1	191	226	2502009	2502095	7.0	34.7
HVIT017555-PA	Scaffold3241	49.33	75	35	2	178	250	107360	107581	4e-19	73.2
HVIT017555-PA	Scaffold3241	33.78	74	49	0	257	330	107683	107904	4e-19	45.8
HVIT017555-PA	Scaffold3241	60.78	51	18	1	182	230	65256	65408	8e-09	63.2
HVIT017555-PA	Scaffold3241	55.38	65	27	2	92	156	107047	107235	3e-05	52.0
HVIT017555-PA	Scaffold3241	41.94	62	36	0	269	330	65594	65779	1e-04	50.1
HVIT017555-PA	Scaffold3241	40.91	44	24	1	183	224	14228	14359	7.7	34.7
HVIT017555-PA	Scaffold766	56.16	73	29	2	183	253	128328	128113	4e-19	79.7
HVIT017555-PA	Scaffold766	46.67	60	30	2	106	165	128624	128451	4e-19	38.9
HVIT017555-PA	Scaffold24151	66.15	65	22	0	266	330	3651	3845	1e-18	92.8
HVIT017555-PA	Scaffold2558	50.00	60	29	1	250	308	90207	90028	2e-18	53.1
HVIT017555-PA	Scaffold2558	52.38	42	20	0	209	250	90400	90275	2e-18	43.5
HVIT017555-PA	Scaffold2558	75.00	28	5	1	183	208	90488	90405	2e-18	40.0
HVIT017555-PA	Scaffold110	34.44	180	89	6	97	247	1807831	1807292	4e-18	74.3
HVIT017555-PA	Scaffold110	35.48	62	40	0	266	327	1807175	1806990	4e-18	41.2
HVIT017555-PA	Scaffold110	49.25	67	31	2	184	248	1225131	1225328	4e-09	63.9
HVIT017555-PA	Scaffold110	41.54	65	38	0	266	330	1225451	1225645	0.002	46.2
HVIT017555-PA	Scaffold317	61.19	67	23	2	183	247	626848	627045	1e-17	79.0
HVIT017555-PA	Scaffold317	43.86	57	20	4	134	182	626645	626803	1e-17	35.4
HVIT017555-PA	Scaffold317	53.95	76	33	1	266	341	627174	627395	1e-13	77.4
HVIT017555-PA	Scaffold1328	70.15	67	18	1	183	247	220886	220686	1e-17	90.1
HVIT017555-PA	Scaffold1328	24.82	282	160	8	99	330	675575	674736	6e-12	72.8
HVIT017555-PA	Scaffold1328	48.65	37	19	0	284	320	220510	220400	0.057	41.2
HVIT017555-PA	Scaffold17556	39.04	146	83	2	190	331	8822	9253	2e-17	89.4
HVIT017555-PA	Scaffold530	35.16	182	66	6	67	196	910570	911115	3e-17	76.6
HVIT017555-PA	Scaffold530	100.00	16	0	0	198	213	911118	911165	3e-17	36.2
HVIT017555-PA	Scaffold712	33.60	247	103	12	133	339	18904	19581	4e-17	88.6
HVIT017555-PA	Scaffold712	29.59	169	92	6	93	236	1878	2378	0.72	37.7
HVIT017555-PA	Scaffold376	55.74	61	27	0	194	254	954674	954492	6e-17	65.1
HVIT017555-PA	Scaffold376	37.31	67	42	0	264	330	954388	954188	6e-17	46.2
HVIT017555-PA	Scaffold376	40.00	145	60	4	98	218	1136401	1136826	5e-15	82.0
HVIT017555-PA	Scaffold376	38.58	127	52	4	229	330	1151598	1151975	5e-13	75.9
HVIT017555-PA	Scaffold3786	33.17	202	80	5	183	330	94065	94667	7e-17	87.8
HVIT017555-PA	Scaffold3786	26.46	257	151	9	75	295	93662	94426	0.005	44.7
HVIT017555-PA	Scaffold4039	36.57	175	84	3	183	330	15584	15060	9e-17	87.4
HVIT017555-PA	Scaffold62	37.50	160	69	2	182	314	1873315	1873782	9e-17	87.4
HVIT017555-PA	Scaffold2277	40.16	127	50	5	104	206	31111	31485	2e-16	57.0
HVIT017555-PA	Scaffold2277	30.97	113	53	2	207	294	31487	31825	2e-16	52.8
HVIT017555-PA	Scaffold2277	38.37	172	82	4	183	330	123070	122555	8e-16	84.3
HVIT017555-PA	Scaffold2277	37.27	161	76	4	195	330	119516	119998	1e-11	71.6
HVIT017555-PA	Scaffold2277	35.37	82	53	0	97	178	119134	119379	0.002	45.8
HVIT017555-PA	Scaffold127	45.05	91	40	2	259	342	2499966	2499703	3e-16	69.3
HVIT017555-PA	Scaffold127	52.17	46	20	1	212	257	2500189	2500058	3e-16	40.0
HVIT017555-PA	Scaffold127	38.24	102	41	2	60	139	2500649	2500344	0.009	43.9
HVIT017555-PA	Scaffold1079	43.12	109	38	3	184	269	635206	635529	3e-16	69.7
HVIT017555-PA	Scaffold1079	45.45	44	24	0	287	330	635607	635738	3e-16	39.3
HVIT017555-PA	Scaffold1079	33.63	113	53	2	60	150	634713	635051	0.002	46.2
HVIT017555-PA	Scaffold362	43.75	160	66	4	97	232	486939	487418	3e-16	85.9
HVIT017555-PA	Scaffold362	48.21	56	28	1	190	245	521509	521673	5e-05	50.8
HVIT017555-PA	Scaffold288	36.22	185	83	6	183	338	688354	688890	3e-16	85.9
HVIT017555-PA	Scaffold288	33.49	215	93	8	103	269	688047	688685	1e-07	59.3
HVIT017555-PA	Scaffold288	36.36	77	46	2	189	262	405194	405424	7e-05	50.8
HVIT017555-PA	Scaffold343	36.05	172	83	3	183	327	1069625	1070140	3e-16	85.9
HVIT017555-PA	Scaffold752	36.84	152	69	3	183	307	430157	430612	3e-16	85.5
HVIT017555-PA	Scaffold752	50.00	70	33	1	183	250	429303	429512	8e-11	69.3
HVIT017555-PA	Scaffold752	29.17	144	75	4	183	299	34383	34814	1e-07	59.3
HVIT017555-PA	Scaffold752	27.33	172	94	3	190	330	353938	354453	6e-06	53.9
HVIT017555-PA	Scaffold752	46.51	43	22	1	192	233	641618	641746	7e-05	42.4
HVIT017555-PA	Scaffold752	37.25	51	31	1	103	152	641403	641555	7e-05	28.1
HVIT017555-PA	Scaffold752	40.00	65	30	1	169	233	283494	283661	3e-04	48.5
HVIT017555-PA	Scaffold752	44.00	50	27	1	190	238	653487	653636	0.018	43.1
HVIT017555-PA	Scaffold321	37.31	134	58	2	200	308	988698	989096	4e-16	85.5
HVIT017555-PA	Scaffold321	40.97	144	63	5	92	213	974328	974759	5e-15	67.8
HVIT017555-PA	Scaffold321	58.82	34	13	1	214	247	974771	974869	5e-15	37.4
HVIT017555-PA	Scaffold321	50.00	48	24	0	277	324	975031	975174	5e-06	54.3
HVIT017555-PA	Scaffold303	42.00	150	58	5	97	221	790698	790261	4e-16	85.5
HVIT017555-PA	Scaffold303	35.71	154	70	6	201	330	2799445	2798999	1e-13	77.8
HVIT017555-PA	Scaffold303	40.00	120	41	4	62	150	833979	834338	1e-05	52.8
HVIT017555-PA	Scaffold303	47.27	55	26	2	183	234	530407	530243	0.003	45.4
HVIT017555-PA	Scaffold303	51.43	35	15	1	185	217	244211	244315	0.54	38.1
HVIT017555-PA	Scaffold303	60.71	28	11	0	207	234	2894319	2894402	4.2	35.4
HVIT017555-PA	Scaffold556	33.88	183	88	3	183	335	259689	260228	6e-16	85.1
HVIT017555-PA	Scaffold569	38.68	106	39	2	207	287	507665	507979	7e-16	60.5
HVIT017555-PA	Scaffold569	46.34	41	22	0	290	330	507975	508097	7e-16	47.4
HVIT017555-PA	Scaffold51	39.33	150	63	4	202	323	798029	797580	8e-16	84.3
HVIT017555-PA	Scaffold51	33.14	172	63	7	176	302	1568658	1568164	5e-08	60.5
HVIT017555-PA	Scaffold51	39.71	68	39	1	274	341	1568302	1568105	2e-06	55.8
HVIT017555-PA	Scaffold51	61.54	39	15	0	110	148	1568933	1568817	2.1	36.2
HVIT017555-PA	Scaffold109	37.50	176	71	5	82	228	2758849	2758352	1e-15	84.0
HVIT017555-PA	Scaffold109	34.62	182	85	8	97	250	2780175	2779648	4e-09	63.9
HVIT017555-PA	Scaffold109	35.29	68	44	0	263	330	2600178	2600381	4e-05	51.2
HVIT017555-PA	Scaffold109	34.88	43	27	1	190	231	2783610	2783482	4.1	35.4
HVIT017555-PA	Scaffold38	34.36	227	108	7	108	295	2388999	2388325	1e-15	83.6
HVIT017555-PA	Scaffold38	30.00	80	35	3	171	229	2625017	2625256	5.8	35.0
HVIT017555-PA	Scaffold1113	50.94	53	26	0	183	235	379733	379891	1e-15	59.7
HVIT017555-PA	Scaffold1113	32.91	79	49	1	256	330	379998	380234	1e-15	47.4
HVIT017555-PA	Scaffold30	30.82	146	75	3	211	330	1305778	1305341	2e-15	62.0
HVIT017555-PA	Scaffold30	33.33	144	68	5	92	208	1306202	1305774	2e-15	44.3
HVIT017555-PA	Scaffold30	47.44	78	41	0	253	330	3886791	3887024	5e-14	79.0
HVIT017555-PA	Scaffold30	48.00	50	24	1	201	250	4515657	4515800	2e-04	48.9
HVIT017555-PA	Scaffold30	48.48	66	33	1	84	148	3886417	3886614	0.002	45.8
HVIT017555-PA	Scaffold30	28.39	155	75	5	190	308	4187914	4188378	0.003	45.4
HVIT017555-PA	Scaffold30	53.12	32	15	0	269	300	4237873	4237968	1.7	36.6
HVIT017555-PA	Scaffold28419	33.86	189	91	5	185	342	1245	688	2e-15	83.2
HVIT017555-PA	Scaffold3128	38.59	184	83	6	182	338	44662	45204	3e-15	82.8
HVIT017555-PA	Scaffold3128	60.47	43	14	2	174	213	44529	44657	6e-05	50.8
HVIT017555-PA	Scaffold3128	50.00	60	27	2	90	148	44074	44247	0.070	41.2
HVIT017555-PA	Scaffold3128	47.73	44	22	1	198	241	42824	42952	0.91	37.4
HVIT017555-PA	Scaffold3128	45.65	46	21	2	205	250	102806	102931	1.7	29.3
HVIT017555-PA	Scaffold3128	90.00	10	1	0	192	201	102768	102797	1.7	25.8
HVIT017555-PA	Scaffold82	52.73	55	22	2	169	219	2316380	2316544	7e-15	51.2
HVIT017555-PA	Scaffold82	37.50	80	50	0	251	330	2316612	2316851	7e-15	45.4
HVIT017555-PA	Scaffold82	60.87	23	8	1	225	247	2316556	2316621	7e-15	26.9
HVIT017555-PA	Scaffold213	30.71	254	129	5	100	307	874637	873879	9e-15	81.3
HVIT017555-PA	Scaffold213	34.33	134	60	5	97	205	205496	205104	0.017	43.1
HVIT017555-PA	Scaffold679	30.49	246	123	9	104	304	872850	873578	2e-14	80.5
HVIT017555-PA	Scaffold581	29.92	264	134	8	93	307	219035	218250	2e-14	80.1
HVIT017555-PA	Scaffold1012	34.96	246	102	10	97	289	1881	2603	2e-14	80.1
HVIT017555-PA	Scaffold1012	48.08	52	27	0	279	330	2563	2718	9e-05	50.4
HVIT017555-PA	Scaffold1505	60.27	73	26	2	183	253	37963	38178	3e-14	79.7
HVIT017555-PA	Scaffold1505	51.92	52	25	0	279	330	79369	79524	6e-07	57.4
HVIT017555-PA	Scaffold1505	25.42	177	106	4	100	250	39401	39931	1e-05	53.1
HVIT017555-PA	Scaffold1505	45.83	48	26	0	192	239	274334	274477	1e-05	53.1
HVIT017555-PA	Scaffold1505	54.35	46	21	0	266	311	52635	52772	1e-05	53.1
HVIT017555-PA	Scaffold1505	34.62	52	31	2	183	231	35074	35229	5.9	35.0
HVIT017555-PA	Scaffold131	29.15	247	133	6	93	307	2260958	2260248	3e-14	79.7
HVIT017555-PA	Scaffold131	25.16	155	80	5	190	308	2082964	2082500	3.8	35.4
HVIT017555-PA	Scaffold34	35.17	145	52	4	202	305	713016	713447	4e-14	70.1
HVIT017555-PA	Scaffold34	35.23	88	37	5	133	200	712747	713010	4e-14	32.0
HVIT017555-PA	Scaffold479	32.62	187	84	5	183	327	1696257	1695697	6e-14	79.0
HVIT017555-PA	Scaffold479	50.00	42	15	3	172	208	1115533	1115411	3e-04	35.4
HVIT017555-PA	Scaffold479	44.19	43	23	1	208	250	1115424	1115299	3e-04	32.3
HVIT017555-PA	Scaffold479	27.47	182	87	6	190	327	1312858	1312316	0.001	46.6
HVIT017555-PA	Scaffold479	33.90	59	39	0	273	331	931001	930825	0.78	37.7
HVIT017555-PA	Scaffold3178	32.95	176	92	3	182	331	33723	33196	7e-14	78.6
HVIT017555-PA	Scaffold72	31.36	338	157	11	67	330	3303933	3302923	9e-14	78.2
HVIT017555-PA	Scaffold72	26.34	186	98	8	179	327	3776935	3777486	7e-04	47.4
HVIT017555-PA	Scaffold19472	35.47	172	80	5	184	330	51	548	1e-13	77.8
HVIT017555-PA	Scaffold19472	50.00	38	18	1	263	299	361	474	0.50	38.1
HVIT017555-PA	Scaffold1220	28.83	333	186	9	1	307	88724	87801	1e-13	77.8
HVIT017555-PA	Scaffold1220	50.85	59	27	2	192	250	336946	336776	8e-05	50.4
HVIT017555-PA	Scaffold1220	27.38	84	56	2	178	256	253624	253875	9.7	34.3
HVIT017555-PA	Scaffold290	37.93	174	82	4	103	250	1546845	1546324	1e-13	77.4
HVIT017555-PA	Scaffold883	37.33	150	67	3	185	307	150720	150271	2e-13	77.0
HVIT017555-PA	Scaffold883	37.35	166	82	5	183	327	152786	152292	6e-13	75.9
HVIT017555-PA	Scaffold111	81.82	33	4	1	183	213	943296	943394	2e-13	57.8
HVIT017555-PA	Scaffold111	52.78	36	17	0	212	247	943390	943497	2e-13	41.6
HVIT017555-PA	Scaffold4064	44.00	125	44	6	133	231	34915	34541	4e-13	68.9
HVIT017555-PA	Scaffold4064	32.53	83	29	3	61	116	35210	34962	4e-13	29.6
HVIT017555-PA	Scaffold4064	40.58	69	41	0	264	332	34374	34168	6e-07	57.0
HVIT017555-PA	Scaffold64	42.25	71	24	2	170	223	3656146	3655934	4e-13	50.8
HVIT017555-PA	Scaffold64	57.69	26	11	0	222	247	3655937	3655860	4e-13	33.5
HVIT017555-PA	Scaffold64	41.51	53	29	1	102	154	3656376	3656224	4e-13	33.1
HVIT017555-PA	Scaffold64	30.67	163	88	5	190	327	3332809	3332321	3e-07	57.8
HVIT017555-PA	Scaffold64	40.00	55	32	1	266	320	3001774	3001613	0.21	39.7
HVIT017555-PA	Scaffold64	30.86	81	27	2	67	119	3656567	3656328	0.92	37.4
HVIT017555-PA	Scaffold64	51.61	31	15	0	190	220	3002096	3002004	5.4	35.0
HVIT017555-PA	Scaffold982	32.89	149	75	3	203	326	524246	524692	4e-13	62.8
HVIT017555-PA	Scaffold982	78.26	23	3	1	183	203	524179	524247	4e-13	35.8
HVIT017555-PA	Scaffold18625	50.75	67	33	0	264	330	2554	2754	5e-13	75.9
HVIT017555-PA	Scaffold279	34.56	136	60	4	183	292	693411	693809	5e-13	55.1
HVIT017555-PA	Scaffold279	50.00	40	20	0	291	330	693805	693924	5e-13	42.7
HVIT017555-PA	Scaffold279	32.26	62	39	2	183	241	912281	912096	6.6	34.7
HVIT017555-PA	Scaffold279	44.83	58	31	1	97	154	693100	693270	8.4	34.3
HVIT017555-PA	Scaffold29662	39.09	110	55	3	198	298	1912	2232	6e-13	60.5
HVIT017555-PA	Scaffold29662	54.84	31	14	0	300	330	2238	2330	6e-13	37.7
HVIT017555-PA	Scaffold29662	59.62	52	21	0	97	148	161	316	3e-04	48.5
HVIT017555-PA	Scaffold29662	82.61	23	4	0	198	220	538	606	0.039	41.6
HVIT017555-PA	Scaffold7503	52.63	76	34	1	266	341	29363	29142	8e-13	75.5
HVIT017555-PA	Scaffold7503	59.09	44	17	1	111	154	29668	29540	7.1	34.7
HVIT017555-PA	Scaffold18154	40.50	121	47	4	133	229	4881	5240	1e-12	74.7
HVIT017555-PA	Scaffold538	61.19	67	23	2	183	247	193030	192833	1e-12	74.7
HVIT017555-PA	Scaffold63	36.74	215	109	8	62	252	1967482	1966847	1e-12	74.7
HVIT017555-PA	Scaffold49	47.96	98	35	4	153	234	2220511	2220218	1e-12	74.7
HVIT017555-PA	Scaffold49	35.71	42	27	0	190	231	4173076	4173201	5.0	35.0
HVIT017555-PA	Scaffold49	35.38	65	39	2	257	319	3427484	3427293	6.6	34.7
HVIT017555-PA	Scaffold2091	39.57	139	56	6	176	289	18057	17650	2e-12	65.9
HVIT017555-PA	Scaffold2091	34.29	35	23	0	291	325	17647	17543	2e-12	30.8
HVIT017555-PA	Scaffold29	33.52	179	85	5	184	330	437208	437738	2e-12	74.3
HVIT017555-PA	Scaffold1101	30.65	261	129	9	97	307	177983	177207	2e-12	74.3
HVIT017555-PA	Scaffold1101	32.50	40	27	0	192	231	302535	302654	6.9	34.7
HVIT017555-PA	Scaffold644	53.03	66	31	0	266	331	405637	405834	2e-12	74.3
HVIT017555-PA	Scaffold644	52.08	48	23	0	97	144	405039	405182	0.97	37.4
HVIT017555-PA	Scaffold644	40.00	60	19	2	188	247	405380	405508	1.6	36.6
HVIT017555-PA	Scaffold3115	63.64	66	19	3	184	245	67311	67505	2e-12	73.9
HVIT017555-PA	Scaffold3115	40.91	44	26	0	193	236	79593	79724	3.6	35.4
HVIT017555-PA	Scaffold1730	40.31	129	45	5	183	282	113307	113684	2e-12	73.9
HVIT017555-PA	Scaffold1730	34.86	109	45	1	67	149	112804	113130	5e-06	54.3
HVIT017555-PA	Scaffold1730	39.06	64	38	1	249	311	113579	113770	0.19	39.7
HVIT017555-PA	Scaffold7328	72.55	51	12	1	182	230	13598	13446	3e-12	73.9
HVIT017555-PA	Scaffold1014	45.30	117	45	4	183	280	138988	139338	3e-12	73.6
HVIT017555-PA	Scaffold1014	68.75	64	20	0	7	70	138333	138524	2e-08	61.6
HVIT017555-PA	Scaffold1014	43.80	121	54	5	97	205	138671	139027	3e-06	45.4
HVIT017555-PA	Scaffold1014	72.22	18	5	0	222	239	139122	139175	3e-06	29.6
HVIT017555-PA	Scaffold1014	28.10	121	60	5	138	231	385907	385545	0.067	41.2
HVIT017555-PA	Scaffold1014	39.02	41	24	1	197	236	190772	190650	6.9	34.7
HVIT017555-PA	Scaffold212	39.23	130	57	6	138	246	632314	632700	3e-12	64.3
HVIT017555-PA	Scaffold212	54.17	24	11	0	96	119	632199	632270	3e-12	31.2
HVIT017555-PA	Scaffold212	29.34	167	99	3	188	335	996070	996570	3e-10	67.4
HVIT017555-PA	Scaffold212	54.55	66	30	0	97	162	2220741	2220544	7e-07	57.0
HVIT017555-PA	Scaffold212	44.74	38	19	1	183	218	228464	228351	0.94	37.4
HVIT017555-PA	Scaffold151	51.43	70	32	1	183	250	215941	216150	4e-12	73.2
HVIT017555-PA	Scaffold151	54.05	37	17	0	194	230	240396	240286	0.004	45.1
HVIT017555-PA	Scaffold404	34.76	164	79	4	192	328	665021	664533	5e-12	72.8
HVIT017555-PA	Scaffold404	32.50	120	55	5	137	231	415792	415436	6e-05	50.8
HVIT017555-PA	Scaffold223	50.77	65	32	0	266	330	2361543	2361737	6e-12	72.8
HVIT017555-PA	Scaffold1432	34.75	141	66	2	191	306	140902	141321	7e-12	72.4
HVIT017555-PA	Scaffold1432	43.55	62	29	3	188	246	520801	520625	8.2	34.3
HVIT017555-PA	Scaffold2730	30.80	289	132	9	97	330	81291	80464	1e-11	72.0
HVIT017555-PA	Scaffold804	27.18	309	165	10	62	313	598262	597345	1e-11	71.6
HVIT017555-PA	Scaffold229	31.90	210	101	5	162	330	379252	379878	2e-11	71.2
HVIT017555-PA	Scaffold229	35.38	65	40	1	184	246	837111	836917	9e-04	47.0
HVIT017555-PA	Scaffold1574	39.82	113	43	1	214	301	212490	212152	3e-11	70.5
HVIT017555-PA	Scaffold452	63.79	58	21	0	190	247	566392	566219	4e-11	70.1
HVIT017555-PA	Scaffold452	41.89	74	43	0	266	339	566090	565869	2e-08	62.0
HVIT017555-PA	Scaffold452	48.57	70	30	4	182	247	49543	49746	2e-04	49.3
HVIT017555-PA	Scaffold452	40.30	67	40	0	264	330	862832	863032	3e-04	48.9
HVIT017555-PA	Scaffold452	60.61	33	11	1	183	213	862657	862755	0.64	38.1
HVIT017555-PA	Scaffold496	37.33	150	72	6	190	322	336721	337155	4e-11	70.1
HVIT017555-PA	Scaffold497	33.12	154	66	3	205	327	234673	235116	4e-11	59.3
HVIT017555-PA	Scaffold497	68.00	25	6	1	183	205	234600	234674	4e-11	32.3
HVIT017555-PA	Scaffold39	35.90	156	78	4	100	234	1625662	1625198	6e-11	69.7
HVIT017555-PA	Scaffold39	33.54	161	73	8	183	310	1560098	1560577	2e-08	62.0
HVIT017555-PA	Scaffold39	36.25	80	40	3	264	339	169354	169572	0.40	38.5
HVIT017555-PA	Scaffold39	36.00	50	29	2	185	231	4248948	4248799	0.70	37.7
HVIT017555-PA	Scaffold2681	34.90	149	64	5	192	311	133001	133435	7e-11	69.3
HVIT017555-PA	Scaffold2681	36.26	91	51	5	172	255	100170	100442	0.004	45.1
HVIT017555-PA	Scaffold2681	34.78	46	30	0	195	240	27774	27911	1.5	37.0
HVIT017555-PA	Scaffold6	40.60	133	60	4	104	218	5350940	5351335	8e-11	69.3
HVIT017555-PA	Scaffold6	49.23	65	33	0	266	330	5351542	5351736	5e-09	63.9
HVIT017555-PA	Scaffold6	53.49	43	19	1	205	247	1382844	1382719	3e-05	44.3
HVIT017555-PA	Scaffold6	60.87	23	7	1	188	208	1382890	1382822	3e-05	26.9
HVIT017555-PA	Scaffold6	25.16	155	80	5	190	308	1380079	1380543	0.57	38.1
HVIT017555-PA	Scaffold5156	41.10	73	42	1	183	254	29139	28921	9e-11	51.6
HVIT017555-PA	Scaffold5156	40.32	62	37	0	266	327	28813	28628	9e-11	38.9
HVIT017555-PA	Scaffold115	35.48	93	32	3	133	197	526762	526484	9e-11	47.0
HVIT017555-PA	Scaffold115	32.00	75	23	2	73	119	527021	526797	9e-11	35.8
HVIT017555-PA	Scaffold115	46.15	26	14	0	212	237	526484	526407	9e-11	26.9
HVIT017555-PA	Scaffold115	51.72	58	25	1	259	316	2352793	2352957	4e-09	63.9
HVIT017555-PA	Scaffold115	59.65	57	20	1	94	150	2352320	2352481	2e-06	55.5
HVIT017555-PA	Scaffold186	56.67	60	25	1	188	247	321297	321121	9e-11	69.3
HVIT017555-PA	Scaffold186	50.00	52	26	0	253	304	1051008	1051163	4e-05	51.2
HVIT017555-PA	Scaffold186	30.05	183	79	6	101	247	1049882	1050391	0.015	43.1
HVIT017555-PA	Scaffold186	37.10	62	36	2	104	165	321608	321432	4.5	35.0
HVIT017555-PA	Scaffold860	32.58	178	89	5	192	342	113140	113661	9e-11	68.9
HVIT017555-PA	Scaffold1912	56.67	60	26	0	191	250	204102	204281	9e-11	68.9
HVIT017555-PA	Scaffold182	72.09	43	12	0	190	232	807701	807829	1e-10	68.9
HVIT017555-PA	Scaffold182	42.28	123	40	3	61	154	807169	807531	1e-08	62.8
HVIT017555-PA	Scaffold182	63.33	30	11	0	266	295	807990	808079	6e-07	43.9
HVIT017555-PA	Scaffold182	48.39	31	16	0	300	330	808078	808170	6e-07	33.5
HVIT017555-PA	Scaffold182	44.19	43	24	0	209	251	599747	599875	2e-05	36.2
HVIT017555-PA	Scaffold182	36.90	84	48	2	70	148	599305	599556	2e-05	28.1
HVIT017555-PA	Scaffold182	61.54	26	7	1	183	205	599661	599738	2e-05	26.6
HVIT017555-PA	Scaffold182	24.32	185	88	7	170	311	746157	745630	0.20	39.7
HVIT017555-PA	Scaffold638	62.79	43	15	1	205	247	642453	642578	1e-10	55.5
HVIT017555-PA	Scaffold638	33.06	124	63	3	106	209	642101	642472	1e-10	35.0
HVIT017555-PA	Scaffold1434	46.58	73	36	1	258	330	50415	50624	1e-10	68.9
HVIT017555-PA	Scaffold5307	52.24	67	30	1	183	247	17305	17505	2e-10	67.8
HVIT017555-PA	Scaffold682	40.83	120	38	4	139	226	425262	424906	2e-10	67.8
HVIT017555-PA	Scaffold572	30.81	172	79	6	190	327	1110317	1110814	3e-10	67.4
HVIT017555-PA	Scaffold572	29.61	179	93	6	183	332	45671	46195	6e-07	57.4
HVIT017555-PA	Scaffold572	58.33	36	15	0	212	247	13151	13258	6e-04	47.8
HVIT017555-PA	Scaffold572	43.90	41	23	0	185	225	1303933	1304055	0.003	45.4
HVIT017555-PA	Scaffold572	57.78	45	19	0	95	139	1680920	1681054	0.15	36.6
HVIT017555-PA	Scaffold572	57.14	14	6	0	70	83	1680760	1680801	0.15	21.9
HVIT017555-PA	Scaffold142	28.30	265	137	7	95	307	1241219	1240428	3e-10	67.4
HVIT017555-PA	Scaffold1913	42.19	64	33	2	190	249	248382	248191	3e-10	50.8
HVIT017555-PA	Scaffold1913	34.72	72	45	1	264	335	248083	247874	3e-10	38.1
HVIT017555-PA	Scaffold53	35.48	155	73	7	203	330	3663833	3664297	3e-10	67.4
HVIT017555-PA	Scaffold53	27.27	220	115	9	133	309	3752087	3751434	2e-08	62.0
HVIT017555-PA	Scaffold53	50.91	55	25	1	183	235	3663766	3663930	1e-04	49.7
HVIT017555-PA	Scaffold47106	33.14	169	80	7	183	319	1174	671	3e-10	67.4
HVIT017555-PA	Scaffold46883	39.84	123	59	3	133	245	1365	1012	3e-10	67.0
HVIT017555-PA	Scaffold46883	54.72	53	24	0	269	321	868	710	6e-09	62.8
HVIT017555-PA	Scaffold657	50.82	61	30	0	270	330	369785	369603	3e-10	67.4
HVIT017555-PA	Scaffold1084	33.55	152	74	3	183	307	2046	2501	3e-10	67.4
HVIT017555-PA	Scaffold300	32.52	163	84	3	194	330	1171233	1171721	4e-10	67.0
HVIT017555-PA	Scaffold2	35.37	147	68	3	190	310	2693585	2694022	4e-10	67.0
HVIT017555-PA	Scaffold2	52.38	42	20	0	287	328	7490619	7490494	4e-08	45.4
HVIT017555-PA	Scaffold2	32.65	98	43	4	211	286	7490900	7490610	4e-08	36.2
HVIT017555-PA	Scaffold2	37.61	109	42	5	134	218	7495564	7495244	1e-06	56.2
HVIT017555-PA	Scaffold2	34.75	118	69	4	133	245	6374411	6374755	2e-05	52.4
HVIT017555-PA	Scaffold2	49.02	51	25	1	200	250	2082173	2082322	3e-05	51.6
HVIT017555-PA	Scaffold2	55.77	52	23	0	97	148	6626984	6626829	5e-04	47.8
HVIT017555-PA	Scaffold2	36.56	93	51	1	235	319	6374773	6375051	0.003	45.4
HVIT017555-PA	Scaffold2	30.10	103	69	2	239	341	2676902	2676603	0.005	44.7
HVIT017555-PA	Scaffold2	52.50	40	18	1	291	330	7301683	7301567	2.2	36.2
HVIT017555-PA	Scaffold2	41.67	48	25	2	187	231	6593097	6593240	6.5	34.7
HVIT017555-PA	Scaffold43	35.37	164	76	6	183	318	3308918	3308433	5e-10	67.0
HVIT017555-PA	Scaffold43	53.66	41	18	1	290	330	1661942	1662061	0.012	43.5
HVIT017555-PA	Scaffold108	33.59	131	70	3	199	313	1318324	1318713	5e-10	66.6
HVIT017555-PA	Scaffold108	31.65	139	72	6	213	333	1329259	1329660	5e-09	46.6
HVIT017555-PA	Scaffold108	80.00	20	4	0	198	217	1329212	1329271	5e-09	37.7
HVIT017555-PA	Scaffold108	36.90	84	46	3	190	269	1908896	1908654	2e-05	52.4
HVIT017555-PA	Scaffold517	58.93	56	20	2	176	228	798655	798822	6e-10	66.6
HVIT017555-PA	Scaffold517	30.11	176	82	4	163	302	752479	752991	1e-09	65.5
HVIT017555-PA	Scaffold517	32.81	128	56	4	207	307	826002	826376	3e-08	60.5
HVIT017555-PA	Scaffold517	36.00	25	16	0	306	330	826366	826440	3e-08	21.2
HVIT017555-PA	Scaffold517	50.94	53	26	0	198	250	793763	793921	3e-06	55.1
HVIT017555-PA	Scaffold517	35.62	73	42	3	183	250	1070512	1070294	0.018	42.7
HVIT017555-PA	Scaffold517	29.29	99	53	6	148	237	813543	813815	0.31	38.9
HVIT017555-PA	Scaffold517	28.74	87	49	4	190	266	1095801	1096052	0.97	37.4
HVIT017555-PA	Scaffold517	35.85	53	28	1	197	243	979948	979790	2.4	36.2
HVIT017555-PA	Scaffold231	51.43	70	31	2	183	250	773091	773297	6e-10	66.6
HVIT017555-PA	Scaffold231	35.62	73	47	0	242	314	777191	777409	0.001	46.2
HVIT017555-PA	Scaffold467	47.69	65	34	0	266	330	469345	469151	1e-09	65.5
HVIT017555-PA	Scaffold467	33.33	96	41	3	133	215	469829	469572	2e-06	41.2
HVIT017555-PA	Scaffold467	58.62	29	11	1	213	241	469578	469495	2e-06	34.3
HVIT017555-PA	Scaffold30178	47.14	70	35	1	183	250	1306	1097	1e-09	65.1
HVIT017555-PA	Scaffold344	46.43	84	38	2	252	330	35956	36201	1e-09	65.5
HVIT017555-PA	Scaffold1728	48.57	70	34	1	183	250	55243	55452	1e-09	65.5
HVIT017555-PA	Scaffold1953	33.33	171	78	8	183	319	30907	30401	2e-09	65.5
HVIT017555-PA	Scaffold34158	30.34	178	97	4	192	342	517	1050	2e-09	65.1
HVIT017555-PA	Scaffold263	30.49	164	90	2	192	331	1108697	1108206	2e-09	65.1
HVIT017555-PA	Scaffold68	76.19	42	8	1	183	222	1545242	1545367	2e-09	64.7
HVIT017555-PA	Scaffold68	29.21	178	94	4	190	335	2039979	2040512	4e-08	60.8
HVIT017555-PA	Scaffold68	27.27	154	76	5	190	307	1922049	1922510	0.001	46.6
HVIT017555-PA	Scaffold68	36.00	50	31	1	190	238	631057	631206	0.68	37.7
HVIT017555-PA	Scaffold270	51.81	83	33	4	200	282	522301	522528	2e-09	64.7
HVIT017555-PA	Scaffold270	50.00	38	19	0	270	307	1172829	1172942	3e-04	48.5
HVIT017555-PA	Scaffold1918	56.25	32	14	0	266	297	82058	81963	3e-09	46.6
HVIT017555-PA	Scaffold1918	60.61	33	13	0	297	329	81964	81866	3e-09	38.9
HVIT017555-PA	Scaffold1918	35.44	79	43	1	180	250	39083	39319	0.005	44.7
HVIT017555-PA	Scaffold1918	39.44	71	39	2	273	342	39460	39663	0.057	41.2
HVIT017555-PA	Scaffold1918	37.93	58	32	3	185	239	192257	192427	0.42	38.5
HVIT017555-PA	Scaffold3589	50.00	46	22	1	205	250	3727	3861	3e-09	45.4
HVIT017555-PA	Scaffold3589	70.97	31	4	2	183	208	3657	3749	3e-09	40.4
HVIT017555-PA	Scaffold3589	56.90	58	23	1	273	330	3986	4153	5e-07	57.4
HVIT017555-PA	Scaffold3589	36.17	47	30	0	190	236	30706	30846	0.52	38.1
HVIT017555-PA	Scaffold23053	41.51	106	36	2	205	285	315	1	3e-09	63.9
HVIT017555-PA	Scaffold619	42.65	68	38	1	248	314	319218	319421	4e-09	63.9
HVIT017555-PA	Scaffold425	31.21	141	70	3	194	308	375385	374966	5e-09	63.5
HVIT017555-PA	Scaffold425	58.46	65	25	2	92	156	97312	97124	2e-05	52.4
HVIT017555-PA	Scaffold425	49.09	55	27	1	192	246	1136008	1136169	8e-05	50.4
HVIT017555-PA	Scaffold425	47.22	36	19	0	200	235	81123	81230	0.058	41.2
HVIT017555-PA	Scaffold425	39.29	56	27	1	271	326	70099	70245	0.098	40.4
HVIT017555-PA	Scaffold1037	52.24	67	30	1	183	247	436586	436786	6e-09	63.5
HVIT017555-PA	Scaffold9288	52.54	59	19	1	173	231	20721	20572	1e-08	62.8
HVIT017555-PA	Scaffold185	37.33	150	59	4	96	218	1067627	1067202	1e-08	62.8
HVIT017555-PA	Scaffold185	36.73	98	45	2	170	250	111992	112285	1e-07	59.3
HVIT017555-PA	Scaffold185	47.54	61	28	1	270	330	112438	112608	0.002	45.8
HVIT017555-PA	Scaffold185	46.00	50	27	0	282	331	1066940	1066791	0.005	44.7
HVIT017555-PA	Scaffold185	40.00	40	22	1	186	223	346463	346344	0.90	37.4
HVIT017555-PA	Scaffold185	42.22	45	24	1	266	308	1299744	1299878	6.9	34.7
HVIT017555-PA	Scaffold476	57.50	40	17	0	275	314	689964	689845	1e-08	50.4
HVIT017555-PA	Scaffold476	48.89	45	21	2	203	247	690206	690078	1e-08	32.7
HVIT017555-PA	Scaffold3544	31.29	147	76	3	190	311	17357	16917	2e-08	62.0
HVIT017555-PA	Scaffold3544	33.33	66	39	3	176	236	22231	22034	7.8	34.7
HVIT017555-PA	Scaffold373	58.33	60	24	1	188	247	352335	352159	2e-08	62.0
HVIT017555-PA	Scaffold373	40.46	131	52	4	97	201	352691	352299	2e-07	58.5
HVIT017555-PA	Scaffold754	29.65	199	97	8	158	327	331086	331640	2e-08	62.0
HVIT017555-PA	Scaffold754	44.00	50	25	2	185	231	490240	490389	0.058	41.2
HVIT017555-PA	Scaffold1901	49.18	61	30	1	190	250	143138	143317	3e-08	61.2
HVIT017555-PA	Scaffold60810	30.27	185	83	7	156	307	1111	596	4e-08	60.5
HVIT017555-PA	Scaffold11916	30.41	148	76	3	190	311	13927	14367	4e-08	60.8
HVIT017555-PA	Scaffold37080	26.87	201	117	7	154	327	1385	792	6e-08	59.7
HVIT017555-PA	Scaffold433	43.24	74	32	2	258	324	1795589	1795801	7e-08	44.7
HVIT017555-PA	Scaffold433	41.51	53	27	2	198	250	1795329	1795475	7e-08	35.8
HVIT017555-PA	Scaffold345	53.85	52	24	0	279	330	93706	93551	7e-08	60.1
HVIT017555-PA	Scaffold345	53.85	52	24	0	279	330	83083	82928	7e-08	60.1
HVIT017555-PA	Scaffold345	48.15	54	27	1	192	245	1164384	1164226	2e-04	49.3
HVIT017555-PA	Scaffold345	42.50	40	22	1	190	228	430457	430338	0.72	37.7
HVIT017555-PA	Scaffold33388	28.89	180	101	6	175	327	1450	1989	7e-08	59.7
HVIT017555-PA	Scaffold454	27.75	173	86	5	180	313	837936	837418	7e-08	60.1
HVIT017555-PA	Scaffold369	41.32	121	44	5	104	200	100393	100746	7e-08	60.1
HVIT017555-PA	Scaffold16290	33.11	148	64	5	1	119	6872	6447	1e-07	47.8
HVIT017555-PA	Scaffold16290	54.00	50	15	1	113	154	6472	6323	1e-07	32.3
HVIT017555-PA	Scaffold1916	31.11	90	54	2	1	90	316658	316903	1e-07	36.2
HVIT017555-PA	Scaffold1916	70.00	20	6	0	133	152	317095	317154	1e-07	36.2
HVIT017555-PA	Scaffold1916	34.21	38	22	1	82	119	316953	317057	1e-07	26.6
HVIT017555-PA	Scaffold544	28.24	170	94	5	183	325	843558	844064	2e-07	58.9
HVIT017555-PA	Scaffold29394	29.61	179	93	6	183	332	608	84	2e-07	58.9
HVIT017555-PA	Scaffold248	38.00	100	35	4	133	209	562765	562478	2e-07	44.3
HVIT017555-PA	Scaffold248	53.12	32	15	0	211	242	562479	562384	2e-07	35.0
HVIT017555-PA	Scaffold248	55.10	49	21	1	282	330	562223	562080	5e-05	51.2
HVIT017555-PA	Scaffold152	37.50	112	46	5	133	221	1107599	1107267	2e-07	58.9
HVIT017555-PA	Scaffold217	50.00	56	27	1	200	255	1930278	1930114	2e-07	58.9
HVIT017555-PA	Scaffold801	34.31	137	65	7	92	205	642357	642761	2e-07	39.7
HVIT017555-PA	Scaffold801	47.73	44	18	1	205	243	642758	642889	2e-07	39.7
HVIT017555-PA	Scaffold801	45.65	46	25	0	284	329	887437	887300	4e-04	48.1
HVIT017555-PA	Scaffold155	29.11	158	88	4	192	325	880008	879535	2e-07	58.5
HVIT017555-PA	Scaffold137	27.75	209	103	7	176	339	362637	363254	3e-07	58.2
HVIT017555-PA	Scaffold137	42.50	40	21	1	186	223	1585885	1585766	0.54	38.1
HVIT017555-PA	Scaffold357	31.51	146	73	3	192	311	53276	52842	4e-07	57.8
HVIT017555-PA	Scaffold2461	34.03	144	68	5	190	307	118781	118353	4e-07	57.8
HVIT017555-PA	Scaffold10136	31.45	159	81	5	208	339	2390	1917	6e-07	57.0
HVIT017555-PA	Scaffold16	53.49	43	18	1	175	215	3326802	3326930	6e-07	46.6
HVIT017555-PA	Scaffold16	46.88	32	16	1	216	247	3326930	3327022	6e-07	30.8
HVIT017555-PA	Scaffold16	53.33	30	14	0	277	306	3327174	3327263	0.43	38.5
HVIT017555-PA	Scaffold228	40.51	79	40	2	178	250	320481	320714	6e-07	57.0
HVIT017555-PA	Scaffold228	31.11	135	70	4	188	300	460619	460218	1e-05	52.8
HVIT017555-PA	Scaffold228	41.67	36	20	1	212	247	652755	652651	0.036	34.3
HVIT017555-PA	Scaffold228	60.00	20	8	0	195	214	652808	652749	0.036	26.6
HVIT017555-PA	Scaffold228	45.71	35	19	0	279	313	652481	652377	4.8	35.0
HVIT017555-PA	Scaffold733	29.10	134	72	2	190	300	490997	491398	8e-07	57.0
HVIT017555-PA	Scaffold733	44.44	36	20	0	278	313	494305	494412	2.5	36.2
HVIT017555-PA	Scaffold823	40.32	62	37	0	269	330	534943	534758	8e-07	56.6
HVIT017555-PA	Scaffold268	67.50	40	13	0	190	229	126941	127060	1e-06	52.8
HVIT017555-PA	Scaffold268	47.83	23	12	0	228	250	127059	127127	1e-06	23.9
HVIT017555-PA	Scaffold268	35.87	92	52	2	163	248	79278	79006	6e-06	53.9
HVIT017555-PA	Scaffold776	68.29	41	11	1	183	221	695097	694975	1e-06	56.2
HVIT017555-PA	Scaffold365	55.56	54	23	1	277	330	770145	770303	1e-06	56.2
HVIT017555-PA	Scaffold365	34.43	61	38	2	172	231	1267494	1267673	3.4	35.8
HVIT017555-PA	Scaffold20783	54.55	44	19	1	208	251	1081	953	1e-06	46.2
HVIT017555-PA	Scaffold20783	44.44	27	15	0	266	292	843	763	1e-06	30.8
HVIT017555-PA	Scaffold20783	50.00	40	20	0	291	330	410	291	0.024	42.4
HVIT017555-PA	Scaffold1105	46.55	58	30	1	190	247	172339	172509	1e-06	56.2
HVIT017555-PA	Scaffold106	58.70	46	17	1	183	226	816651	816788	1e-06	48.5
HVIT017555-PA	Scaffold106	33.80	71	47	0	97	167	816337	816549	1e-06	28.1
HVIT017555-PA	Scaffold3384	46.55	58	31	0	273	330	47376	47203	1e-06	56.2
HVIT017555-PA	Scaffold3384	34.00	100	36	4	137	211	46830	46546	5e-04	48.1
HVIT017555-PA	Scaffold8510	43.94	66	36	1	266	330	17087	17284	1e-06	56.2
HVIT017555-PA	Scaffold398	31.51	146	73	4	192	310	452202	451765	1e-06	55.8
HVIT017555-PA	Scaffold1677	28.57	189	110	4	83	247	61858	62421	2e-06	55.8
HVIT017555-PA	Scaffold56	29.94	167	93	3	95	237	1128473	1128973	2e-06	55.8
HVIT017555-PA	Scaffold900	30.56	144	70	5	183	299	16869	17291	2e-06	55.5
HVIT017555-PA	Scaffold14375	48.98	49	20	2	251	299	2964	2833	2e-06	44.7
HVIT017555-PA	Scaffold14375	39.22	51	24	1	299	342	2836	2684	2e-06	31.2
HVIT017555-PA	Scaffold33787	28.42	183	92	6	183	327	643	98	2e-06	55.1
HVIT017555-PA	Scaffold267	31.25	160	87	5	190	327	195003	194527	2e-06	55.5
HVIT017555-PA	Scaffold385	30.88	136	71	6	133	247	773772	773371	2e-06	48.1
HVIT017555-PA	Scaffold385	29.73	37	26	0	257	293	773272	773162	2e-06	27.3
HVIT017555-PA	Scaffold460	40.48	84	43	1	266	342	927258	927509	4e-06	54.7
HVIT017555-PA	Scaffold460	28.57	119	62	5	203	299	1238859	1239212	10.0	34.3
HVIT017555-PA	Scaffold3666	43.75	64	35	1	190	253	6231	6419	4e-06	54.7
HVIT017555-PA	Scaffold4256	25.14	183	100	4	177	327	43672	43139	4e-06	54.7
HVIT017555-PA	Scaffold4256	46.15	52	26	2	188	237	73427	73272	0.040	42.0
HVIT017555-PA	Scaffold391	31.10	164	81	7	183	317	111580	111098	4e-06	54.7
HVIT017555-PA	Scaffold1242	38.30	94	51	2	163	250	195870	195592	4e-06	54.3
HVIT017555-PA	Scaffold1242	31.15	61	38	1	267	323	185920	186102	0.050	41.6
HVIT017555-PA	Scaffold1242	40.38	52	28	2	183	231	185583	185738	0.12	40.4
HVIT017555-PA	Scaffold42885	35.42	96	55	2	161	250	680	396	5e-06	53.9
HVIT017555-PA	Scaffold42885	48.48	33	17	0	266	298	271	173	0.033	42.0
HVIT017555-PA	Scaffold4130	31.13	151	77	5	192	315	77120	76668	6e-06	53.9
HVIT017555-PA	Scaffold4130	40.74	54	30	1	184	235	81668	81507	0.021	42.7
HVIT017555-PA	Scaffold1024	33.53	170	86	5	183	327	110606	111109	8e-06	53.5
HVIT017555-PA	Scaffold2033	48.28	58	28	1	176	231	12281	12454	9e-06	53.5
HVIT017555-PA	Scaffold1009	41.03	78	40	3	179	250	477487	477254	1e-05	53.1
HVIT017555-PA	Scaffold1009	47.73	44	23	0	192	235	360223	360092	0.001	47.0
HVIT017555-PA	Scaffold1009	26.52	181	88	6	83	231	365287	364784	0.002	45.8
HVIT017555-PA	Scaffold1009	40.32	62	36	1	266	327	405787	405605	0.12	40.4
HVIT017555-PA	Scaffold1675	44.29	70	37	1	183	250	107405	107196	1e-05	53.1
HVIT017555-PA	Scaffold44	27.38	168	85	6	190	327	1438794	1439276	1e-05	53.1
HVIT017555-PA	Scaffold44	23.88	289	165	8	97	330	1835540	1836406	1e-04	50.1
HVIT017555-PA	Scaffold44	44.29	70	33	3	183	250	3541658	3541461	2e-04	49.7
HVIT017555-PA	Scaffold44	61.76	34	13	0	275	308	1631106	1631005	0.001	47.0
HVIT017555-PA	Scaffold44	28.57	154	77	5	201	330	625179	624745	0.002	46.2
HVIT017555-PA	Scaffold44	43.18	44	24	1	190	233	1860224	1860352	0.59	38.1
HVIT017555-PA	Scaffold44	48.39	31	16	0	190	220	625258	625166	3.9	35.4
HVIT017555-PA	Scaffold2345	39.44	71	39	2	164	233	32543	32746	1e-05	52.8
HVIT017555-PA	Scaffold769	51.67	60	22	3	183	236	493482	493658	1e-05	52.8
HVIT017555-PA	Scaffold1938	32.88	146	67	3	209	326	191906	192334	1e-05	52.8
HVIT017555-PA	Scaffold730	32.45	151	75	6	192	315	270131	270583	1e-05	52.8
HVIT017555-PA	Scaffold273	30.08	133	68	2	195	302	523941	524339	1e-05	52.8
HVIT017555-PA	Scaffold161	35.59	118	46	2	63	150	526641	526994	2e-05	52.8
HVIT017555-PA	Scaffold13	52.38	42	20	0	273	314	3906602	3906477	2e-05	52.4
HVIT017555-PA	Scaffold13	28.00	125	77	4	190	314	3802197	3801862	1.3	37.0
HVIT017555-PA	Scaffold1097	35.42	96	49	3	180	263	107185	107469	2e-05	52.4
HVIT017555-PA	Scaffold308	36.28	113	48	5	133	221	471242	470904	2e-05	52.4
HVIT017555-PA	Scaffold3372	26.32	152	85	5	183	308	86670	86218	3e-05	52.0
HVIT017555-PA	Scaffold1282	43.08	65	28	3	183	244	325986	325810	3e-05	52.0
HVIT017555-PA	Scaffold10592	47.27	55	28	1	266	319	69	233	3e-05	51.6
HVIT017555-PA	Scaffold55705	35.29	68	44	0	263	330	2189	2392	3e-05	51.2
HVIT017555-PA	Scaffold2655	36.15	130	54	4	103	203	50213	50602	4e-05	51.2
HVIT017555-PA	Scaffold2655	57.89	38	15	1	194	230	50571	50684	0.022	42.7
HVIT017555-PA	Scaffold265	44.29	70	36	2	183	250	683926	684132	5e-05	51.2
HVIT017555-PA	Scaffold265	50.00	46	23	0	285	330	1632796	1632659	3e-04	48.5
HVIT017555-PA	Scaffold265	28.71	202	110	9	80	250	1496895	1497491	0.002	45.8
HVIT017555-PA	Scaffold299	37.78	90	49	1	97	179	147109	146840	5e-05	51.2
HVIT017555-PA	Scaffold191	39.71	68	33	2	183	250	138602	138781	5e-05	51.2
HVIT017555-PA	Scaffold2328	47.14	70	31	3	183	250	115672	115475	6e-05	50.8
HVIT017555-PA	Scaffold31	50.98	51	23	1	183	231	1032791	1032639	6e-05	50.8
HVIT017555-PA	Scaffold32	38.89	72	39	3	190	260	833336	833539	7e-05	50.8
HVIT017555-PA	Scaffold32	27.34	139	83	4	209	331	833434	833844	3.4	35.8
HVIT017555-PA	Scaffold280	28.45	232	127	7	139	331	1760213	1760908	8e-05	50.4
HVIT017555-PA	Scaffold4621	54.76	42	19	0	190	231	46548	46423	9e-05	50.4
HVIT017555-PA	Scaffold4621	48.84	43	21	1	205	247	46358	46233	0.050	41.6
HVIT017555-PA	Scaffold418	52.17	46	22	0	190	235	182798	182935	9e-05	50.1
HVIT017555-PA	Scaffold7438	56.60	53	23	0	98	150	29997	29839	1e-04	50.1
HVIT017555-PA	Scaffold199	29.14	151	83	4	201	327	1662587	1662135	1e-04	49.7
HVIT017555-PA	Scaffold1078	43.24	74	35	4	183	250	158612	158394	1e-04	49.7
HVIT017555-PA	Scaffold39636	28.10	121	72	4	143	250	1347	1703	2e-04	49.3
HVIT017555-PA	Scaffold20517	60.00	35	14	0	278	312	10299	10195	2e-04	49.3
HVIT017555-PA	Scaffold20517	60.00	30	11	1	221	250	10534	10448	5.8	34.7
HVIT017555-PA	Scaffold5551	29.85	134	82	1	202	335	12236	12601	2e-04	49.3
HVIT017555-PA	Scaffold715	55.56	45	18	1	290	334	82610	82738	2e-04	49.3
HVIT017555-PA	Scaffold715	55.88	34	13	1	183	214	220988	221089	2.6	35.8
HVIT017555-PA	Scaffold592	42.62	61	35	0	190	250	573491	573309	2e-04	47.4
HVIT017555-PA	Scaffold592	48.00	25	13	0	266	290	573190	573116	2e-04	21.2
HVIT017555-PA	Scaffold592	37.21	43	26	1	190	231	514688	514560	3.2	35.8
HVIT017555-PA	Scaffold548	29.01	131	65	3	195	300	336569	336186	2e-04	45.8
HVIT017555-PA	Scaffold548	27.34	128	68	6	93	196	336952	336572	2e-04	22.7
HVIT017555-PA	Scaffold548	40.82	49	29	0	192	240	418881	419027	0.002	45.8
HVIT017555-PA	Scaffold428	34.56	136	69	5	97	216	299631	300026	2e-04	48.9
HVIT017555-PA	Scaffold428	55.88	34	15	0	279	312	300263	300364	0.001	46.6
HVIT017555-PA	Scaffold2116	26.28	156	83	3	192	315	376054	376521	3e-04	48.9
HVIT017555-PA	Scaffold684	34.17	120	45	4	62	150	251363	251013	3e-04	48.5
HVIT017555-PA	Scaffold1642	61.11	36	14	0	212	247	54686	54793	3e-04	48.5
HVIT017555-PA	Scaffold1642	61.11	36	14	0	212	247	56832	56939	3e-04	48.5
HVIT017555-PA	Scaffold746	53.66	41	19	0	290	330	4848	4970	3e-04	48.5
HVIT017555-PA	Scaffold810	52.50	40	19	0	192	231	73930	73811	3e-04	48.5
HVIT017555-PA	Scaffold3108	50.00	54	27	0	194	247	32376	32537	3e-04	48.5
HVIT017555-PA	Scaffold1860	56.41	39	17	0	212	250	315353	315469	4e-04	48.1
HVIT017555-PA	Scaffold829	31.58	133	59	6	133	236	593997	593608	4e-04	48.1
HVIT017555-PA	Scaffold829	31.58	133	59	6	133	236	592917	592528	4e-04	48.1
HVIT017555-PA	Scaffold53198	47.17	53	20	2	189	241	795	661	4e-04	47.8
HVIT017555-PA	Scaffold36	38.78	49	30	0	269	317	4204509	4204363	4e-04	48.1
HVIT017555-PA	Scaffold2161	34.07	91	45	4	165	250	53761	54003	5e-04	48.1
HVIT017555-PA	Scaffold2161	32.89	76	43	3	160	232	40063	40275	0.038	42.0
HVIT017555-PA	Scaffold2161	41.46	41	23	1	192	231	20027	19905	2.5	36.2
HVIT017555-PA	Scaffold864	27.88	165	92	5	190	327	465357	465851	5e-04	47.8
HVIT017555-PA	Scaffold1902	27.69	130	68	5	183	286	113326	113715	5e-04	47.8
HVIT017555-PA	Scaffold256	61.11	36	14	0	212	247	1077310	1077417	6e-04	47.8
HVIT017555-PA	Scaffold2219	40.35	57	32	1	183	237	252579	252409	6e-04	47.8
HVIT017555-PA	Scaffold2219	46.88	32	17	0	192	223	137688	137783	0.19	39.7
HVIT017555-PA	Scaffold2219	39.34	61	32	2	164	222	144072	144245	0.56	38.1
HVIT017555-PA	Scaffold2219	38.10	42	25	1	191	231	108647	108772	0.59	38.1
HVIT017555-PA	Scaffold2219	38.00	50	30	1	266	314	108958	109107	2.0	36.6
HVIT017555-PA	Scaffold1066	64.00	50	18	0	101	150	22844	22695	6e-04	47.8
HVIT017555-PA	Scaffold1312	58.33	36	15	0	212	247	635658	635765	6e-04	47.8
HVIT017555-PA	Scaffold35	44.64	56	29	1	183	236	2095767	2095934	6e-04	47.8
HVIT017555-PA	Scaffold139	57.41	54	23	0	97	150	3511518	3511357	7e-04	47.4
HVIT017555-PA	Scaffold139	38.81	67	39	1	183	247	3327639	3327839	0.001	46.2
HVIT017555-PA	Scaffold139	53.85	26	12	0	190	215	2031135	2031058	1.0	37.4
HVIT017555-PA	Scaffold42195	26.74	172	99	3	183	327	1402	1917	7e-04	47.4
HVIT017555-PA	Scaffold88	50.00	50	24	1	201	250	2901115	2901261	7e-04	47.4
HVIT017555-PA	Scaffold88	44.19	43	23	1	190	231	164300	164172	0.083	40.8
HVIT017555-PA	Scaffold88	36.17	47	29	1	190	235	1282331	1282191	3.4	35.8
HVIT017555-PA	Scaffold648	54.72	53	24	0	97	149	751191	751033	8e-04	47.4
HVIT017555-PA	Scaffold648	35.51	107	41	4	206	287	465940	465629	0.005	44.7
HVIT017555-PA	Scaffold648	41.38	87	49	2	78	164	718108	717854	0.020	42.7
HVIT017555-PA	Scaffold648	26.03	146	82	4	192	313	465980	465549	0.048	41.6
HVIT017555-PA	Scaffold648	59.57	47	18	1	106	151	466278	466138	1.1	37.4
HVIT017555-PA	Scaffold1815	27.33	150	81	3	190	311	144729	144280	8e-04	47.4
HVIT017555-PA	Scaffold3137	46.94	49	24	1	183	229	22442	22296	8e-04	47.4
HVIT017555-PA	Scaffold25	62.00	50	19	0	101	150	529796	529647	9e-04	47.0
HVIT017555-PA	Scaffold25	41.82	55	32	0	277	331	3429612	3429448	0.021	42.7
HVIT017555-PA	Scaffold25	54.05	37	15	1	184	218	946564	946674	0.17	39.7
HVIT017555-PA	Scaffold314	46.81	47	25	0	284	330	373189	373329	0.001	47.0
HVIT017555-PA	Scaffold884	36.44	118	45	2	63	150	276844	277197	0.001	47.0
HVIT017555-PA	Scaffold884	38.00	50	28	2	185	231	383022	382873	2.0	36.2
HVIT017555-PA	Scaffold884	37.50	48	27	2	199	243	961421	961564	3.0	35.8
HVIT017555-PA	Scaffold884	22.87	328	175	13	61	311	556735	555755	7.4	34.7
HVIT017555-PA	Scaffold4244	27.33	161	88	4	192	325	23177	22701	0.001	46.6
HVIT017555-PA	Scaffold3173	36.99	73	41	3	183	250	88121	88339	0.001	46.6
HVIT017555-PA	Scaffold3173	28.74	87	49	4	190	266	77619	77368	0.18	39.7
HVIT017555-PA	Scaffold938	55.56	54	24	0	97	150	156648	156487	0.001	46.6
HVIT017555-PA	Scaffold938	33.33	60	37	1	175	234	359303	359473	0.69	37.7
HVIT017555-PA	Scaffold1934	47.62	42	22	0	192	233	53667	53792	0.001	46.6
HVIT017555-PA	Scaffold1934	38.89	54	32	1	273	325	53966	54127	4.0	35.4
HVIT017555-PA	Scaffold332	58.33	36	15	0	212	247	867357	867250	0.001	46.6
HVIT017555-PA	Scaffold211	52.38	42	20	0	190	231	961737	961862	0.001	46.6
HVIT017555-PA	Scaffold2573	88.46	26	1	1	183	206	92295	92218	0.001	46.6
HVIT017555-PA	Scaffold456	37.50	72	38	2	175	240	62395	62183	0.001	46.6
HVIT017555-PA	Scaffold456	45.24	42	22	1	209	250	946805	946683	0.47	38.5
HVIT017555-PA	Scaffold446	36.49	74	39	2	174	247	175724	175527	0.002	46.2
HVIT017555-PA	Scaffold219	49.06	53	24	2	167	216	1629707	1629865	0.002	46.2
HVIT017555-PA	Scaffold219	25.00	164	87	4	190	317	1111941	1112432	3.1	35.8
HVIT017555-PA	Scaffold4284	69.23	26	8	0	279	304	86957	86880	0.002	43.5
HVIT017555-PA	Scaffold4284	29.03	31	22	0	298	328	86904	86812	0.002	21.9
HVIT017555-PA	Scaffold17530	42.59	54	29	1	184	235	4559	4720	0.002	45.8
HVIT017555-PA	Scaffold17530	36.51	63	38	2	266	327	4991	5176	0.012	43.5
HVIT017555-PA	Scaffold646	50.00	46	22	1	205	250	504103	504237	0.002	45.8
HVIT017555-PA	Scaffold255	46.00	50	26	1	192	241	491450	491596	0.002	45.8
HVIT017555-PA	Scaffold255	54.00	50	23	0	101	150	850435	850584	0.003	45.4
HVIT017555-PA	Scaffold779	43.14	51	27	1	183	231	346736	346584	0.002	45.8
HVIT017555-PA	Scaffold2594	42.11	57	33	0	190	246	21659	21829	0.002	45.8
HVIT017555-PA	Scaffold2391	54.17	48	20	1	183	228	58033	57890	0.002	45.8
HVIT017555-PA	Scaffold2098	44.00	50	25	2	185	231	173186	173037	0.002	45.8
HVIT017555-PA	Scaffold2098	54.29	35	14	1	185	217	61066	60962	0.53	38.1
HVIT017555-PA	Scaffold2098	30.38	79	47	2	190	268	110356	110568	5.0	35.0
HVIT017555-PA	Scaffold146	26.45	155	84	6	183	307	128716	129180	0.003	45.4
HVIT017555-PA	Scaffold5199	39.53	43	26	0	192	234	42550	42422	0.003	45.4
HVIT017555-PA	Scaffold5199	60.87	23	9	0	194	216	40626	40558	0.87	37.4
HVIT017555-PA	Scaffold5199	47.73	44	22	1	266	308	42216	42085	1.4	37.0
HVIT017555-PA	Scaffold578	26.77	198	89	9	183	327	1331705	1332289	0.003	45.4
HVIT017555-PA	Scaffold578	44.44	36	18	1	183	216	1628733	1628626	6.5	34.7
HVIT017555-PA	Scaffold218	48.08	52	26	1	190	241	391008	391160	0.003	45.4
HVIT017555-PA	Scaffold218	34.09	44	29	0	193	236	1241653	1241522	0.82	37.7
HVIT017555-PA	Scaffold686	30.13	156	88	5	194	331	497515	497973	0.003	45.1
HVIT017555-PA	Scaffold45991	45.65	46	25	0	190	235	1482	1619	0.004	45.1
HVIT017555-PA	Scaffold10	44.68	47	26	0	192	238	3481942	3481802	0.004	45.1
HVIT017555-PA	Scaffold10	47.06	34	18	0	198	231	2722983	2723084	2.2	36.2
HVIT017555-PA	Scaffold723	47.46	59	30	1	97	154	214550	214726	0.004	45.1
HVIT017555-PA	Scaffold4059	52.63	38	18	0	290	327	13442	13555	0.004	45.1
HVIT017555-PA	Scaffold560	47.17	53	27	1	192	244	761693	761538	0.004	45.1
HVIT017555-PA	Scaffold233	26.71	146	79	5	204	322	1746592	1747026	0.004	45.1
HVIT017555-PA	Scaffold233	25.52	290	163	8	82	319	1746151	1747017	0.016	43.1
HVIT017555-PA	Scaffold598	60.61	33	13	0	279	311	244167	244069	0.004	45.1
HVIT017555-PA	Scaffold1004	46.15	52	27	1	190	241	57021	57173	0.005	44.7
HVIT017555-PA	Scaffold2372	27.56	156	82	6	183	307	31533	31066	0.006	44.7
HVIT017555-PA	Scaffold1208	66.67	30	10	0	192	221	231021	230932	0.006	44.7
HVIT017555-PA	Scaffold1208	32.56	86	30	3	60	117	340460	340717	0.44	38.5
HVIT017555-PA	Scaffold1228	42.25	71	34	4	183	247	83551	83342	0.006	44.3
HVIT017555-PA	Scaffold1228	41.86	43	24	1	190	231	8712	8840	0.78	37.7
HVIT017555-PA	Scaffold20528	48.00	50	24	1	183	230	1062	1211	0.006	44.3
HVIT017555-PA	Scaffold134	45.65	46	24	1	205	250	1378359	1378493	0.006	44.3
HVIT017555-PA	Scaffold47431	55.56	36	16	0	212	247	952	845	0.006	43.9
HVIT017555-PA	Scaffold85	29.32	133	67	4	193	299	697217	697612	0.007	44.3
HVIT017555-PA	Scaffold85	43.55	62	32	3	188	248	1878803	1878982	0.45	38.5
HVIT017555-PA	Scaffold4728	56.41	39	17	0	212	250	32012	32128	0.007	44.3
HVIT017555-PA	Scaffold1615	36.99	73	35	3	190	251	166256	166038	0.007	44.3
HVIT017555-PA	Scaffold1615	33.90	59	38	1	277	335	165913	165740	8.8	34.3
HVIT017555-PA	Scaffold2078	40.98	61	36	0	190	250	31706	31888	0.007	44.3
HVIT017555-PA	Scaffold15	43.40	53	30	0	194	246	3361411	3361253	0.009	43.9
HVIT017555-PA	Scaffold12142	27.98	168	88	7	192	330	26	517	0.010	43.9
HVIT017555-PA	Scaffold745	44.23	52	28	1	195	246	210205	210053	0.010	43.9
HVIT017555-PA	Scaffold745	45.16	62	33	1	90	150	210581	210396	1.3	37.0
HVIT017555-PA	Scaffold8973	46.34	41	21	1	192	231	7329	7207	0.011	43.5
HVIT017555-PA	Scaffold275	50.00	42	21	0	189	230	405157	405032	0.011	43.5
HVIT017555-PA	Scaffold509	27.44	164	84	5	190	327	493351	493815	0.011	43.5
HVIT017555-PA	Scaffold23880	62.50	48	18	0	106	153	152	9	0.011	43.5
HVIT017555-PA	Scaffold6916	51.06	47	21	1	183	227	24769	24629	0.012	43.5
HVIT017555-PA	Scaffold12068	47.92	48	23	1	183	228	14686	14543	0.013	43.5
HVIT017555-PA	Scaffold571	53.70	54	25	0	97	150	433265	433104	0.013	43.5
HVIT017555-PA	Scaffold112	35.06	77	20	2	67	114	1822717	1822490	0.013	43.5
HVIT017555-PA	Scaffold112	56.25	32	14	0	190	221	1242452	1242547	0.064	41.2
HVIT017555-PA	Scaffold112	50.00	30	15	0	218	247	1822490	1822401	8.2	34.3
HVIT017555-PA	Scaffold1045	34.33	67	44	0	264	330	47423	47623	0.014	43.1
HVIT017555-PA	Scaffold5638	57.89	38	14	1	183	218	33604	33491	0.014	43.1
HVIT017555-PA	Scaffold170	30.65	62	41	1	172	231	808133	807948	0.014	43.1
HVIT017555-PA	Scaffold22290	44.64	56	30	1	192	247	13273	13109	0.014	43.1
HVIT017555-PA	Scaffold525	53.57	28	11	1	183	208	139427	139510	0.015	31.6
HVIT017555-PA	Scaffold525	48.39	31	16	0	207	237	139507	139599	0.015	30.4
HVIT017555-PA	Scaffold1899	29.63	135	71	4	192	302	152952	153356	0.017	43.1
HVIT017555-PA	Scaffold590	27.61	163	89	4	194	330	844642	844163	0.017	43.1
HVIT017555-PA	Scaffold590	23.72	156	82	5	190	308	1315133	1314666	0.78	37.7
HVIT017555-PA	Scaffold603	34.12	85	43	3	154	230	69995	69756	0.017	43.1
HVIT017555-PA	Scaffold603	35.29	51	33	0	266	316	69556	69404	0.19	39.7
HVIT017555-PA	Scaffold7909	38.78	49	30	0	266	314	18227	18081	0.020	42.7
HVIT017555-PA	Scaffold7909	43.90	41	22	1	191	230	18550	18428	1.6	36.6
HVIT017555-PA	Scaffold20534	23.81	189	109	7	184	339	1598	1038	0.021	42.7
HVIT017555-PA	Scaffold3147	48.65	37	19	0	192	228	50954	51064	0.022	42.7
HVIT017555-PA	Scaffold157	47.62	42	22	0	190	231	1781855	1781730	0.024	42.4
HVIT017555-PA	Scaffold2027	44.64	56	31	0	192	247	81502	81335	0.028	42.4
HVIT017555-PA	Scaffold487	42.00	50	26	2	185	231	767549	767400	0.029	42.4
HVIT017555-PA	Scaffold52	43.10	58	33	0	270	327	1539167	1538994	0.030	42.4
HVIT017555-PA	Scaffold52	40.38	52	28	2	183	231	1502540	1502385	0.14	40.0
HVIT017555-PA	Scaffold41008	46.81	47	22	2	183	226	1199	1059	0.034	41.6
HVIT017555-PA	Scaffold291	51.35	37	16	1	183	217	704075	704185	0.035	42.0
HVIT017555-PA	Scaffold291	32.00	50	31	2	185	231	1401087	1401236	7.2	34.7
HVIT017555-PA	Scaffold49995	40.58	69	27	3	188	243	1332	1535	0.035	38.5
HVIT017555-PA	Scaffold49995	32.43	37	25	0	266	302	1628	1738	0.035	22.7
HVIT017555-PA	Scaffold981	47.50	40	21	0	272	311	104539	104658	0.038	42.0
HVIT017555-PA	Scaffold981	68.00	25	6	1	183	205	104213	104287	0.32	29.3
HVIT017555-PA	Scaffold981	40.54	37	20	1	211	247	104283	104387	0.32	28.1
HVIT017555-PA	Scaffold981	36.00	50	31	1	289	338	157384	157530	3.2	35.8
HVIT017555-PA	Scaffold10325	41.94	62	36	0	266	327	8100	8285	0.038	42.0
HVIT017555-PA	Scaffold3431	56.67	30	13	0	192	221	89847	89936	0.038	42.0
HVIT017555-PA	Scaffold9	56.52	23	10	0	97	119	5412367	5412435	0.039	30.8
HVIT017555-PA	Scaffold9	64.71	17	6	0	134	150	5412479	5412529	0.039	29.6
HVIT017555-PA	Scaffold9	26.98	189	81	8	192	330	4185490	4184945	0.11	40.4
HVIT017555-PA	Scaffold9	40.38	52	29	1	184	233	2087650	2087495	0.20	39.7
HVIT017555-PA	Scaffold459	38.78	49	30	0	190	238	639253	639107	0.039	42.0
HVIT017555-PA	Scaffold755	26.89	119	63	3	137	231	35093	34737	0.039	42.0
HVIT017555-PA	Scaffold755	42.86	49	25	2	186	231	458568	458714	0.040	42.0
HVIT017555-PA	Scaffold327	29.73	74	50	1	183	254	1399387	1399166	0.041	40.4
HVIT017555-PA	Scaffold327	52.94	17	8	0	270	286	1399053	1399003	0.041	20.0
HVIT017555-PA	Scaffold327	36.00	50	29	2	185	231	1164045	1163896	0.13	40.0
HVIT017555-PA	Scaffold564	55.56	36	16	0	212	247	665943	665836	0.044	41.6
HVIT017555-PA	Scaffold1650	42.31	52	27	2	184	232	160109	160264	0.052	41.6
HVIT017555-PA	Scaffold103	31.75	126	58	5	183	281	1137792	1137418	0.052	41.6
HVIT017555-PA	Scaffold103	55.56	27	12	0	200	226	2345802	2345882	7.1	34.7
HVIT017555-PA	Scaffold107	47.50	40	20	1	193	231	1161221	1161340	0.057	41.2
HVIT017555-PA	Scaffold107	35.71	42	26	1	191	231	2413519	2413644	8.2	34.3
HVIT017555-PA	Scaffold1626	55.26	38	14	1	190	224	100481	100594	0.069	41.2
HVIT017555-PA	Scaffold2603	42.86	63	34	1	98	160	265704	265886	0.072	40.8
HVIT017555-PA	Scaffold2603	44.19	43	16	1	181	215	279093	279221	2.3	36.2
HVIT017555-PA	Scaffold1486	46.34	41	21	1	192	231	88675	88797	0.076	40.8
HVIT017555-PA	Scaffold1903	44.68	47	23	1	192	235	81940	81800	0.076	40.8
HVIT017555-PA	Scaffold1903	42.86	63	35	1	266	327	81648	81460	0.13	40.0
HVIT017555-PA	Scaffold81	44.83	58	24	2	175	231	1639081	1639233	0.083	40.8
HVIT017555-PA	Scaffold664	25.65	191	95	7	183	327	933105	932536	0.091	40.8
HVIT017555-PA	Scaffold901	52.78	36	15	1	184	217	727693	727586	0.093	40.8
HVIT017555-PA	Scaffold11013	26.16	172	92	5	190	327	1196	684	0.097	40.4
HVIT017555-PA	Scaffold388	40.00	50	27	2	185	231	1111443	1111592	0.098	40.4
HVIT017555-PA	Scaffold427	48.78	41	19	1	183	221	798784	798906	0.098	40.4
HVIT017555-PA	Scaffold252	27.48	131	68	3	204	307	1351327	1351719	0.098	40.4
HVIT017555-PA	Scaffold252	33.33	72	43	3	182	248	471309	471094	0.94	37.4
HVIT017555-PA	Scaffold121	58.33	24	10	0	96	119	1568982	1568911	0.099	32.0
HVIT017555-PA	Scaffold121	68.75	16	5	0	133	148	1568882	1568835	0.099	26.9
HVIT017555-PA	Scaffold4638	25.97	154	78	5	190	307	73509	73970	0.10	40.4
HVIT017555-PA	Scaffold1881	35.48	62	40	0	266	327	221392	221577	0.10	40.4
HVIT017555-PA	Scaffold79	47.50	40	21	0	192	231	549871	549990	0.11	40.4
HVIT017555-PA	Scaffold79	37.18	78	41	3	194	271	2028794	2028585	0.11	40.4
HVIT017555-PA	Scaffold2769	51.52	33	16	0	215	247	49519	49617	0.13	40.0
HVIT017555-PA	Scaffold8320	36.54	52	30	2	185	233	6347	6502	0.13	40.0
HVIT017555-PA	Scaffold3265	36.36	66	33	2	174	231	93194	93000	0.13	40.0
HVIT017555-PA	Scaffold15343	85.00	20	3	0	192	211	2886	2827	0.13	40.0
HVIT017555-PA	Scaffold6389	25.61	164	84	6	185	310	18500	18009	0.13	40.0
HVIT017555-PA	Scaffold519	40.00	50	27	2	185	231	156912	157061	0.15	40.0
HVIT017555-PA	Scaffold519	43.90	41	22	1	192	231	629456	629578	0.30	38.9
HVIT017555-PA	Scaffold4769	26.09	138	77	4	190	302	40512	40099	0.15	40.0
HVIT017555-PA	Scaffold29801	40.00	50	27	2	185	231	5302	5153	0.17	39.7
HVIT017555-PA	Scaffold503	43.75	48	25	1	272	319	421910	421773	0.17	39.7
HVIT017555-PA	Scaffold12021	38.78	49	30	0	190	238	1577	1723	0.18	39.7
HVIT017555-PA	Scaffold958	28.19	149	78	5	188	311	216397	215963	0.19	39.7
HVIT017555-PA	Scaffold14987	46.51	43	22	1	205	247	8332	8457	0.19	35.8
HVIT017555-PA	Scaffold14987	75.00	12	3	0	190	201	8286	8321	0.19	22.7
HVIT017555-PA	Scaffold885	46.34	41	21	1	192	231	782125	782003	0.20	39.7
HVIT017555-PA	Scaffold885	38.78	49	30	0	190	238	633387	633533	0.72	37.7
HVIT017555-PA	Scaffold1151	40.00	50	27	2	185	231	493647	493796	0.21	39.7
HVIT017555-PA	Scaffold206	59.38	32	13	0	190	221	764877	764782	0.22	39.7
