HVIT010606-PA	Scaffold162	97.62	126	3	0	261	386	1794941	1794564	7e-72	253
HVIT010606-PA	Scaffold162	98.91	92	1	0	58	149	1800549	1800274	2e-51	193
HVIT010606-PA	Scaffold162	95.08	61	3	0	149	209	1797549	1797367	2e-29	128
HVIT010606-PA	Scaffold162	96.67	60	2	0	208	267	1795617	1795438	5e-27	120
HVIT010606-PA	Scaffold162	74.63	67	14	1	210	276	1795747	1795556	7e-20	97.8
HVIT010606-PA	Scaffold162	82.35	51	3	1	9	59	1803271	1803137	3e-16	86.7
HVIT010606-PA	Scaffold162	100.00	20	0	0	1	20	1805217	1805158	6e-04	48.1
HVIT010606-PA	Scaffold1622	42.35	85	48	1	262	346	330124	329873	1e-14	81.3
HVIT010606-PA	Scaffold1622	54.10	61	28	0	149	209	325500	325318	3e-12	74.3
HVIT010606-PA	Scaffold1622	42.19	64	34	2	82	143	335442	335254	3e-05	52.0
HVIT010606-PA	Scaffold1622	42.59	54	20	1	211	264	323829	323701	0.12	40.4
HVIT010606-PA	Scaffold1089	41.54	65	37	1	149	212	281242	281436	8e-10	66.6
HVIT010606-PA	Scaffold1089	41.89	74	42	1	262	335	284642	284860	1e-09	66.2
HVIT010606-PA	Scaffold191	44.23	52	29	0	261	312	1078089	1077934	0.14	40.4
HVIT012992-PA	Scaffold191	100.00	81	0	0	56	136	1085054	1084812	9e-47	176
HVIT012992-PA	Scaffold191	93.94	66	2	1	130	195	1081257	1081066	1e-30	128
HVIT012992-PA	Scaffold191	100.00	55	0	0	1	55	1088991	1088827	2e-25	113
HVIT012992-PA	Scaffold191	59.57	94	6	1	202	263	1078267	1077986	2e-21	101
HVIT012992-PA	Scaffold191	90.48	42	4	0	196	237	1078262	1078137	1e-14	80.1
HVIT012992-PA	Scaffold191	65.79	38	13	0	196	233	1078239	1078126	7e-06	52.8
HVIT012992-PA	Scaffold1089	36.92	65	32	2	69	133	281257	281424	0.027	41.6
HVIT015112-PA	Scaffold388	97.62	84	2	0	49	132	1353607	1353356	3e-48	174
HVIT015112-PA	Scaffold388	100.00	51	0	0	1	51	1355529	1355377	1e-24	106
HVIT015112-PA	Scaffold162	36.84	57	36	0	27	83	1794974	1794804	0.38	35.4
HVIT015112-PA	Scaffold191	39.02	41	25	0	39	79	1078086	1077964	2.8	33.1
HVIT015112-PA	Scaffold225	58.33	24	10	0	93	116	470321	470392	4.7	32.3
HVIT015112-PA	Scaffold2400	35.09	57	31	2	52	107	65648	65803	8.7	31.6
HVIT015113-PA	Scaffold388	85.26	95	13	1	93	186	1402439	1402155	3e-41	163
HVIT015113-PA	Scaffold388	98.68	76	1	0	228	303	1385411	1385184	2e-39	157
HVIT015113-PA	Scaffold388	90.91	66	6	0	296	361	1379995	1379798	2e-28	124
HVIT015113-PA	Scaffold388	100.00	49	0	0	24	72	1413640	1413494	1e-20	99.8
HVIT015113-PA	Scaffold388	97.67	43	1	0	187	229	1401896	1401768	3e-16	86.3
HVIT015113-PA	Scaffold388	97.30	37	1	0	73	109	1413070	1412960	1e-13	78.2
HVIT015113-PA	Scaffold388	100.00	23	0	0	1	23	1414041	1413973	6e-05	50.8
HVIT015113-PA	Scaffold99	84.21	19	3	0	7	25	1017858	1017802	1.2	37.4
HVIT021452-PA	Scaffold1089	100.00	223	0	0	1	223	274810	275478	3e-96	329
HVIT021452-PA	Scaffold1089	100.00	93	0	0	224	316	276868	277146	2e-50	194
HVIT021452-PA	Scaffold1089	100.00	79	0	0	420	498	284648	284884	2e-42	170
HVIT021452-PA	Scaffold1089	96.72	61	2	0	317	377	281245	281427	2e-29	129
HVIT021452-PA	Scaffold1089	100.00	44	0	0	377	420	283869	284000	4e-18	94.0
HVIT021452-PA	Scaffold1622	57.14	63	24	2	317	378	325497	325315	7e-11	70.9
HVIT021452-PA	Scaffold1622	42.31	78	45	0	420	497	330118	329885	2e-10	69.7
HVIT021452-PA	Scaffold1622	60.38	53	17	2	374	426	323829	323683	2e-06	56.6
HVIT021452-PA	Scaffold1622	42.53	87	45	4	239	323	335469	335218	7e-06	55.1
HVIT021452-PA	Scaffold162	41.46	82	47	1	417	497	1794941	1794696	9e-11	70.5
HVIT021452-PA	Scaffold162	39.71	68	40	1	310	377	1797567	1797367	4e-09	65.1
HVIT021452-PA	Scaffold191	36.14	83	43	3	307	379	1085060	1084812	4e-04	49.3
HVIT021452-PA	Scaffold191	36.54	52	33	0	417	468	1078089	1077934	0.49	39.3
HVIT025819-PA	Scaffold1622	100.00	62	0	0	1	62	330094	329909	1e-33	133
HVIT025819-PA	Scaffold1622	76.47	85	18	2	40	123	325566	325315	3e-33	132
HVIT025819-PA	Scaffold1622	95.65	46	2	0	119	164	323829	323692	8e-20	93.2
HVIT025819-PA	Scaffold162	53.23	62	29	0	61	122	1797552	1797367	8e-14	75.5
HVIT025819-PA	Scaffold162	31.50	127	80	4	2	124	1794905	1794534	3e-08	58.2
HVIT025819-PA	Scaffold162	38.60	57	24	1	118	163	1795611	1795441	0.007	41.6
HVIT025819-PA	Scaffold1089	50.77	65	31	1	59	122	281233	281427	4e-12	70.1
HVIT025819-PA	Scaffold1089	63.83	47	13	2	119	161	283860	284000	2e-07	55.8
HVIT025819-PA	Scaffold1089	40.74	54	32	0	2	55	284675	284836	1e-05	50.1
HVIT025820-PA	Scaffold1622	96.63	89	3	0	44	132	335496	335230	4e-50	181
HVIT025820-PA	Scaffold1622	96.55	29	1	0	1	29	338674	338588	1e-09	62.4
HVIT025820-PA	Scaffold1622	85.19	27	4	0	127	153	330807	330727	3e-05	48.5
HVIT025820-PA	Scaffold1622	100.00	14	0	0	30	43	336517	336476	0.88	35.0
HVIT025820-PA	Scaffold1089	42.31	78	43	2	53	129	276913	277143	1e-07	56.2
HVIT025820-PA	Scaffold162	42.19	64	34	2	62	124	1800477	1800292	1e-06	52.8
HVIT025820-PA	Scaffold788	81.48	27	5	0	127	153	705919	705999	1e-04	46.6
HVIT025820-PA	Scaffold525	100.00	22	0	0	132	153	63274	63339	3e-04	45.1
HVIT025820-PA	Scaffold73	35.71	42	26	1	67	107	2098328	2098453	7.5	32.3
