 	Full Command:                      hmmsearch --cpu 4 --pfamtblout Fmr1/Fmr1.hmm.faa.pfam.tbl Fmr1/Fmr1.Uniprot.hmm HVIT.genome/Hvit.faa 
	Memory (kb):                       168704 
	# SWAP  (freq):                    0 
	# Waits (freq):                    206 
	CPU (percent):                     363% 
	Time (seconds):                    1.17 
	Time (hh:mm:ss.ms):                0:01.17 
	System CPU Time (seconds):         0.05 
	User   CPU Time (seconds):         4.20 
