 	Full Command:                      hmmsearch --cpu 4 --pfamtblout Octbeta3R/Octbeta3R.hmm.faa.pfam.tbl Octbeta3R/Octbeta3R.Uniprot.hmm HVIT.genome/Hvit.faa 
	Memory (kb):                       218400 
	# SWAP  (freq):                    0 
	# Waits (freq):                    172 
	CPU (percent):                     374% 
	Time (seconds):                    1.40 
	Time (hh:mm:ss.ms):                0:01.40 
	System CPU Time (seconds):         0.08 
	User   CPU Time (seconds):         5.18 
