 	Full Command:                      hmmsearch --cpu 4 --pfamtblout sil-3/sil-3.hmm.faa.pfam.tbl sil-3/sil-3.Uniprot.hmm HVIT.genome/Hvit.faa 
	Memory (kb):                       126176 
	# SWAP  (freq):                    0 
	# Waits (freq):                    169 
	CPU (percent):                     303% 
	Time (seconds):                    0.52 
	Time (hh:mm:ss.ms):                0:00.52 
	System CPU Time (seconds):         0.06 
	User   CPU Time (seconds):         1.53 
