 	Full Command:                      hmmsearch --cpu 4 --pfamtblout psh/psh.hmm.faa.pfam.tbl psh/psh.Uniprot.hmm HVIT.genome/Hvit.faa 
	Memory (kb):                       129600 
	# SWAP  (freq):                    0 
	# Waits (freq):                    223 
	CPU (percent):                     351% 
	Time (seconds):                    0.84 
	Time (hh:mm:ss.ms):                0:00.84 
	System CPU Time (seconds):         0.06 
	User   CPU Time (seconds):         2.91 
