 	Full Command:                      hmmsearch --cpu 4 --pfamtblout wg.nofrags/wg.nofrags.hmm.faa.pfam.tbl wg.nofrags/wg.nofrags.Uniprot.hmm HVIT.genome/Hvit.faa 
	Memory (kb):                       84752 
	# SWAP  (freq):                    0 
	# Waits (freq):                    173 
	CPU (percent):                     295% 
	Time (seconds):                    0.25 
	Time (hh:mm:ss.ms):                0:00.25 
	System CPU Time (seconds):         0.04 
	User   CPU Time (seconds):         0.70 
