 	Full Command:                      hmmsearch --cpu 4 --pfamtblout tl/tl.hmm.faa.pfam.tbl tl/tl.Uniprot.hmm HVIT.genome/Hvit.faa 
	Memory (kb):                       390256 
	# SWAP  (freq):                    0 
	# Waits (freq):                    200 
	CPU (percent):                     370% 
	Time (seconds):                    2.21 
	Time (hh:mm:ss.ms):                0:02.21 
	System CPU Time (seconds):         0.18 
	User   CPU Time (seconds):         8.01 
