 	Full Command:                      hmmsearch --cpu 4 --pfamtblout Dcr-1/Dcr-1.hmm.faa.pfam.tbl Dcr-1/Dcr-1.Uniprot.hmm HVIT.genome/Hvit.faa 
	Memory (kb):                       568208 
	# SWAP  (freq):                    0 
	# Waits (freq):                    178 
	CPU (percent):                     323% 
	Time (seconds):                    1.47 
	Time (hh:mm:ss.ms):                0:01.47 
	System CPU Time (seconds):         0.11 
	User   CPU Time (seconds):         4.66 
