  Started on:            pine1
  Started at:            Wed Mar 2 20:59:01 PST 2016
# hmmsearch :: search profile(s) against a sequence database
# HMMER 3.1b1 (May 2013); http://hmmer.org/
# Copyright (C) 2013 Howard Hughes Medical Institute.
# Freely distributed under the GNU General Public License (GPLv3).
# - - - - - - - - - - - - - - - - - - - - - - - - - - - - - - - - - - - -
# query HMM file:                  IMPI/IMPI.Uniprot.hmm
# target sequence database:        HVIT.genome/Hvit.faa
# pfam-style tabular hit output:   IMPI/IMPI.hmm.faa.pfam.tbl
# number of worker threads:        4
# - - - - - - - - - - - - - - - - - - - - - - - - - - - - - - - - - - - -

Query:       IMPI.Uniprot  [M=170]
Scores for complete sequences (score includes all domains):
   --- full sequence ---   --- best 1 domain ---    -#dom-
    E-value  score  bias    E-value  score  bias    exp  N  Sequence      Description
    ------- ------ -----    ------- ------ -----   ---- --  --------      -----------
  ------ inclusion threshold ------
       0.33   11.9  31.4       0.81   10.7  11.6    3.0  2  HVIT024638-PA  


Domain annotation for each sequence (and alignments):
>> HVIT024638-PA  
   #    score  bias  c-Evalue  i-Evalue hmmfrom  hmm to    alifrom  ali to    envfrom  env to     acc
 ---   ------ ----- --------- --------- ------- -------    ------- -------    ------- -------    ----
   1 ?   10.7  11.6   2.5e-05      0.81      22      85 ..       1      60 [.       1      63 [. 0.87
   2 ?    4.7  11.9    0.0017        56      81     162 ..      96     175 ..      78     177 .] 0.64

  Alignments for each domain:
  == domain 1  score: 10.7 bits;  conditional E-value: 2.5e-05
   IMPI.Uniprot 22 lisngslekyecgkaldnvcadlllqnkvncslivlraadksycedgyard.vngkcisikdcpk 85
                   +++ ++++++ cg ++ + c+dl       c+    ++ + +yc  g++ d   g+c+s+  cp 
  HVIT024638-PA  1 IQCPHGQQYQACGSTCAHSCSDLGR----ECPR-HWQCVEGCYCPSGHTLDpRTGECVSVATCPC 60
                   7899999999999999999999987....8996.5799999***999999834799**9999995 PP

  == domain 2  score: 4.7 bits;  conditional E-value: 0.0017
   IMPI.Uniprot  81 kdcpkirsrrsiGisvdkkcatgpnehydeekvsclnetcislvakfscidspp.pspGcscdeGylrldlksacipiadcpq 162
                     +  +ir + +  +   + c++   + y     + ++e+  +   +     sp     Gc c  Gy+   l+  c+  ++cp 
  HVIT024638-PA  96 ASAEQIRDYPNQSLDLTTSCSATRHQEY---THCEPPEPITCKNMHDPPAFSPSiCRSGCICRRGYVLDSLTKECVKPSQCPC 175
                    4556677777777777888877333333...333366665222222222223321347**********99***********96 PP



Internal pipeline statistics summary:
-------------------------------------
Query model(s):                              1  (170 nodes)
Target sequences:                        33019  (9418578 residues searched)
Passed MSV filter:                      1666  (0.0504558); expected 660.4 (0.02)
Passed bias filter:                      719  (0.0217753); expected 660.4 (0.02)
Passed Vit filter:                        57  (0.00172628); expected 33.0 (0.001)
Passed Fwd filter:                         1  (3.02856e-05); expected 0.3 (1e-05)
Initial search space (Z):              33019  [actual number of targets]
Domain search space  (domZ):               1  [number of targets reported over threshold]
# CPU time: 0.24u 0.01s 00:00:00.25 Elapsed: 00:00:00.08
# Mc/sec: 20014.48
//
[ok]
  Finished at:            Wed Mar 2 20:59:01 PST 2016
