HVIT007705-PA	Scaffold157	99.29	140	1	0	106	245	2713223	2713642	3e-66	231
HVIT007705-PA	Scaffold157	100.00	43	0	0	26	68	2711926	2712054	1e-28	92.8
HVIT007705-PA	Scaffold157	100.00	27	0	0	1	27	2711736	2711816	1e-28	57.0
HVIT007705-PA	Scaffold157	70.93	86	25	0	107	192	2787307	2787564	2e-27	118
HVIT007705-PA	Scaffold157	54.12	85	39	0	108	192	2805899	2806153	8e-18	89.4
HVIT007705-PA	Scaffold157	95.24	42	2	0	68	109	2712834	2712959	1e-15	82.8
HVIT007705-PA	Scaffold157	69.81	53	16	0	193	245	2789266	2789424	1e-08	60.5
HVIT007705-PA	Scaffold157	55.81	43	19	0	26	68	2798394	2798522	5e-08	58.9
HVIT007705-PA	Scaffold157	55.81	43	19	0	26	68	2782629	2782757	8e-08	58.2
HVIT007705-PA	Scaffold157	58.49	53	22	0	193	245	2819662	2819820	1e-06	54.3
HVIT007705-PA	Scaffold157	38.30	47	29	0	63	109	2780178	2780318	0.001	45.8
HVIT007705-PA	Scaffold157	36.36	44	28	0	63	106	2804311	2804442	0.28	38.1
HVIT007705-PA	Scaffold157	40.91	44	26	0	3	46	2797611	2797742	0.76	37.0
HVIT007705-PA	Scaffold157	72.73	22	6	0	3	24	2782240	2782305	2.2	35.4
HVIT007705-PA	Scaffold2122	43.55	248	124	7	3	242	20973	21692	6e-41	158
HVIT007705-PA	Scaffold3502	42.17	166	60	5	3	160	40811	41224	7e-25	110
HVIT007705-PA	Scaffold2145	60.38	53	21	0	193	245	18705	18547	2e-06	54.3
HVIT007705-PA	Scaffold21625	38.30	47	29	0	63	109	2393	2533	0.001	45.8
HVIT007705-PA	Scaffold7	40.35	57	32	1	118	172	4458564	4458394	1.9	35.8
HVIT007705-PA	Scaffold980	62.50	24	9	0	143	166	604549	604478	2.3	35.4
HVIT007707-PA	Scaffold157	100.00	89	0	0	2	90	2730454	2730720	9e-51	179
HVIT007707-PA	Scaffold157	51.47	68	33	0	1	68	2790240	2790443	2e-15	77.8
HVIT007707-PA	Scaffold157	41.43	70	41	0	3	72	2801396	2801605	4e-11	65.1
HVIT007707-PA	Scaffold157	66.67	21	7	0	69	89	2792291	2792353	0.089	36.6
HVIT007707-PA	Scaffold157	61.90	21	8	0	69	89	2802729	2802791	0.31	34.7
HVIT007707-PA	Scaffold2145	41.43	70	41	0	3	72	8062	7853	4e-11	65.1
HVIT007707-PA	Scaffold2122	34.92	63	39	2	21	82	21828	22013	6e-05	46.6
HVIT007707-PA	Scaffold99	45.45	33	13	1	55	82	2374278	2374376	2.0	32.3
HVIT007710-PA	Scaffold157	66.67	147	49	0	94	240	2713241	2713681	4e-56	205
HVIT007710-PA	Scaffold157	100.00	82	0	0	92	173	2787316	2787561	4e-43	167
HVIT007710-PA	Scaffold157	100.00	66	0	0	227	292	2790246	2790443	9e-34	139
HVIT007710-PA	Scaffold157	98.18	55	1	0	173	227	2789260	2789424	5e-25	113
HVIT007710-PA	Scaffold157	51.58	95	46	0	219	313	2730433	2730717	7e-24	109
HVIT007710-PA	Scaffold157	65.22	69	24	0	227	295	2801396	2801602	7e-22	103
HVIT007710-PA	Scaffold157	95.74	47	2	0	7	53	2782186	2782326	2e-21	101
HVIT007710-PA	Scaffold157	52.44	82	39	0	92	173	2805905	2806150	2e-19	95.9
HVIT007710-PA	Scaffold157	93.18	44	3	0	49	92	2782626	2782757	2e-17	89.4
HVIT007710-PA	Scaffold157	70.91	55	16	0	173	227	2819656	2819820	6e-17	87.8
HVIT007710-PA	Scaffold157	64.44	45	16	0	47	91	2798385	2798519	2e-12	73.6
HVIT007710-PA	Scaffold157	77.42	31	7	0	24	54	2797608	2797700	1e-08	62.4
HVIT007710-PA	Scaffold157	64.44	45	12	2	276	316	2792228	2792362	2e-07	58.5
HVIT007710-PA	Scaffold157	51.16	43	21	0	50	92	2711926	2712054	1e-06	55.8
HVIT007710-PA	Scaffold157	90.48	21	2	0	293	313	2802729	2802791	0.001	46.2
HVIT007710-PA	Scaffold157	45.24	42	23	0	24	65	2711739	2711864	0.11	40.4
HVIT007710-PA	Scaffold2122	32.86	350	164	8	25	306	20973	22013	3e-49	185
HVIT007710-PA	Scaffold2145	65.22	69	24	0	227	295	8062	7856	7e-22	103
HVIT007710-PA	Scaffold2145	75.47	53	13	0	175	227	18705	18547	1e-16	86.7
HVIT007710-PA	Scaffold3502	38.99	159	62	9	10	142	40775	41224	1e-12	74.3
HVIT007710-PA	Scaffold980	62.50	24	9	0	125	148	604549	604478	0.61	37.7
HVIT007711-PA	Scaffold157	98.84	86	1	0	329	414	2805893	2806150	8e-44	173
HVIT007711-PA	Scaffold157	55.00	140	63	0	329	468	2713223	2713642	2e-42	169
HVIT007711-PA	Scaffold157	95.96	99	4	0	53	151	2797404	2797700	2e-41	166
HVIT007711-PA	Scaffold157	97.10	69	2	0	210	278	2801396	2801602	1e-32	139
HVIT007711-PA	Scaffold157	98.18	55	1	0	414	468	2819656	2819820	3e-24	112
HVIT007711-PA	Scaffold157	53.57	84	39	0	331	414	2787310	2787561	8e-21	102
HVIT007711-PA	Scaffold157	65.15	66	23	0	210	275	2790246	2790443	1e-20	101
HVIT007711-PA	Scaffold157	97.78	45	1	0	285	329	2804308	2804442	3e-19	97.4
HVIT007711-PA	Scaffold157	93.33	45	3	0	144	188	2798385	2798519	2e-17	91.3
HVIT007711-PA	Scaffold157	70.91	55	16	0	414	468	2789260	2789424	3e-16	88.2
HVIT007711-PA	Scaffold157	41.38	87	50	1	210	296	2730457	2730714	4e-13	77.8
HVIT007711-PA	Scaffold157	65.12	43	15	0	146	188	2782626	2782754	6e-10	67.8
HVIT007711-PA	Scaffold157	100.00	31	0	0	1	31	2795896	2795988	3e-09	65.5
HVIT007711-PA	Scaffold157	58.14	43	18	0	287	329	2780181	2780309	5e-08	61.6
HVIT007711-PA	Scaffold157	52.38	42	20	0	147	188	2711926	2712051	1e-05	54.3
HVIT007711-PA	Scaffold157	75.00	32	8	0	179	210	2792767	2792862	1e-05	53.9
HVIT007711-PA	Scaffold157	75.00	32	8	0	179	210	2799458	2799553	1e-05	53.9
HVIT007711-PA	Scaffold157	42.50	40	23	0	289	328	2712828	2712947	0.094	41.2
HVIT007711-PA	Scaffold157	62.26	53	17	1	98	150	2782177	2782326	0.20	40.4
HVIT007711-PA	Scaffold2145	97.10	69	2	0	210	278	8062	7856	1e-32	139
HVIT007711-PA	Scaffold2145	98.11	53	1	0	416	468	18705	18547	3e-23	109
HVIT007711-PA	Scaffold2122	33.16	190	119	4	277	465	21144	21692	6e-25	114
HVIT007711-PA	Scaffold2122	33.93	56	36	1	232	287	21843	22007	0.094	41.2
HVIT007711-PA	Scaffold21625	58.14	43	18	0	287	329	2396	2524	2e-08	62.4
HVIT007711-PA	Scaffold3502	51.22	41	20	0	305	345	41069	41191	7e-05	51.2
HVIT007711-PA	Scaffold3502	47.62	42	21	1	146	187	40895	41017	0.15	40.8
HVIT007711-PA	Scaffold980	91.67	24	2	0	366	389	604549	604478	0.001	47.4
HVIT007711-PA	Scaffold30505	34.62	52	34	0	62	113	12965	13120	0.19	40.4
HVIT007711-PA	Scaffold30505	38.10	42	26	0	74	115	12965	13090	0.51	38.9
HVIT007711-PA	Scaffold58627	45.00	40	22	0	171	210	650	531	3.8	35.4
HVIT007711-PA	Scaffold292	56.00	25	11	0	186	210	1223189	1223115	6.4	35.4
HVIT027068-PA	Scaffold2122	100.00	353	0	0	1	353	20964	22022	0.0	732
HVIT027068-PA	Scaffold157	45.95	148	78	2	114	260	2713244	2713684	2e-28	124
HVIT027068-PA	Scaffold157	47.37	76	39	1	114	189	2787325	2787549	3e-12	73.9
HVIT027068-PA	Scaffold157	43.10	58	33	0	186	243	2789242	2789415	2e-08	61.6
HVIT027068-PA	Scaffold157	34.15	82	53	1	114	195	2805914	2806156	1e-05	52.8
HVIT027068-PA	Scaffold157	36.73	49	31	0	195	243	2819665	2819811	6e-04	47.8
HVIT027068-PA	Scaffold157	34.92	63	39	2	289	350	2730511	2730696	0.001	47.0
HVIT027068-PA	Scaffold157	36.54	52	30	2	28	78	2782617	2782766	0.064	41.2
HVIT027068-PA	Scaffold3502	34.71	170	74	6	1	162	40802	41224	2e-17	89.4
HVIT027068-PA	Scaffold2145	38.78	49	30	0	195	243	18702	18556	6e-04	47.8
HVIT027068-PA	Scaffold811	35.37	82	42	3	220	291	478389	478631	1.0	37.4
HVIT027068-PA	Scaffold3987	31.03	87	54	3	90	170	11544	11284	6.0	35.0
HVIT029982-PA	Scaffold3502	100.00	613	0	0	20	632	32013	33851	0.0	1003
HVIT029982-PA	Scaffold3502	99.69	326	1	0	1583	1908	42240	43217	2e-174	602
HVIT029982-PA	Scaffold3502	92.68	369	25	1	900	1268	34789	35889	5e-167	579
HVIT029982-PA	Scaffold3502	100.00	289	0	0	633	921	33914	34780	2e-155	543
HVIT029982-PA	Scaffold3502	97.89	142	3	0	1445	1586	40748	41173	1e-123	282
HVIT029982-PA	Scaffold3502	100.00	132	0	0	1315	1446	40246	40641	1e-123	189
HVIT029982-PA	Scaffold3502	86.67	75	9	1	1244	1318	35898	36119	2e-25	122
HVIT029982-PA	Scaffold811	34.25	362	224	7	1545	1901	489575	488517	1e-46	192
HVIT029982-PA	Scaffold811	29.97	307	184	9	304	607	792028	792864	2e-22	111
HVIT029982-PA	Scaffold811	32.07	184	119	4	20	202	791296	791832	4e-22	110
HVIT029982-PA	Scaffold328	32.93	328	196	8	1593	1904	464766	465725	1e-34	152
HVIT029982-PA	Scaffold2122	38.46	117	66	4	1463	1578	20964	21299	1e-11	76.3
HVIT029982-PA	Scaffold1345	44.32	88	45	2	1744	1827	629923	630186	9e-11	73.6
HVIT029982-PA	Scaffold1345	54.93	71	31	1	1828	1898	633336	633545	3e-06	58.9
HVIT029982-PA	Scaffold1345	62.50	40	15	0	1700	1739	615074	615193	1e-05	56.6
HVIT029982-PA	Scaffold716	51.92	52	25	0	1688	1739	295084	294929	4e-06	58.2
HVIT029982-PA	Scaffold716	51.90	79	34	3	1824	1900	292425	292195	2e-05	56.2
HVIT029982-PA	Scaffold716	36.78	87	49	3	1746	1827	293532	293275	0.004	48.1
HVIT029982-PA	Scaffold157	50.00	52	21	2	1488	1536	2782608	2782757	1.4	40.0
HVIT029982-PA	Scaffold157	54.05	37	16	1	1539	1575	2712840	2712947	1.9	39.7
HVIT029982-PA	Scaffold157	46.51	43	22	1	1495	1536	2798394	2798522	2.8	38.9
HVIT030351-PA	Scaffold2145	100.00	65	0	0	46	110	8062	7868	9e-35	134
HVIT030351-PA	Scaffold2145	100.00	46	0	0	1	46	18684	18547	6e-20	91.7
HVIT030351-PA	Scaffold157	100.00	65	0	0	46	110	2801396	2801590	9e-35	134
HVIT030351-PA	Scaffold157	66.15	65	22	0	46	110	2790246	2790440	3e-22	98.2
HVIT030351-PA	Scaffold157	97.83	46	1	0	1	46	2819683	2819820	4e-20	92.0
HVIT030351-PA	Scaffold157	73.91	46	12	0	1	46	2789287	2789424	9e-14	73.6
HVIT030351-PA	Scaffold157	41.54	65	38	0	46	110	2730457	2730651	1e-08	58.2
HVIT030351-PA	Scaffold157	57.78	45	19	0	2	46	2713508	2713642	1e-07	55.1
HVIT030351-PA	Scaffold2122	27.20	125	65	1	4	102	21573	21947	2e-07	54.3
HVIT031154-PA	Scaffold2122	36.03	358	188	9	178	502	20964	22013	2e-56	212
HVIT031154-PA	Scaffold157	67.38	141	44	2	284	423	2713223	2713642	5e-51	196
HVIT031154-PA	Scaffold157	60.00	85	32	2	286	369	2787310	2787561	5e-23	109
HVIT031154-PA	Scaffold157	53.33	90	42	0	420	509	2730448	2730717	3e-21	103
HVIT031154-PA	Scaffold157	67.86	56	18	0	368	423	2789257	2789424	2e-15	85.5
HVIT031154-PA	Scaffold157	40.23	87	50	2	284	369	2805893	2806150	7e-11	71.2
HVIT031154-PA	Scaffold157	54.55	55	25	0	369	423	2819656	2819820	4e-10	68.6
HVIT031154-PA	Scaffold157	40.96	83	45	1	410	488	2790195	2790443	1e-08	63.5
HVIT031154-PA	Scaffold157	40.00	70	42	0	423	492	2801396	2801605	5e-06	55.5
HVIT031154-PA	Scaffold157	55.81	43	18	1	205	246	2711926	2712054	4e-04	49.3
HVIT031154-PA	Scaffold157	47.83	46	23	1	202	246	2782620	2782757	0.010	44.7
HVIT031154-PA	Scaffold157	45.45	44	23	1	204	246	2798391	2798522	0.033	43.1
HVIT031154-PA	Scaffold157	47.37	38	20	0	246	283	2712834	2712947	0.45	39.3
HVIT031154-PA	Scaffold157	51.35	37	17	1	181	216	2711742	2711852	2.7	36.6
HVIT031154-PA	Scaffold3502	37.93	174	74	4	172	338	40784	41224	1e-24	114
HVIT031154-PA	Scaffold2145	58.49	53	22	0	371	423	18705	18547	6e-10	68.2
HVIT031154-PA	Scaffold2145	40.58	69	41	0	423	491	8062	7856	6e-06	55.1
