 	Full Command:                      hmmsearch --cpu 4 --pfamtblout Pglyrp1/Pglyrp1.hmm.faa.pfam.tbl Pglyrp1/Pglyrp1.Uniprot.hmm HVIT.genome/Hvit.faa 
	Memory (kb):                       64784 
	# SWAP  (freq):                    0 
	# Waits (freq):                    215 
	CPU (percent):                     222% 
	Time (seconds):                    0.10 
	Time (hh:mm:ss.ms):                0:00.10 
	System CPU Time (seconds):         0.01 
	User   CPU Time (seconds):         0.21 
