 	Full Command:                      hmmsearch --cpu 4 --pfamtblout dsxF-L-2/dsxF-L-2.hmm.faa.pfam.tbl dsxF-L-2/dsxF-L-2.Uniprot.hmm HVIT.genome/Hvit.faa 
	Memory (kb):                       66944 
	# SWAP  (freq):                    0 
	# Waits (freq):                    187 
	CPU (percent):                     271% 
	Time (seconds):                    0.18 
	Time (hh:mm:ss.ms):                0:00.18 
	System CPU Time (seconds):         0.03 
	User   CPU Time (seconds):         0.47 
