 	Full Command:                      hmmsearch --cpu 4 --pfamtblout dl/dl.hmm.faa.pfam.tbl dl/dl.Uniprot.hmm HVIT.genome/Hvit.faa 
	Memory (kb):                       268544 
	# SWAP  (freq):                    0 
	# Waits (freq):                    203 
	CPU (percent):                     351% 
	Time (seconds):                    1.26 
	Time (hh:mm:ss.ms):                0:01.26 
	System CPU Time (seconds):         0.08 
	User   CPU Time (seconds):         4.35 
