 	Full Command:                      hmmsearch --cpu 4 --pfamtblout Tra-2/Tra-2.hmm.faa.pfam.tbl Tra-2/Tra-2.Uniprot.hmm HVIT.genome/Hvit.faa 
	Memory (kb):                       291248 
	# SWAP  (freq):                    0 
	# Waits (freq):                    185 
	CPU (percent):                     335% 
	Time (seconds):                    2.02 
	Time (hh:mm:ss.ms):                0:02.02 
	System CPU Time (seconds):         0.12 
	User   CPU Time (seconds):         6.66 
