HVIT014818-PA	Scaffold316	100.00	79	0	0	63	141	659514	659278	2e-41	160
HVIT014818-PA	Scaffold316	100.00	61	0	0	223	283	654798	654616	7e-32	132
HVIT014818-PA	Scaffold316	97.62	84	2	0	142	225	656231	655980	3e-16	85.1
HVIT014818-PA	Scaffold316	98.41	63	1	0	1	63	662390	662202	2e-14	79.0
HVIT014818-PA	Scaffold4	48.65	37	19	0	224	260	1616821	1616931	0.15	39.7
