HVIT002031-PA	Scaffold18	100.00	69	0	0	3	71	3491766	3491560	2e-36	144
HVIT002031-PA	Scaffold18	80.26	76	15	0	153	228	3484946	3484719	2e-30	126
HVIT002031-PA	Scaffold18	100.00	49	0	0	108	156	3486138	3485992	2e-22	103
HVIT002031-PA	Scaffold18	92.86	42	3	0	67	108	3487796	3487671	1e-16	85.9
HVIT002031-PA	Scaffold45	27.27	77	46	1	145	211	2081499	2081269	0.098	39.3
HVIT002031-PA	Scaffold49	37.78	45	28	0	156	200	609813	609679	2.9	34.7
HVIT002031-PA	Scaffold49	50.00	32	16	0	185	216	609834	609739	7.0	33.5
HVIT009352-PA	Scaffold115	89.93	149	11	2	391	539	2074712	2074278	5e-60	224
HVIT009352-PA	Scaffold115	98.89	90	1	0	325	414	2075986	2075717	3e-47	185
HVIT009352-PA	Scaffold115	100.00	84	0	0	174	257	2086212	2085961	3e-43	173
HVIT009352-PA	Scaffold115	97.62	84	2	0	1	84	2094719	2094468	9e-36	150
HVIT009352-PA	Scaffold115	96.30	54	2	0	271	324	2076679	2076518	3e-24	114
HVIT009352-PA	Scaffold115	100.00	38	0	0	135	172	2088749	2088636	7e-14	80.9
HVIT009352-PA	Scaffold115	40.00	50	30	0	208	257	2094624	2094475	0.021	43.9
HVIT009352-PA	Scaffold115	100.00	18	0	0	113	130	2092200	2092147	0.17	40.8
HVIT009352-PA	Scaffold115	81.82	22	4	0	255	276	2076875	2076810	1.2	38.1
HVIT009352-PA	Scaffold703	45.71	35	19	0	273	307	260479	260375	0.66	38.9
HVIT013433-PA	Scaffold290	78.46	65	13	1	13	76	1301172	1300978	4e-23	100
HVIT013433-PA	Scaffold290	90.00	50	5	0	13	62	1365822	1365971	4e-21	95.1
HVIT013433-PA	Scaffold290	91.84	49	4	0	60	108	1291952	1291806	3e-20	92.4
HVIT013433-PA	Scaffold290	81.63	49	9	0	14	62	1399531	1399385	6e-18	85.9
HVIT013433-PA	Scaffold290	75.00	44	11	0	62	105	1373692	1373823	5e-12	68.6
HVIT013433-PA	Scaffold290	72.73	44	12	0	62	105	1391135	1391004	2e-11	66.6
HVIT013433-PA	Scaffold359	53.85	52	24	0	11	62	830296	830141	3e-11	66.2
HVIT013433-PA	Scaffold359	47.76	67	28	1	46	105	820927	820727	4e-08	56.6
HVIT013433-PA	Scaffold359	34.88	43	28	0	24	66	820864	820736	1.8	33.1
HVIT013433-PA	Scaffold691	61.36	44	17	0	62	105	874996	875127	6e-08	56.2
HVIT013433-PA	Scaffold691	54.90	51	22	1	12	62	867574	867723	3e-06	50.8
HVIT013433-PA	Scaffold7881	44.12	68	37	1	39	105	2640	2437	2e-06	51.2
HVIT013433-PA	Scaffold1392	52.17	46	22	0	60	105	21118	20981	7e-06	50.1
HVIT013433-PA	Scaffold204	41.07	56	33	0	7	62	599566	599399	2e-05	48.5
HVIT013433-PA	Scaffold204	45.00	40	22	0	59	98	599518	599399	0.023	38.5
HVIT013433-PA	Scaffold204	27.12	59	43	0	47	105	597766	597590	0.098	36.6
HVIT013433-PA	Scaffold204	28.30	53	38	0	15	67	597754	597596	0.52	34.7
HVIT013433-PA	Scaffold727	36.76	68	41	1	45	112	459133	459330	4e-04	44.3
HVIT013433-PA	Scaffold293	43.75	48	27	0	14	61	954552	954409	7e-04	43.5
HVIT013433-PA	Scaffold18	30.65	62	43	0	51	112	3484943	3484758	0.002	42.4
HVIT013433-PA	Scaffold299	50.00	30	15	0	83	112	925622	925533	0.025	38.5
HVIT013433-PA	Scaffold299	46.43	28	15	0	84	111	1012075	1011992	0.51	34.7
HVIT013433-PA	Scaffold299	46.43	28	15	0	84	111	999630	999547	0.51	34.7
HVIT013433-PA	Scaffold303	32.73	55	35	1	57	109	2886191	2886027	0.27	35.4
HVIT013433-PA	Scaffold578	31.25	48	33	0	15	62	611988	611845	0.49	34.7
HVIT013433-PA	Scaffold578	32.00	50	34	0	49	98	611994	611845	3.0	32.3
HVIT013433-PA	Scaffold405	27.59	58	41	1	52	108	871277	871104	1.3	33.5
HVIT013433-PA	Scaffold827	66.67	18	6	0	91	108	556009	556062	5.4	28.5
HVIT013433-PA	Scaffold827	76.92	13	3	0	66	78	555939	555977	5.4	21.2
HVIT013818-PA	Scaffold362	100.00	105	0	0	125	229	412718	413032	4e-62	223
HVIT013818-PA	Scaffold362	100.00	66	0	0	59	124	410746	410943	8e-32	134
HVIT013818-PA	Scaffold362	100.00	58	0	0	229	286	416308	416481	5e-21	100
HVIT013818-PA	Scaffold362	96.15	52	2	0	282	333	418532	418687	1e-20	99.8
HVIT013818-PA	Scaffold362	100.00	42	0	0	14	55	381347	381472	1e-17	90.1
HVIT013818-PA	Scaffold362	38.18	55	34	0	172	226	371450	371614	1e-07	58.9
HVIT013818-PA	Scaffold362	38.46	52	32	0	175	226	323306	323151	4e-06	54.3
HVIT013818-PA	Scaffold362	53.45	58	26	1	229	285	372587	372760	5e-05	50.8
HVIT013818-PA	Scaffold362	53.45	58	26	1	229	285	320647	320474	8e-05	50.4
HVIT013818-PA	Scaffold362	48.98	49	25	0	282	330	318174	318028	8e-05	50.4
HVIT013818-PA	Scaffold362	36.36	44	28	0	125	168	368284	368415	0.017	43.1
HVIT013818-PA	Scaffold362	37.78	45	28	0	284	328	374266	374400	0.055	41.2
HVIT013818-PA	Scaffold362	40.00	45	27	0	84	128	365745	365879	0.081	40.8
HVIT013818-PA	Scaffold362	41.03	39	23	0	130	168	324101	323985	0.12	40.0
HVIT013818-PA	Scaffold362	32.20	59	40	0	27	85	410351	410527	2.1	36.2
HVIT013818-PA	Scaffold676	54.10	61	28	0	172	232	582238	582056	1e-14	80.5
HVIT013818-PA	Scaffold676	40.98	61	35	1	130	189	583070	582888	3e-07	58.2
HVIT013818-PA	Scaffold676	41.38	58	34	0	229	286	579909	579736	0.005	44.7
HVIT013818-PA	Scaffold676	36.96	46	29	0	285	330	576877	576740	0.92	37.4
HVIT013818-PA	Scaffold4906	28.41	176	122	3	136	310	75305	75823	9e-10	65.9
HVIT013818-PA	Scaffold811	26.53	196	131	7	136	324	433824	433255	2e-05	52.4
HVIT014417-PA	Scaffold578	99.26	135	1	0	5	139	617753	617349	8e-83	286
HVIT014417-PA	Scaffold578	94.31	123	7	0	140	262	614487	614119	4e-46	179
HVIT014417-PA	Scaffold578	88.14	59	1	1	255	307	611994	611818	2e-21	102
HVIT014417-PA	Scaffold578	100.00	38	0	0	304	341	608872	608759	9e-14	79.3
HVIT014417-PA	Scaffold578	100.00	30	0	0	341	370	607293	607204	3e-09	65.1
HVIT014417-PA	Scaffold578	45.10	51	28	0	332	382	611997	611845	4e-04	48.9
HVIT014417-PA	Scaffold578	77.78	27	4	1	371	395	606494	606414	0.050	42.0
HVIT014417-PA	Scaffold204	54.55	77	33	1	248	322	599569	599339	5e-14	80.1
HVIT014417-PA	Scaffold204	47.06	85	40	2	304	388	597832	597593	3e-13	77.8
HVIT014417-PA	Scaffold204	53.57	56	26	0	256	311	597757	597590	2e-08	62.8
HVIT014417-PA	Scaffold204	38.98	59	36	0	324	382	599575	599399	8e-05	50.8
HVIT014417-PA	Scaffold299	59.18	49	20	0	340	388	1002743	1002597	3e-09	65.1
HVIT014417-PA	Scaffold299	57.14	49	21	0	340	388	944344	944198	1e-07	60.1
HVIT014417-PA	Scaffold299	64.10	39	14	0	248	286	1017716	1017600	1e-05	53.9
HVIT014417-PA	Scaffold299	77.42	31	7	0	256	286	929693	929601	2e-05	52.8
HVIT014417-PA	Scaffold299	44.00	50	28	0	262	311	1002743	1002594	3e-04	48.9
HVIT014417-PA	Scaffold299	42.11	57	33	0	262	318	944344	944174	4e-04	48.9
HVIT014417-PA	Scaffold299	44.44	54	25	2	287	340	1012084	1011938	0.69	38.1
HVIT014417-PA	Scaffold299	44.44	54	25	2	287	340	999639	999493	0.69	38.1
HVIT014417-PA	Scaffold299	41.18	51	23	2	290	340	925619	925488	2.3	36.6
HVIT014417-PA	Scaffold405	28.47	144	96	2	249	391	871304	870891	4e-08	61.6
HVIT014417-PA	Scaffold405	35.48	62	40	0	258	319	871058	870873	0.061	41.6
HVIT014417-PA	Scaffold746	23.91	138	103	2	259	395	651939	652349	1e-06	57.0
HVIT014417-PA	Scaffold225	35.96	89	45	2	306	394	1327479	1327249	5e-04	48.5
HVIT014417-PA	Scaffold290	37.25	51	32	0	335	385	1365828	1365980	0.018	43.5
HVIT014417-PA	Scaffold290	33.87	62	40	1	335	395	1399528	1399343	0.039	42.4
HVIT014417-PA	Scaffold290	39.58	48	29	0	335	382	1301166	1301023	0.063	41.6
HVIT014417-PA	Scaffold290	41.46	41	24	0	348	388	1291940	1291818	0.44	38.9
HVIT014417-PA	Scaffold290	40.48	42	25	0	347	388	1373695	1373820	0.64	38.5
HVIT014417-PA	Scaffold290	39.02	41	25	0	348	388	1391129	1391007	2.4	36.6
HVIT014417-PA	Scaffold290	31.25	48	33	0	257	304	1365828	1365971	4.5	35.8
HVIT014417-PA	Scaffold290	31.25	48	33	0	257	304	1301166	1301023	5.4	35.4
HVIT014417-PA	Scaffold290	31.25	48	33	0	257	304	1399528	1399385	9.1	34.7
HVIT014417-PA	Scaffold359	36.73	49	31	0	335	383	830284	830138	0.025	43.1
HVIT014417-PA	Scaffold359	35.85	53	34	0	257	309	830284	830126	0.068	41.6
HVIT014417-PA	Scaffold359	38.10	42	26	0	347	388	820855	820730	0.16	40.4
HVIT014417-PA	Scaffold36	30.56	72	50	0	247	318	2360587	2360372	0.025	43.1
HVIT014417-PA	Scaffold312	36.36	66	37	1	306	371	218769	218951	0.050	42.0
HVIT014417-PA	Scaffold312	45.45	44	24	0	251	294	218823	218954	4.1	35.8
HVIT014417-PA	Scaffold1392	40.43	47	28	0	342	388	21124	20984	0.062	41.6
HVIT014417-PA	Scaffold1392	38.46	52	31	1	335	385	50671	50516	1.5	37.4
HVIT014417-PA	Scaffold1345	38.78	49	30	0	251	299	176699	176553	0.084	41.2
HVIT014417-PA	Scaffold691	41.67	48	27	1	335	382	867583	867723	0.28	39.7
HVIT014417-PA	Scaffold691	39.02	41	25	0	348	388	875002	875124	0.31	39.3
HVIT014417-PA	Scaffold7881	41.46	41	24	0	348	388	2562	2440	0.94	37.7
HVIT014417-PA	Scaffold145	38.24	68	36	2	15	77	3833819	3834019	2.0	37.0
HVIT014417-PA	Scaffold10445	43.18	44	22	1	338	378	3344	3213	4.1	35.8
HVIT014417-PA	Scaffold37	43.24	37	21	0	249	285	198866	198756	5.3	35.4
HVIT014417-PA	Scaffold274	44.12	34	18	1	52	85	905694	905792	5.6	27.7
HVIT014417-PA	Scaffold274	71.43	14	4	0	36	49	905638	905679	5.6	25.4
HVIT014417-PA	Scaffold32	64.00	25	9	0	55	79	4071694	4071768	8.0	34.7
HVIT017806-PA	Scaffold676	96.92	65	2	0	42	106	582247	582053	2e-33	134
HVIT017806-PA	Scaffold676	96.55	58	2	0	102	159	579909	579736	1e-28	121
HVIT017806-PA	Scaffold676	94.83	58	3	0	154	211	576889	576716	7e-26	112
HVIT017806-PA	Scaffold676	71.43	63	17	1	1	62	583076	582888	6e-21	98.2
HVIT017806-PA	Scaffold362	54.00	100	46	0	4	103	412736	413035	2e-32	132
HVIT017806-PA	Scaffold362	48.39	62	32	0	42	103	371441	371626	1e-12	72.8
HVIT017806-PA	Scaffold362	46.77	62	33	0	42	103	323324	323139	1e-10	66.6
HVIT017806-PA	Scaffold362	43.33	60	33	1	102	160	372587	372766	2e-10	65.9
HVIT017806-PA	Scaffold362	39.66	58	35	0	102	159	416308	416481	4e-09	61.6
HVIT017806-PA	Scaffold362	44.83	58	31	1	102	158	320647	320474	5e-09	61.2
HVIT017806-PA	Scaffold362	53.49	43	20	0	2	44	368296	368424	3e-06	52.8
HVIT017806-PA	Scaffold362	50.00	44	20	1	6	47	324092	323961	1e-05	51.2
HVIT017806-PA	Scaffold362	29.81	104	48	4	103	206	374167	374403	0.005	43.1
HVIT017806-PA	Scaffold362	36.96	46	29	0	158	203	418541	418678	0.50	37.0
HVIT017806-PA	Scaffold4906	34.52	168	99	4	12	171	75293	75787	2e-15	81.3
HVIT017806-PA	Scaffold5357	27.41	135	82	5	15	140	31524	31907	5e-07	55.1
HVIT017806-PA	Scaffold811	27.91	172	110	6	1	168	433836	433351	9e-07	54.3
HVIT017806-PA	Scaffold115	50.00	32	16	0	103	134	2076679	2076584	0.53	37.0
HVIT023196-PA	Scaffold703	100.00	48	0	0	39	86	260518	260375	8e-41	107
HVIT023196-PA	Scaffold703	100.00	39	0	0	1	39	260745	260629	8e-41	82.4
HVIT023196-PA	Scaffold703	100.00	70	0	0	87	156	259315	259106	1e-27	117
HVIT023196-PA	Scaffold703	100.00	28	0	0	157	184	255793	255710	1e-07	56.6
HVIT023196-PA	Scaffold115	39.13	46	28	0	52	97	2076673	2076536	0.001	44.3
HVIT029378-PA	Scaffold3008	97.92	48	1	0	1	48	51883	52026	2e-23	99.8
HVIT029378-PA	Scaffold3008	46.94	49	25	1	1	48	105490	105636	0.010	38.9
HVIT029378-PA	Scaffold29441	66.67	48	16	0	1	48	1246	1389	4e-13	68.9
HVIT029378-PA	Scaffold351	66.67	48	16	0	1	48	902445	902302	4e-13	69.7
HVIT029378-PA	Scaffold38	66.67	48	16	0	1	48	1466841	1466984	6e-13	68.9
HVIT029378-PA	Scaffold38	53.49	43	20	0	6	48	1417337	1417465	2e-06	50.4
HVIT029378-PA	Scaffold38	41.86	43	25	0	6	48	3510247	3510119	0.093	35.8
HVIT029378-PA	Scaffold38	66.67	24	8	0	1	24	663845	663916	4.0	30.8
HVIT029378-PA	Scaffold424	66.67	48	16	0	1	48	1098085	1098228	1e-12	68.2
HVIT029378-PA	Scaffold424	62.50	48	18	0	1	48	1050165	1050308	7e-12	66.2
HVIT029378-PA	Scaffold424	33.33	48	32	0	1	48	943628	943771	3.0	31.2
HVIT029378-PA	Scaffold885	62.50	48	18	0	1	48	120623	120766	2e-12	67.8
HVIT029378-PA	Scaffold7482	64.58	48	17	0	1	48	35550	35407	3e-12	67.4
HVIT029378-PA	Scaffold546	63.83	47	17	0	1	47	5386	5246	3e-12	67.4
HVIT029378-PA	Scaffold6	64.58	48	17	0	1	48	5102128	5102271	7e-12	66.2
HVIT029378-PA	Scaffold6	68.42	19	6	0	6	24	6938195	6938251	0.002	30.8
HVIT029378-PA	Scaffold6	54.55	22	10	0	27	48	6938254	6938319	0.002	30.8
HVIT029378-PA	Scaffold6	41.46	41	24	0	7	47	5337834	5337712	0.038	37.0
HVIT029378-PA	Scaffold6	45.24	42	23	0	6	47	1999502	1999377	0.080	35.8
HVIT029378-PA	Scaffold377	62.50	48	18	0	1	48	942882	943025	9e-12	65.9
HVIT029378-PA	Scaffold377	57.14	28	12	0	20	47	1009143	1009060	3e-04	37.7
HVIT029378-PA	Scaffold377	76.47	17	4	0	1	17	1009201	1009151	3e-04	27.7
HVIT029378-PA	Scaffold1287	63.04	46	17	0	1	46	321208	321071	2e-11	64.7
HVIT029378-PA	Scaffold157	63.83	47	17	0	1	47	1407462	1407602	5e-11	63.5
HVIT029378-PA	Scaffold157	44.19	43	24	0	6	48	1687899	1687771	0.011	38.5
HVIT029378-PA	Scaffold120	60.42	48	19	0	1	48	117893	117750	6e-11	63.2
HVIT029378-PA	Scaffold4	93.94	33	2	0	1	33	7357750	7357652	7e-11	63.2
HVIT029378-PA	Scaffold4	41.46	41	24	0	8	48	1450958	1451080	0.48	33.5
HVIT029378-PA	Scaffold3619	96.77	31	1	0	2	32	44912	44820	1e-10	62.8
HVIT029378-PA	Scaffold55448	62.79	43	16	0	6	48	315	443	2e-10	60.1
HVIT029378-PA	Scaffold190	60.42	48	19	0	1	48	506339	506482	4e-10	60.8
HVIT029378-PA	Scaffold777	60.42	48	19	0	1	48	323026	322883	1e-09	59.3
HVIT029378-PA	Scaffold777	44.44	45	22	1	6	47	320330	320196	0.78	32.7
HVIT029378-PA	Scaffold2681	58.33	48	20	0	1	48	91603	91746	1e-09	59.3
HVIT029378-PA	Scaffold2681	54.17	48	22	0	1	48	139750	139893	2e-07	53.1
HVIT029378-PA	Scaffold4621	58.33	48	20	0	1	48	26749	26892	3e-09	58.5
HVIT029378-PA	Scaffold4621	44.68	47	26	0	2	48	26902	27042	0.001	41.6
HVIT029378-PA	Scaffold735	58.33	48	20	0	1	48	199311	199168	4e-09	58.2
HVIT029378-PA	Scaffold182	58.33	48	20	0	1	48	947732	947875	4e-09	58.2
HVIT029378-PA	Scaffold691	55.32	47	21	0	2	48	1095676	1095816	7e-09	57.4
HVIT029378-PA	Scaffold691	38.30	47	29	0	1	47	1058203	1058343	1.1	32.3
HVIT029378-PA	Scaffold64	56.25	48	21	0	1	48	5187680	5187537	1e-08	57.0
HVIT029378-PA	Scaffold64	61.76	34	13	0	1	34	4839816	4839715	0.002	41.2
HVIT029378-PA	Scaffold64	45.24	42	23	0	6	47	260171	260296	0.028	37.4
HVIT029378-PA	Scaffold64	45.71	35	19	0	12	46	2829811	2829707	0.21	34.7
HVIT029378-PA	Scaffold13	55.81	43	19	0	6	48	4897142	4897014	2e-08	55.8
HVIT029378-PA	Scaffold1180	55.32	47	21	0	1	47	71283	71423	4e-08	55.1
HVIT029378-PA	Scaffold146	57.45	47	20	0	1	47	689741	689601	5e-08	54.7
HVIT029378-PA	Scaffold2084	51.02	49	23	1	1	48	140870	141016	9e-08	53.9
HVIT029378-PA	Scaffold1982	46.88	64	33	1	1	63	80691	80500	9e-08	53.9
HVIT029378-PA	Scaffold2503	59.52	42	17	0	6	47	112361	112236	1e-07	53.9
HVIT029378-PA	Scaffold2503	36.17	47	30	0	1	47	92232	92092	0.30	34.3
HVIT029378-PA	Scaffold4615	58.33	48	20	0	1	48	17326	17183	1e-07	53.5
HVIT029378-PA	Scaffold10613	55.32	47	21	0	1	47	7036	7176	1e-07	53.5
HVIT029378-PA	Scaffold896	57.45	47	20	0	1	47	50991	50851	1e-07	53.5
HVIT029378-PA	Scaffold896	32.61	46	31	0	1	46	193087	193224	2.9	31.2
HVIT029378-PA	Scaffold428	56.10	41	18	0	8	48	606034	606156	1e-07	53.5
HVIT029378-PA	Scaffold428	39.53	43	26	0	6	48	1644316	1644444	2.1	31.6
HVIT029378-PA	Scaffold1717	53.85	39	11	1	20	51	309131	309247	2e-07	40.0
HVIT029378-PA	Scaffold1717	94.12	17	1	0	1	17	309075	309125	2e-07	36.2
HVIT029378-PA	Scaffold16826	48.94	47	24	0	1	47	6406	6266	2e-07	52.8
HVIT029378-PA	Scaffold1009	51.02	49	23	1	1	48	429432	429286	5e-07	51.6
HVIT029378-PA	Scaffold1009	70.97	31	9	0	1	31	423121	423029	2e-04	44.3
HVIT029378-PA	Scaffold1009	42.55	47	27	0	1	47	408546	408406	0.008	39.3
HVIT029378-PA	Scaffold8	54.17	48	22	0	1	48	971123	970980	1e-06	50.8
HVIT029378-PA	Scaffold3371	46.94	49	25	1	1	48	22096	22242	7e-06	48.1
HVIT029378-PA	Scaffold3371	36.17	47	30	0	1	47	2790	2930	0.36	33.9
HVIT029378-PA	Scaffold44	50.00	48	24	0	1	48	5175618	5175475	8e-06	48.1
HVIT029378-PA	Scaffold44	50.00	48	23	1	1	47	532578	532435	2e-04	44.3
HVIT029378-PA	Scaffold44	39.58	48	29	0	1	48	142098	141955	0.011	38.9
HVIT029378-PA	Scaffold44	38.10	42	26	0	6	47	4130303	4130428	3.5	30.8
HVIT029378-PA	Scaffold4252	51.16	43	21	0	6	48	52013	51885	1e-05	47.4
HVIT029378-PA	Scaffold92	60.71	28	11	0	1	28	2633391	2633308	2e-05	37.0
HVIT029378-PA	Scaffold92	59.09	22	9	0	28	49	2633309	2633244	2e-05	32.3
HVIT029378-PA	Scaffold92	47.62	42	22	0	6	47	975110	975235	0.005	39.7
HVIT029378-PA	Scaffold1334	50.00	42	21	0	6	47	287471	287596	3e-05	46.6
HVIT029378-PA	Scaffold53352	46.81	47	25	0	1	47	320	180	5e-05	45.4
HVIT029378-PA	Scaffold522	57.50	40	17	0	1	40	480107	479988	6e-05	45.4
HVIT029378-PA	Scaffold590	43.75	48	26	1	1	47	594207	594350	9e-05	45.1
HVIT029378-PA	Scaffold590	42.55	47	27	0	1	47	750999	750859	0.18	35.0
HVIT029378-PA	Scaffold404	52.08	48	22	1	1	47	1096308	1096165	9e-05	45.1
HVIT029378-PA	Scaffold219	50.00	42	21	0	6	47	2152243	2152368	1e-04	44.7
HVIT029378-PA	Scaffold2745	48.94	47	24	0	1	47	8070	7930	1e-04	44.7
HVIT029378-PA	Scaffold2197	50.00	42	21	0	6	47	86764	86889	1e-04	44.7
HVIT029378-PA	Scaffold213	46.81	47	25	0	1	47	2207628	2207768	2e-04	44.3
HVIT029378-PA	Scaffold213	50.00	48	23	1	1	47	401408	401551	0.002	41.2
HVIT029378-PA	Scaffold213	36.73	49	31	0	4	52	522001	522147	0.39	33.9
HVIT029378-PA	Scaffold12	44.68	47	26	0	1	47	2707093	2707233	2e-04	44.3
HVIT029378-PA	Scaffold172	47.62	42	22	0	6	47	1494608	1494483	2e-04	43.9
HVIT029378-PA	Scaffold1900	44.68	47	26	0	1	47	241660	241520	2e-04	43.9
HVIT029378-PA	Scaffold25	47.62	42	22	0	6	47	1174070	1174195	2e-04	43.9
HVIT029378-PA	Scaffold14935	42.55	47	27	0	1	47	7353	7213	3e-04	43.1
HVIT029378-PA	Scaffold1019	53.33	45	20	1	4	47	364108	363974	3e-04	43.1
HVIT029378-PA	Scaffold3974	44.68	47	26	0	1	47	10902	10762	4e-04	43.1
HVIT029378-PA	Scaffold169	44.68	47	26	0	1	47	1917327	1917467	4e-04	43.1
HVIT029378-PA	Scaffold5817	46.81	47	25	0	1	47	8834	8694	4e-04	43.1
HVIT029378-PA	Scaffold5817	32.65	49	28	1	13	56	13352	13206	9.6	29.3
HVIT029378-PA	Scaffold352	44.68	47	26	0	1	47	604155	604295	4e-04	43.1
HVIT029378-PA	Scaffold582	44.68	47	26	0	1	47	563487	563627	4e-04	43.1
HVIT029378-PA	Scaffold9309	42.55	47	27	0	1	47	610	750	5e-04	42.7
HVIT029378-PA	Scaffold55314	42.55	47	27	0	1	47	3481	3341	5e-04	42.7
HVIT029378-PA	Scaffold47	46.00	50	27	0	1	50	961332	961183	5e-04	42.7
HVIT029378-PA	Scaffold1113	41.67	48	28	0	1	48	320248	320105	6e-04	42.7
HVIT029378-PA	Scaffold1113	44.68	47	26	0	1	47	202430	202290	0.003	40.4
HVIT029378-PA	Scaffold234	47.62	42	22	0	6	47	580094	579969	6e-04	42.7
HVIT029378-PA	Scaffold710	44.68	47	26	0	1	47	531006	531146	6e-04	42.4
HVIT029378-PA	Scaffold710	38.30	47	29	0	1	47	465337	465197	0.002	41.2
HVIT029378-PA	Scaffold713	44.68	47	26	0	1	47	245613	245753	7e-04	42.4
HVIT029378-PA	Scaffold20	47.92	48	24	1	1	47	3762150	3762293	7e-04	42.4
HVIT029378-PA	Scaffold20	40.43	47	28	0	1	47	399011	399151	0.55	33.5
HVIT029378-PA	Scaffold787	44.68	47	26	0	1	47	162268	162408	7e-04	42.4
HVIT029378-PA	Scaffold5428	47.62	42	22	0	6	47	19524	19399	8e-04	42.0
HVIT029378-PA	Scaffold23	44.68	47	26	0	1	47	3151536	3151676	9e-04	42.0
HVIT029378-PA	Scaffold1883	40.43	47	28	0	1	47	110119	110259	0.001	42.0
HVIT029378-PA	Scaffold456	45.24	42	23	0	6	47	1002793	1002918	0.001	42.0
HVIT029378-PA	Scaffold184	47.92	48	25	0	1	48	183661	183804	0.001	42.0
HVIT029378-PA	Scaffold2655	50.00	42	21	0	6	47	93218	93093	0.001	42.0
HVIT029378-PA	Scaffold1487	42.55	47	27	0	1	47	136169	136029	0.001	42.0
HVIT029378-PA	Scaffold43	52.38	42	19	1	6	47	2010163	2010041	0.001	42.0
HVIT029378-PA	Scaffold43	50.00	40	20	0	6	45	892147	892266	0.001	41.6
HVIT029378-PA	Scaffold43	42.55	47	27	0	1	47	3932865	3933005	0.003	40.4
HVIT029378-PA	Scaffold447	44.68	47	26	0	1	47	331708	331568	0.001	41.6
HVIT029378-PA	Scaffold3759	40.43	47	28	0	1	47	12013	11873	0.001	41.6
HVIT029378-PA	Scaffold596	40.43	47	28	0	1	47	417896	417756	0.001	41.6
HVIT029378-PA	Scaffold115	57.14	35	15	0	1	35	199934	200038	0.001	39.7
HVIT029378-PA	Scaffold115	46.67	15	8	0	34	48	200032	200076	0.001	23.1
HVIT029378-PA	Scaffold828	44.68	47	26	0	1	47	290565	290425	0.001	41.6
HVIT029378-PA	Scaffold882	52.38	42	20	0	6	47	211393	211268	0.001	41.6
HVIT029378-PA	Scaffold214	53.66	41	17	1	1	41	3092664	3092780	0.001	41.6
HVIT029378-PA	Scaffold214	37.70	61	38	0	1	61	1124903	1124721	0.003	40.4
HVIT029378-PA	Scaffold214	42.55	47	27	0	1	47	2251686	2251826	0.020	37.7
HVIT029378-PA	Scaffold3599	50.00	42	21	0	6	47	108659	108784	0.001	41.6
HVIT029378-PA	Scaffold41	45.24	42	23	0	6	47	3863010	3863135	0.001	41.2
HVIT029378-PA	Scaffold1774	66.67	30	10	0	1	30	225367	225456	0.002	41.2
HVIT029378-PA	Scaffold1899	54.05	37	17	0	1	37	256259	256149	0.002	41.2
HVIT029378-PA	Scaffold5128	44.68	47	26	0	1	47	26115	26255	0.002	41.2
HVIT029378-PA	Scaffold95	55.26	38	16	1	1	38	1157086	1157196	0.002	41.2
HVIT029378-PA	Scaffold2111	42.55	47	27	0	1	47	224449	224309	0.002	41.2
HVIT029378-PA	Scaffold2111	45.24	42	20	2	6	47	168658	168542	0.13	35.4
HVIT029378-PA	Scaffold789	40.43	47	28	0	1	47	563283	563423	0.002	40.8
HVIT029378-PA	Scaffold27	45.83	48	25	1	1	47	3772901	3772758	0.002	40.8
HVIT029378-PA	Scaffold22111	40.43	47	28	0	1	47	6798	6658	0.002	40.8
HVIT029378-PA	Scaffold579	36.07	61	39	0	1	61	362344	362526	0.002	40.8
HVIT029378-PA	Scaffold579	40.43	47	28	0	1	47	603265	603405	0.15	35.0
HVIT029378-PA	Scaffold2	42.86	42	24	0	6	47	6318798	6318923	0.003	40.4
HVIT029378-PA	Scaffold183	44.44	45	25	0	6	50	2517777	2517911	0.003	40.4
HVIT029378-PA	Scaffold2489	40.43	47	28	0	1	47	64658	64798	0.003	40.4
HVIT029378-PA	Scaffold38071	39.58	48	29	0	1	48	320	177	0.003	40.0
HVIT029378-PA	Scaffold3429	44.44	45	25	0	4	48	67788	67922	0.003	40.0
HVIT029378-PA	Scaffold3429	40.00	45	27	0	4	48	27901	28035	0.14	35.4
HVIT029378-PA	Scaffold3429	37.78	45	28	0	6	50	79117	79251	4.3	30.4
HVIT029378-PA	Scaffold727	44.19	43	24	0	6	48	1458491	1458619	0.004	40.0
HVIT029378-PA	Scaffold474	45.83	48	26	0	1	48	1055690	1055833	0.004	40.0
HVIT029378-PA	Scaffold36	42.22	45	26	0	6	50	4156150	4156016	0.004	40.0
HVIT029378-PA	Scaffold93	41.46	41	24	0	8	48	3312262	3312384	0.004	40.0
HVIT029378-PA	Scaffold93	42.55	47	27	0	1	47	1959915	1959775	0.022	37.7
HVIT029378-PA	Scaffold93	41.86	43	24	1	6	47	3261603	3261475	5.4	30.0
HVIT029378-PA	Scaffold272	37.50	48	30	0	1	48	99812	99669	0.004	40.0
HVIT029378-PA	Scaffold272	40.48	42	25	0	1	42	90810	90685	2.9	31.2
HVIT029378-PA	Scaffold1913	38.30	47	29	0	1	47	328193	328053	0.004	40.0
HVIT029378-PA	Scaffold994	40.43	47	28	0	1	47	464307	464167	0.004	40.0
HVIT029378-PA	Scaffold1213	38.30	47	29	0	1	47	145950	145810	0.005	39.7
HVIT029378-PA	Scaffold4225	42.55	47	27	0	1	47	7738	7878	0.005	39.7
HVIT029378-PA	Scaffold1312	44.68	47	26	0	1	47	290380	290240	0.005	39.7
HVIT029378-PA	Scaffold74	42.00	50	29	0	1	50	1879615	1879764	0.005	39.7
HVIT029378-PA	Scaffold74	39.47	38	23	0	11	48	8258	8371	0.84	32.7
HVIT029378-PA	Scaffold13432	50.00	42	21	0	6	47	7086	7211	0.006	39.7
HVIT029378-PA	Scaffold2043	46.94	49	25	1	1	48	181682	181536	0.006	39.7
HVIT029378-PA	Scaffold11791	42.55	47	27	0	1	47	6566	6426	0.006	39.3
HVIT029378-PA	Scaffold2303	42.55	47	27	0	1	47	101941	101801	0.006	39.7
HVIT029378-PA	Scaffold3153	39.58	48	29	0	1	48	69817	69674	0.006	39.3
HVIT029378-PA	Scaffold1622	42.86	49	27	1	1	48	258261	258407	0.007	39.3
HVIT029378-PA	Scaffold680	41.86	43	25	0	6	48	403358	403486	0.007	39.3
HVIT029378-PA	Scaffold3501	40.00	60	34	1	1	60	52249	52422	0.007	39.3
HVIT029378-PA	Scaffold1505	42.86	42	24	0	6	47	45613	45738	0.007	39.3
HVIT029378-PA	Scaffold1505	38.30	47	29	0	1	47	50820	50960	0.047	36.6
HVIT029378-PA	Scaffold1505	35.42	48	31	0	1	48	89630	89773	0.24	34.7
HVIT029378-PA	Scaffold2135	45.24	42	23	0	9	50	33831	33706	0.007	39.3
HVIT029378-PA	Scaffold101	39.58	48	29	0	1	48	2173976	2173833	0.007	39.3
HVIT029378-PA	Scaffold923	44.00	50	28	0	1	50	240409	240260	0.007	39.3
HVIT029378-PA	Scaffold923	38.30	47	29	0	1	47	415845	415985	0.49	33.5
HVIT029378-PA	Scaffold68	42.55	47	27	0	1	47	757573	757433	0.008	39.3
HVIT029378-PA	Scaffold68	38.10	42	26	0	6	47	168324	168199	0.72	33.1
HVIT029378-PA	Scaffold3139	44.90	49	26	1	1	48	100911	100765	0.008	38.9
HVIT029378-PA	Scaffold2016	41.46	41	24	0	8	48	218978	218856	0.008	38.9
HVIT029378-PA	Scaffold3091	44.68	47	26	0	1	47	35709	35849	0.009	38.9
HVIT029378-PA	Scaffold3091	40.43	47	28	0	1	47	47465	47605	0.46	33.5
HVIT029378-PA	Scaffold864	47.62	42	22	0	6	47	193245	193370	0.009	38.9
HVIT029378-PA	Scaffold10084	37.50	48	30	0	1	48	11590	11447	0.010	38.9
HVIT029378-PA	Scaffold494	37.50	48	30	0	1	48	426204	426061	0.010	38.9
HVIT029378-PA	Scaffold17955	41.86	43	25	0	6	48	136	8	0.011	38.5
HVIT029378-PA	Scaffold265	36.00	50	32	0	1	50	515289	515438	0.012	38.5
HVIT029378-PA	Scaffold265	38.10	42	26	0	6	47	70800	70675	0.033	37.4
HVIT029378-PA	Scaffold618	40.48	42	25	0	6	47	679747	679622	0.012	38.5
HVIT029378-PA	Scaffold2173	41.86	43	25	0	6	48	222604	222476	0.014	38.5
HVIT029378-PA	Scaffold82	42.55	47	27	0	1	47	3639978	3639838	0.014	38.5
HVIT029378-PA	Scaffold3276	37.50	48	30	0	1	48	78149	78006	0.016	38.1
HVIT029378-PA	Scaffold380	42.86	49	27	1	1	48	116933	116787	0.016	38.1
HVIT029378-PA	Scaffold380	40.48	42	25	0	6	47	1950435	1950310	0.34	33.9
HVIT029378-PA	Scaffold4408	40.43	47	28	0	1	47	44930	44790	0.016	38.1
HVIT029378-PA	Scaffold4075	46.51	43	23	0	6	48	69865	69737	0.017	38.1
HVIT029378-PA	Scaffold111	42.55	47	27	0	1	47	2627806	2627666	0.017	38.1
HVIT029378-PA	Scaffold269	46.51	43	23	0	6	48	400732	400860	0.018	38.1
HVIT029378-PA	Scaffold269	35.71	42	27	0	6	47	1244185	1244060	4.2	30.4
HVIT029378-PA	Scaffold471	46.94	49	25	1	1	48	221970	222116	0.018	38.1
HVIT029378-PA	Scaffold18	38.10	63	33	1	2	58	4859929	4860117	0.019	38.1
HVIT029378-PA	Scaffold28	45.24	42	23	0	6	47	6634521	6634396	0.020	37.7
HVIT029378-PA	Scaffold235	54.55	22	10	0	27	48	630821	630886	0.021	31.6
HVIT029378-PA	Scaffold235	76.47	17	4	0	1	17	630744	630794	0.021	26.9
HVIT029378-PA	Scaffold35719	42.55	47	27	0	1	47	661	521	0.022	37.7
HVIT029378-PA	Scaffold798	44.90	49	23	2	1	47	148522	148382	0.022	37.7
HVIT029378-PA	Scaffold56	47.50	40	21	0	6	45	1777919	1778038	0.022	37.7
HVIT029378-PA	Scaffold173	45.00	40	22	0	8	47	746771	746890	0.023	37.7
HVIT029378-PA	Scaffold173	33.33	39	26	0	9	47	1321101	1320985	3.2	30.8
HVIT029378-PA	Scaffold12149	40.48	42	25	0	6	47	6026	5901	0.023	37.7
HVIT029378-PA	Scaffold1412	35.42	48	31	0	1	48	86336	86479	0.024	37.7
HVIT029378-PA	Scaffold1412	33.33	48	32	0	1	48	86999	87142	0.11	35.4
HVIT029378-PA	Scaffold143	47.62	42	22	0	6	47	458612	458487	0.025	37.7
HVIT029378-PA	Scaffold2483	44.68	47	26	0	1	47	76379	76519	0.025	37.7
HVIT029378-PA	Scaffold127	41.86	43	25	0	6	48	647556	647428	0.026	37.7
HVIT029378-PA	Scaffold127	39.58	48	29	0	1	48	415770	415627	0.10	35.8
HVIT029378-PA	Scaffold481	40.43	47	28	0	1	47	513961	514101	0.027	37.4
HVIT029378-PA	Scaffold33	38.30	47	29	0	1	47	4526095	4525955	0.028	37.4
HVIT029378-PA	Scaffold42161	45.24	42	23	0	6	47	566	441	0.028	37.0
HVIT029378-PA	Scaffold1307	43.90	41	23	0	7	47	110892	111014	0.028	37.4
HVIT029378-PA	Scaffold2701	45.24	42	23	0	6	47	54846	54721	0.031	37.4
HVIT029378-PA	Scaffold16039	59.38	32	13	0	1	32	958	863	0.031	37.0
HVIT029378-PA	Scaffold2394	51.35	37	15	1	11	47	74750	74649	0.031	37.4
HVIT029378-PA	Scaffold58187	45.24	42	23	0	6	47	715	840	0.032	37.0
HVIT029378-PA	Scaffold3173	37.50	48	30	0	1	48	17277	17134	0.032	37.4
HVIT029378-PA	Scaffold12340	43.90	41	23	0	7	47	313	191	0.035	37.0
HVIT029378-PA	Scaffold980	46.51	43	23	0	6	48	36667	36539	0.035	37.0
HVIT029378-PA	Scaffold980	46.00	50	24	1	1	47	622616	622467	0.097	35.8
HVIT029378-PA	Scaffold1620	40.43	47	28	0	1	47	78170	78310	0.038	37.0
HVIT029378-PA	Scaffold1021	53.12	32	15	0	16	47	204231	204136	0.039	37.0
HVIT029378-PA	Scaffold1066	47.62	42	22	0	6	47	383613	383488	0.042	37.0
HVIT029378-PA	Scaffold229	50.00	48	20	2	1	47	1626337	1626203	0.042	37.0
HVIT029378-PA	Scaffold7853	35.71	42	27	0	6	47	42096	42221	0.044	37.0
HVIT029378-PA	Scaffold1	42.55	47	27	0	1	47	1721640	1721780	0.044	37.0
HVIT029378-PA	Scaffold1	80.00	15	3	0	34	48	5850834	5850790	8.9	29.6
HVIT029378-PA	Scaffold339	47.06	34	16	1	17	48	535101	535202	0.045	31.6
HVIT029378-PA	Scaffold339	76.47	17	4	0	1	17	535067	535117	0.045	25.8
HVIT029378-PA	Scaffold339	38.64	44	26	1	4	47	786405	786277	1.1	32.3
HVIT029378-PA	Scaffold1969	42.50	40	23	0	8	47	2709	2828	0.045	37.0
HVIT029378-PA	Scaffold124	40.43	47	28	0	1	47	155413	155273	0.051	36.6
HVIT029378-PA	Scaffold567	55.17	29	13	0	4	32	568994	568908	0.052	33.5
HVIT029378-PA	Scaffold567	62.50	16	6	0	32	47	568911	568864	0.052	23.5
HVIT029378-PA	Scaffold4065	45.24	42	23	0	6	47	12501	12376	0.053	36.6
HVIT029378-PA	Scaffold161	37.50	48	30	0	1	48	295840	295983	0.054	36.6
HVIT029378-PA	Scaffold3311	40.48	42	25	0	6	47	98730	98855	0.055	36.6
HVIT029378-PA	Scaffold3963	40.43	47	28	0	1	47	47675	47815	0.060	36.2
HVIT029378-PA	Scaffold3926	42.22	45	26	0	4	48	137973	138107	0.062	36.2
HVIT029378-PA	Scaffold388	36.17	47	30	0	1	47	473959	473819	0.064	36.2
HVIT029378-PA	Scaffold3895	42.55	47	27	0	1	47	30963	30823	0.065	36.2
HVIT029378-PA	Scaffold1263	42.50	40	23	0	8	47	256713	256594	0.065	36.2
HVIT029378-PA	Scaffold465	40.48	42	25	0	6	47	99903	99778	0.068	36.2
HVIT029378-PA	Scaffold465	37.50	48	30	0	1	48	943918	943775	0.19	34.7
HVIT029378-PA	Scaffold824	40.43	47	28	0	1	47	342543	342403	0.070	36.2
HVIT029378-PA	Scaffold2587	43.75	48	26	1	1	47	66198	66341	0.070	36.2
HVIT029378-PA	Scaffold669	38.30	47	29	0	1	47	355346	355486	0.077	36.2
HVIT029378-PA	Scaffold273	35.42	48	31	0	1	48	108130	108273	0.079	36.2
HVIT029378-PA	Scaffold2512	35.56	45	29	0	6	50	87905	87771	0.084	35.8
HVIT029378-PA	Scaffold17583	36.17	47	30	0	1	47	9704	9564	0.087	35.8
HVIT029378-PA	Scaffold790	43.59	39	22	0	9	47	425102	424986	0.089	35.8
HVIT029378-PA	Scaffold492	40.43	47	28	0	1	47	1134844	1134984	0.090	35.8
HVIT029378-PA	Scaffold492	40.48	42	25	0	6	47	163903	164028	0.64	33.1
HVIT029378-PA	Scaffold5253	50.00	26	13	0	23	48	22756	22679	0.094	35.8
HVIT029378-PA	Scaffold3302	46.67	45	21	1	6	47	1413	1547	0.095	35.8
HVIT029378-PA	Scaffold538	36.36	44	28	0	4	47	302240	302109	0.098	35.8
HVIT029378-PA	Scaffold6268	42.86	42	24	0	6	47	16312	16437	0.098	35.8
HVIT029378-PA	Scaffold30606	42.86	42	24	0	6	47	558	433	0.099	35.4
HVIT029378-PA	Scaffold376	42.86	49	27	1	1	48	639363	639509	0.10	35.8
HVIT029378-PA	Scaffold745	41.67	48	27	1	1	47	531713	531856	0.10	35.8
HVIT029378-PA	Scaffold745	41.67	48	27	1	1	47	552882	553025	0.10	35.8
HVIT029378-PA	Scaffold752	40.48	42	25	0	6	47	241447	241572	0.10	35.8
HVIT029378-PA	Scaffold18836	43.90	41	23	0	5	45	397	275	0.10	35.8
HVIT029378-PA	Scaffold36825	41.67	48	26	1	1	48	1051	1188	0.10	35.4
HVIT029378-PA	Scaffold59	38.78	49	28	1	1	47	3494299	3494153	0.11	35.8
HVIT029378-PA	Scaffold1560	36.17	47	30	0	1	47	453726	453586	0.12	35.4
HVIT029378-PA	Scaffold285	37.50	48	30	0	1	48	2461520	2461663	0.14	35.4
HVIT029378-PA	Scaffold362	38.30	47	29	0	1	47	1414800	1414660	0.14	35.4
HVIT029378-PA	Scaffold32340	35.42	48	31	0	1	48	829	972	0.14	35.0
HVIT029378-PA	Scaffold5229	36.17	47	30	0	1	47	10519	10659	0.14	35.0
HVIT029378-PA	Scaffold144	38.30	47	29	0	1	47	1658099	1658239	0.15	35.0
HVIT029378-PA	Scaffold144	38.46	39	24	0	13	51	195158	195042	1.1	32.3
HVIT029378-PA	Scaffold271	45.00	40	22	0	9	48	548733	548614	0.15	35.0
HVIT029378-PA	Scaffold145	38.10	42	26	0	6	47	58896	58771	0.15	35.0
HVIT029378-PA	Scaffold364	40.00	40	24	0	9	48	1117856	1117737	0.16	35.0
HVIT029378-PA	Scaffold1932	38.30	47	29	0	1	47	72514	72374	0.16	35.0
HVIT029378-PA	Scaffold435	43.75	48	27	0	1	48	758438	758581	0.16	35.0
HVIT029378-PA	Scaffold704	36.59	41	26	0	8	48	242209	242331	0.17	35.0
HVIT029378-PA	Scaffold436	38.30	47	29	0	1	47	8621	8481	0.18	35.0
HVIT029378-PA	Scaffold2730	31.91	47	32	0	1	47	26275	26135	0.18	35.0
HVIT029378-PA	Scaffold2730	34.04	47	31	0	1	47	78803	78663	2.2	31.6
HVIT029378-PA	Scaffold99	41.86	43	25	0	6	48	261618	261490	0.18	35.0
HVIT029378-PA	Scaffold238	36.17	47	30	0	1	47	536309	536169	0.18	35.0
HVIT029378-PA	Scaffold137	42.50	40	23	0	8	47	1963365	1963484	0.19	34.7
HVIT029378-PA	Scaffold2141	37.50	40	25	0	9	48	203521	203640	0.19	34.7
HVIT029378-PA	Scaffold1687	42.86	42	24	0	6	47	168310	168435	0.19	34.7
HVIT029378-PA	Scaffold1687	36.17	47	30	0	1	47	112034	112174	0.26	34.3
HVIT029378-PA	Scaffold290	42.11	38	22	0	13	50	211997	211884	0.19	34.7
HVIT029378-PA	Scaffold290	46.51	43	22	1	6	47	793490	793618	1.5	32.0
HVIT029378-PA	Scaffold4990	46.15	39	21	0	9	47	27019	26903	0.19	34.7
HVIT029378-PA	Scaffold3266	35.71	42	27	0	6	47	38064	38189	0.20	34.7
HVIT029378-PA	Scaffold3266	35.71	42	27	0	6	47	11018	11143	0.32	34.3
HVIT029378-PA	Scaffold13864	38.30	47	29	0	1	47	8070	7930	0.20	34.7
HVIT029378-PA	Scaffold405	36.17	47	30	0	1	47	38967	38827	0.20	34.7
HVIT029378-PA	Scaffold2289	40.48	42	25	0	6	47	2820	2945	0.21	34.7
HVIT029378-PA	Scaffold42	40.48	42	25	0	6	47	4320425	4320300	0.21	34.7
HVIT029378-PA	Scaffold656	35.42	48	31	0	1	48	413229	413372	0.21	34.7
HVIT029378-PA	Scaffold1489	40.00	45	27	0	3	47	164289	164423	0.22	34.7
HVIT029378-PA	Scaffold2363	45.24	42	23	0	6	47	2839	2964	0.22	34.7
HVIT029378-PA	Scaffold9091	39.58	48	29	0	1	48	351	208	0.22	34.7
HVIT029378-PA	Scaffold147	40.43	47	25	1	1	47	1990661	1990792	0.24	34.7
HVIT029378-PA	Scaffold46976	35.42	48	31	0	1	48	955	812	0.24	34.3
HVIT029378-PA	Scaffold725	48.39	31	16	0	12	42	895240	895332	0.25	34.3
HVIT029378-PA	Scaffold1637	48.57	35	18	0	13	47	4899	4795	0.25	34.3
HVIT029378-PA	Scaffold251	40.48	42	25	0	6	47	1141141	1141016	0.27	34.3
HVIT029378-PA	Scaffold3004	34.04	47	31	0	1	47	828	688	0.27	34.3
HVIT029378-PA	Scaffold370	41.67	36	21	0	12	47	971821	971928	0.29	34.3
HVIT029378-PA	Scaffold67	36.17	47	30	0	1	47	27600	27460	0.29	34.3
HVIT029378-PA	Scaffold1005	38.46	39	24	0	9	47	252841	252725	0.29	34.3
HVIT029378-PA	Scaffold189	40.48	42	25	0	6	47	2435967	2436092	0.31	34.3
HVIT029378-PA	Scaffold721	41.03	39	23	0	9	47	4799	4915	0.34	33.9
HVIT029378-PA	Scaffold721	31.25	48	33	0	1	48	285043	284900	9.9	29.3
HVIT029378-PA	Scaffold794	40.48	42	25	0	6	47	331777	331902	0.37	33.9
HVIT029378-PA	Scaffold797	40.00	40	24	0	6	45	167523	167642	0.37	33.9
HVIT029378-PA	Scaffold1406	38.10	42	26	0	6	47	143765	143640	0.37	33.9
HVIT029378-PA	Scaffold1330	66.67	27	9	0	6	32	117658	117578	0.41	33.9
HVIT029378-PA	Scaffold801	40.48	42	25	0	6	47	529907	529782	0.41	33.9
HVIT029378-PA	Scaffold537	35.71	42	27	0	6	47	1825400	1825525	0.42	33.9
HVIT029378-PA	Scaffold537	44.44	36	19	1	12	47	1164598	1164494	8.1	29.6
HVIT029378-PA	Scaffold1087	42.86	42	21	1	6	47	136798	136914	0.43	33.9
HVIT029378-PA	Scaffold768	43.90	41	23	0	1	41	396036	395914	0.44	33.5
HVIT029378-PA	Scaffold36580	41.86	43	25	0	6	48	9161	9289	0.46	33.5
HVIT029378-PA	Scaffold432	40.48	42	25	0	6	47	204057	203932	0.46	33.5
HVIT029378-PA	Scaffold432	38.10	42	24	1	6	47	1076160	1076041	2.4	31.2
HVIT029378-PA	Scaffold1655	40.48	42	25	0	6	47	96579	96704	0.47	33.5
HVIT029378-PA	Scaffold1502	38.46	39	24	0	9	47	88628	88744	0.48	33.5
HVIT029378-PA	Scaffold859	34.04	47	31	0	1	47	29025	28885	0.48	33.5
HVIT029378-PA	Scaffold761	40.43	47	28	0	1	47	1064604	1064464	0.49	33.5
HVIT029378-PA	Scaffold2129	40.00	45	27	0	1	45	114816	114682	0.51	33.5
HVIT029378-PA	Scaffold39	44.90	49	26	1	1	48	1315559	1315413	0.51	33.5
HVIT029378-PA	Scaffold60840	41.86	43	25	0	6	48	400	528	0.53	33.1
HVIT029378-PA	Scaffold20974	36.36	44	28	0	4	47	1389	1520	0.53	33.5
HVIT029378-PA	Scaffold1100	38.30	47	29	0	1	47	182942	183082	0.55	33.5
HVIT029378-PA	Scaffold303	38.30	47	29	0	1	47	131050	130910	0.56	33.5
HVIT029378-PA	Scaffold54104	36.17	47	30	0	1	47	891	751	0.58	33.1
HVIT029378-PA	Scaffold1132	36.17	47	30	0	1	47	141122	140982	0.59	33.1
HVIT029378-PA	Scaffold441	33.33	45	30	0	5	49	293493	293627	0.62	33.1
HVIT029378-PA	Scaffold6473	42.86	42	24	0	6	47	2968	3093	0.64	33.1
HVIT029378-PA	Scaffold178	42.86	42	24	0	6	47	14335	14210	0.65	33.1
HVIT029378-PA	Scaffold178	52.38	21	10	0	25	45	25180	25118	7.4	27.7
HVIT029378-PA	Scaffold178	71.43	14	4	0	8	21	25230	25189	7.4	21.6
HVIT029378-PA	Scaffold60	38.10	42	26	0	7	48	3905325	3905200	0.66	33.1
HVIT029378-PA	Scaffold60	40.43	47	27	1	1	47	1684267	1684130	3.4	30.8
HVIT029378-PA	Scaffold1111	36.17	47	30	0	1	47	306953	307093	0.67	33.1
HVIT029378-PA	Scaffold35424	38.30	47	29	0	1	47	290	150	0.68	32.7
HVIT029378-PA	Scaffold16	45.45	33	18	0	16	48	3614693	3614791	0.74	33.1
HVIT029378-PA	Scaffold5808	50.00	28	14	0	20	47	15371	15454	0.76	32.7
HVIT029378-PA	Scaffold160	33.33	48	32	0	1	48	2159831	2159974	0.80	32.7
HVIT029378-PA	Scaffold16113	39.47	38	23	0	11	48	9408	9295	0.82	32.7
HVIT029378-PA	Scaffold112	36.17	47	30	0	1	47	589001	589141	0.86	32.7
HVIT029378-PA	Scaffold1587	36.17	47	30	0	1	47	9756	9616	0.88	32.7
HVIT029378-PA	Scaffold6574	46.51	43	22	1	6	47	5103	5231	0.88	32.7
HVIT029378-PA	Scaffold46	40.00	45	27	0	1	45	2793880	2794014	0.93	32.7
HVIT029378-PA	Scaffold1615	34.78	46	30	0	5	50	133949	133812	0.96	32.7
HVIT029378-PA	Scaffold313	38.10	42	26	0	6	47	173513	173388	1.0	32.3
HVIT029378-PA	Scaffold922	38.10	42	26	0	6	47	159568	159693	1.0	32.3
HVIT029378-PA	Scaffold716	35.71	42	27	0	6	47	555319	555194	1.1	32.3
HVIT029378-PA	Scaffold4267	36.17	47	30	0	1	47	28948	29088	1.1	32.3
HVIT029378-PA	Scaffold5248	51.61	31	14	1	17	47	13805	13894	1.1	32.3
HVIT029378-PA	Scaffold2202	37.50	40	25	0	9	48	54371	54252	1.1	32.3
HVIT029378-PA	Scaffold10859	53.85	26	12	0	22	47	507	430	1.2	32.3
HVIT029378-PA	Scaffold3063	37.21	43	27	0	6	48	24798	24926	1.3	32.3
HVIT029378-PA	Scaffold963	36.36	44	28	0	4	47	82280	82149	1.3	32.3
HVIT029378-PA	Scaffold142	37.21	43	27	0	6	48	468159	468031	1.3	32.3
HVIT029378-PA	Scaffold4991	35.00	40	26	0	9	48	14783	14902	1.3	32.3
HVIT029378-PA	Scaffold3	32.79	61	35	2	5	62	4595801	4595628	1.3	32.0
HVIT029378-PA	Scaffold3	40.48	42	25	0	6	47	6595330	6595205	2.9	31.2
HVIT029378-PA	Scaffold3	31.91	47	32	0	1	47	8070640	8070780	6.7	30.0
HVIT029378-PA	Scaffold3	31.25	48	33	0	1	48	4705286	4705143	8.1	29.6
HVIT029378-PA	Scaffold3192	29.17	48	34	0	1	48	15507	15650	1.4	32.0
HVIT029378-PA	Scaffold194	40.82	49	28	1	1	48	1249523	1249669	1.5	32.0
HVIT029378-PA	Scaffold194	35.90	39	25	0	9	47	807139	807255	1.9	31.6
HVIT029378-PA	Scaffold256	27.14	70	35	1	6	59	812210	812419	1.5	32.0
HVIT029378-PA	Scaffold170	35.56	45	29	0	1	45	608690	608824	1.6	32.0
HVIT029378-PA	Scaffold334	40.48	42	25	0	6	47	1160038	1159913	1.6	32.0
HVIT029378-PA	Scaffold255	43.18	44	24	1	5	47	1283343	1283212	1.6	32.0
HVIT029378-PA	Scaffold915	40.43	47	28	0	1	47	121840	121980	1.7	32.0
HVIT029378-PA	Scaffold4288	37.50	48	30	0	1	48	12927	12784	1.7	31.6
HVIT029378-PA	Scaffold3122	36.17	47	30	0	1	47	43110	43250	1.8	31.6
HVIT029378-PA	Scaffold606	34.04	47	31	0	1	47	141178	141318	2.0	31.6
HVIT029378-PA	Scaffold80	40.00	40	24	0	8	47	2177021	2176902	2.0	31.6
HVIT029378-PA	Scaffold14840	42.86	35	20	0	13	47	3296	3192	2.1	31.6
HVIT029378-PA	Scaffold329	35.90	39	25	0	9	47	304629	304745	2.2	31.6
HVIT029378-PA	Scaffold33737	54.55	22	10	0	27	48	30	95	2.2	31.6
HVIT029378-PA	Scaffold4652	45.45	33	18	0	6	38	42431	42529	2.2	31.6
HVIT029378-PA	Scaffold4733	34.04	47	31	0	1	47	25669	25809	2.4	31.2
HVIT029378-PA	Scaffold1646	34.04	47	31	0	1	47	6931	6791	2.4	31.2
HVIT029378-PA	Scaffold2642	36.36	33	21	0	1	33	121220	121318	2.7	31.2
HVIT029378-PA	Scaffold2642	50.00	14	7	0	37	50	121318	121359	2.7	20.0
HVIT029378-PA	Scaffold193	38.00	50	26	1	1	50	1531923	1531789	2.7	31.2
HVIT029378-PA	Scaffold723	43.24	37	20	1	12	47	225412	225302	2.8	31.2
HVIT029378-PA	Scaffold5844	33.33	39	26	0	9	47	15783	15667	2.8	31.2
HVIT029378-PA	Scaffold52	43.75	32	18	0	16	47	250334	250239	2.8	31.2
HVIT029378-PA	Scaffold734	34.88	43	28	0	8	50	209753	209881	2.9	31.2
HVIT029378-PA	Scaffold49	38.30	47	29	0	1	47	3694880	3694740	2.9	31.2
HVIT029378-PA	Scaffold1801	35.85	53	34	0	9	61	49089	49247	3.0	31.2
HVIT029378-PA	Scaffold71	38.30	47	29	0	1	47	2166144	2166284	3.0	31.2
HVIT029378-PA	Scaffold1874	38.89	36	22	0	12	47	27129	27236	3.2	30.8
HVIT029378-PA	Scaffold1426	39.13	46	27	1	4	48	106611	106748	3.3	30.8
HVIT029378-PA	Scaffold205	44.44	36	20	0	12	47	485935	485828	3.5	30.8
HVIT029378-PA	Scaffold932	41.03	39	23	0	9	47	838203	838087	3.6	30.8
HVIT029378-PA	Scaffold78	33.33	48	32	0	1	48	234075	233932	3.6	30.8
HVIT029378-PA	Scaffold84	43.18	44	25	0	6	49	4593545	4593414	3.6	30.8
HVIT029378-PA	Scaffold8825	38.30	47	29	0	1	47	569	709	3.7	30.8
HVIT029378-PA	Scaffold2401	40.48	42	25	0	6	47	28839	28964	3.7	30.8
HVIT029378-PA	Scaffold505	38.30	47	29	0	1	47	214071	213931	3.8	30.8
HVIT029378-PA	Scaffold505	45.45	33	18	0	6	38	588848	588750	6.1	30.0
HVIT029378-PA	Scaffold258	34.09	44	29	0	4	47	1432931	1433062	3.9	30.8
HVIT029378-PA	Scaffold4256	42.22	45	23	1	6	47	26485	26351	4.1	30.4
HVIT029378-PA	Scaffold25005	40.00	50	22	2	12	53	5788	5937	4.2	30.4
HVIT029378-PA	Scaffold1468	36.17	47	30	0	1	47	7076	6936	4.3	30.4
HVIT029378-PA	Scaffold514	31.91	47	32	0	1	47	768287	768147	4.5	30.4
HVIT029378-PA	Scaffold389	66.67	24	8	0	1	24	596964	596893	4.5	30.4
HVIT029378-PA	Scaffold37134	37.50	48	30	0	1	48	128	271	4.6	30.4
HVIT029378-PA	Scaffold57104	34.09	44	29	0	4	47	1131	1262	4.8	30.0
HVIT029378-PA	Scaffold755	35.71	42	27	0	6	47	45960	45835	4.8	30.4
HVIT029378-PA	Scaffold1034	40.48	42	25	0	6	47	149785	149910	5.0	30.4
HVIT029378-PA	Scaffold26299	32.56	43	29	0	8	50	294	422	5.2	30.0
HVIT029378-PA	Scaffold116	29.79	47	33	0	1	47	1550226	1550086	5.5	30.0
HVIT029378-PA	Scaffold517	33.33	39	26	0	9	47	398205	398089	5.6	30.0
HVIT029378-PA	Scaffold842	42.11	38	22	0	8	45	467029	467142	5.6	30.0
HVIT029378-PA	Scaffold2458	38.10	42	26	0	6	47	221619	221744	5.7	30.0
HVIT029378-PA	Scaffold463	46.88	32	17	0	17	48	857876	857971	5.9	30.0
HVIT029378-PA	Scaffold1198	48.48	33	17	0	15	47	15762	15860	6.4	30.0
HVIT029378-PA	Scaffold9	31.91	47	32	0	1	47	5595395	5595255	6.5	30.0
HVIT029378-PA	Scaffold2008	32.50	40	27	0	9	48	51310	51191	6.7	30.0
HVIT029378-PA	Scaffold11636	43.75	32	18	0	6	37	6480	6385	6.7	30.0
HVIT029378-PA	Scaffold1623	32.61	46	31	0	1	46	72627	72490	6.9	30.0
HVIT029378-PA	Scaffold298	39.39	33	20	0	15	47	1270996	1271094	7.0	30.0
HVIT029378-PA	Scaffold283	38.30	47	29	0	1	47	239035	238895	7.0	30.0
HVIT029378-PA	Scaffold209	42.42	33	19	0	16	48	737322	737420	7.1	29.6
HVIT029378-PA	Scaffold2691	37.50	48	30	0	1	48	14785	14642	7.2	29.6
HVIT029378-PA	Scaffold578	45.95	37	20	0	6	42	43409	43519	7.4	29.6
HVIT029378-PA	Scaffold935	36.00	50	32	0	1	50	96635	96486	7.5	29.6
HVIT029378-PA	Scaffold462	53.33	30	12	1	1	28	793165	793254	7.8	29.6
HVIT029378-PA	Scaffold4303	35.42	48	31	0	1	48	19203	19060	7.9	29.6
HVIT029378-PA	Scaffold3728	33.33	42	28	0	6	47	207	82	8.1	29.6
HVIT029378-PA	Scaffold167	33.33	48	32	0	1	48	456471	456328	8.2	29.6
HVIT029378-PA	Scaffold323	43.75	32	18	0	16	47	685001	684906	8.3	29.6
HVIT029378-PA	Scaffold3107	42.42	33	19	0	1	33	43706	43804	8.6	29.6
HVIT029378-PA	Scaffold37256	46.88	32	17	0	6	37	366	271	8.6	29.6
HVIT029378-PA	Scaffold3716	33.33	39	26	0	9	47	32967	33083	9.4	29.3
HVIT029378-PA	Scaffold342	44.12	34	16	1	8	38	839415	839516	9.8	29.3
