 	Full Command:                      hmmsearch --cpu 4 --pfamtblout Not10/Not10.hmm.faa.pfam.tbl Not10/Not10.Uniprot.hmm HVIT.genome/Hvit.faa 
	Memory (kb):                       68192 
	# SWAP  (freq):                    0 
	# Waits (freq):                    193 
	CPU (percent):                     308% 
	Time (seconds):                    0.25 
	Time (hh:mm:ss.ms):                0:00.25 
	System CPU Time (seconds):         0.03 
	User   CPU Time (seconds):         0.74 
