HVIT000476-PA	Scaffold3	51.67	180	86	1	161	340	5160856	5160320	7e-58	211
HVIT000476-PA	Scaffold3	98.98	98	1	0	215	312	5131970	5132263	1e-55	204
HVIT000476-PA	Scaffold3	51.45	173	84	0	164	336	5182756	5183274	1e-52	196
HVIT000476-PA	Scaffold3	93.44	61	4	0	158	218	5130539	5130721	8e-29	125
HVIT000476-PA	Scaffold3	86.67	60	5	1	53	112	5104408	5104578	4e-23	107
HVIT000476-PA	Scaffold3	75.00	48	7	1	302	344	5142858	5143001	5e-12	73.2
HVIT000476-PA	Scaffold3	95.65	23	1	0	99	121	5120203	5120271	3e-05	51.6
HVIT000476-PA	Scaffold3	95.65	23	1	0	99	121	5118455	5118523	1e-04	49.7
HVIT000476-PA	Scaffold368	46.82	173	92	0	164	336	789665	789147	7e-47	179
HVIT000476-PA	Scaffold213	46.30	108	58	0	233	340	940894	941217	4e-24	110
HVIT000476-PA	Scaffold213	40.58	69	39	1	167	235	939635	939835	6e-08	60.5
HVIT000476-PA	Scaffold9492	100.00	41	0	0	53	93	11057	10935	2e-17	89.7
HVIT000476-PA	Scaffold1475	36.61	112	67	1	161	272	43897	44220	3e-14	79.7
HVIT000476-PA	Scaffold1475	37.04	54	34	0	277	330	46103	46264	0.66	38.1
HVIT000476-PA	Scaffold2325	34.58	107	70	0	170	276	74781	74461	2e-13	77.0
HVIT000476-PA	Scaffold2325	40.68	59	33	1	274	330	59515	59339	1e-04	49.7
HVIT000476-PA	Scaffold2325	33.85	65	43	0	271	335	71776	71582	0.011	43.5
HVIT000476-PA	Scaffold2325	32.26	62	40	2	211	272	61010	60831	1.4	37.0
HVIT000476-PA	Scaffold2325	30.36	56	39	0	171	226	64705	64538	5.9	35.0
HVIT000476-PA	Scaffold693	28.00	125	79	4	190	309	1080703	1080347	5e-07	57.4
HVIT000476-PA	Scaffold5213	37.36	91	51	3	215	301	5930	5664	1e-06	56.2
HVIT000476-PA	Scaffold110	36.62	71	43	2	166	235	240051	240260	5e-04	48.1
HVIT000476-PA	Scaffold110	50.00	40	19	1	233	272	241368	241484	0.002	46.2
HVIT000476-PA	Scaffold149	30.19	106	71	2	203	308	823625	823317	0.016	43.1
HVIT000476-PA	Scaffold1859	30.00	80	48	4	171	249	266412	266630	0.49	38.5
HVIT000476-PA	Scaffold15	28.70	108	70	5	203	308	367997	368305	0.49	38.5
HVIT000476-PA	Scaffold39	25.36	138	75	7	181	310	225892	225539	0.56	38.1
HVIT000477-PA	Scaffold3	98.91	184	2	0	249	432	5160865	5160314	8e-106	354
HVIT000477-PA	Scaffold3	100.00	161	0	0	1	161	5179060	5178578	4e-95	323
HVIT000477-PA	Scaffold3	53.53	170	78	1	257	425	5182762	5183271	3e-44	174
HVIT000477-PA	Scaffold3	57.58	99	42	0	304	402	5131967	5132263	1e-26	119
HVIT000477-PA	Scaffold3	100.00	55	0	0	196	250	5162595	5162431	4e-25	114
HVIT000477-PA	Scaffold3	43.33	60	33	1	252	310	5130548	5130727	6e-06	54.7
HVIT000477-PA	Scaffold3	48.28	29	15	0	402	430	5142903	5142989	2.0	37.0
HVIT000477-PA	Scaffold3	100.00	16	0	0	162	177	5177393	5177346	2.1	36.6
HVIT000477-PA	Scaffold368	48.52	169	86	1	258	425	789656	789150	2e-38	156
HVIT000477-PA	Scaffold213	44.55	101	56	0	323	423	940894	941196	5e-17	89.7
HVIT000477-PA	Scaffold2325	33.93	112	73	1	261	371	74781	74446	4e-11	71.2
HVIT000477-PA	Scaffold1475	34.82	112	66	2	255	362	43894	44220	1e-10	69.7
HVIT000477-PA	Scaffold110	34.62	78	48	2	249	325	240033	240260	8e-04	47.8
HVIT000477-PA	Scaffold110	45.24	42	22	1	321	362	241362	241484	0.22	40.0
HVIT000477-PA	Scaffold5213	33.78	74	45	1	305	374	5930	5709	0.002	46.6
HVIT000477-PA	Scaffold693	31.31	99	56	6	267	358	1080745	1080464	0.008	44.7
HVIT000477-PA	Scaffold149	23.00	100	67	3	257	352	823733	823452	6.3	35.4
HVIT000477-PA	Scaffold1859	27.94	68	42	2	281	348	266475	266657	8.6	34.7
HVIT000478-PA	Scaffold3	100.00	168	0	0	1	168	5182774	5183277	7e-102	330
HVIT000478-PA	Scaffold3	53.29	167	77	1	1	167	5160829	5160332	2e-48	176
HVIT000478-PA	Scaffold3	56.57	99	43	0	44	142	5131964	5132260	5e-31	126
HVIT000478-PA	Scaffold3	34.85	66	42	1	1	66	5130575	5130769	0.061	38.9
HVIT000478-PA	Scaffold368	52.38	168	80	0	1	168	789647	789144	2e-50	182
HVIT000478-PA	Scaffold213	40.00	105	63	0	60	164	940882	941196	1e-19	92.8
HVIT000478-PA	Scaffold2325	38.53	109	63	2	1	107	74781	74461	6e-15	79.0
HVIT000478-PA	Scaffold2325	42.55	47	27	0	61	107	60959	60819	0.007	41.6
HVIT000478-PA	Scaffold2325	35.71	56	34	1	108	161	59506	59339	0.28	37.0
HVIT000478-PA	Scaffold1475	34.13	126	82	1	1	125	43912	44289	2e-13	74.3
HVIT000478-PA	Scaffold5213	30.12	83	54	2	42	120	5942	5694	9e-05	47.4
HVIT000478-PA	Scaffold110	48.84	43	21	1	64	106	241368	241493	0.009	41.2
HVIT000478-PA	Scaffold15	34.91	106	55	6	42	139	368021	368320	0.017	40.4
HVIT000478-PA	Scaffold1859	30.11	93	51	4	56	137	266556	266825	0.12	38.1
HVIT000478-PA	Scaffold693	23.47	98	66	2	65	162	1080556	1080290	0.51	36.2
HVIT000478-PA	Scaffold693	60.00	20	8	0	65	84	1073232	1073173	5.5	33.1
HVIT000478-PA	Scaffold816	40.43	47	25	1	64	107	241653	241793	3.6	33.5
HVIT000478-PA	Scaffold149	27.55	98	68	2	42	139	823601	823317	5.2	33.1
HVIT007323-PA	Scaffold110	97.47	79	2	0	1	79	240024	240260	5e-45	167
HVIT007323-PA	Scaffold110	79.21	101	19	1	94	192	243376	243678	3e-43	162
HVIT007323-PA	Scaffold110	95.00	40	2	0	77	116	241368	241487	3e-19	92.8
HVIT007323-PA	Scaffold110	96.43	28	1	0	1	28	239885	239968	2e-08	59.3
HVIT007323-PA	Scaffold110	82.14	28	5	0	1	28	239746	239829	4e-06	51.6
HVIT007323-PA	Scaffold3	35.67	171	106	3	4	171	5160865	5160356	6e-25	109
HVIT007323-PA	Scaffold3	34.38	160	99	4	5	159	5182738	5183214	4e-19	92.0
HVIT007323-PA	Scaffold3	37.38	107	66	1	49	154	5131940	5132260	2e-14	78.2
HVIT007323-PA	Scaffold368	32.18	174	110	4	3	169	789695	789177	4e-22	100
HVIT007323-PA	Scaffold1475	42.86	119	65	3	7	123	43891	44244	2e-20	96.3
HVIT007323-PA	Scaffold1475	40.00	65	38	1	118	181	46094	46288	1e-04	47.8
HVIT007323-PA	Scaffold2325	45.37	108	56	3	14	119	74781	74461	6e-20	94.7
HVIT007323-PA	Scaffold2325	40.35	57	34	0	117	173	71767	71597	3e-06	52.4
HVIT007323-PA	Scaffold2325	32.89	76	44	2	117	190	59515	59303	0.002	44.3
HVIT007323-PA	Scaffold2325	34.94	83	45	3	51	131	61007	60780	0.005	42.7
HVIT007323-PA	Scaffold213	38.78	98	59	1	77	173	940894	941187	5e-13	73.6
HVIT007323-PA	Scaffold5213	31.94	144	68	5	50	164	5957	5529	4e-11	67.4
HVIT007323-PA	Scaffold693	31.01	129	75	6	14	135	1080763	1080398	0.002	43.9
HVIT007323-PA	Scaffold693	28.09	89	51	4	14	93	1073436	1073182	0.88	35.8
HVIT007323-PA	Scaffold611	38.24	34	20	1	47	80	803432	803334	1.0	35.8
HVIT007323-PA	Scaffold132	32.86	70	40	3	71	138	1507922	1507728	3.9	33.9
HVIT007323-PA	Scaffold1	51.85	27	13	0	141	167	10261131	10261211	5.5	33.5
HVIT008922-PA	Scaffold213	100.00	108	0	0	184	291	940894	941217	5e-63	224
HVIT008922-PA	Scaffold213	98.77	81	1	0	34	114	935306	935548	2e-45	173
HVIT008922-PA	Scaffold213	95.83	72	3	0	115	186	939620	939835	4e-37	148
HVIT008922-PA	Scaffold213	70.59	34	10	0	1	34	934605	934706	3e-04	48.1
HVIT008922-PA	Scaffold213	41.18	51	28	1	63	111	506072	505920	0.002	45.4
HVIT008922-PA	Scaffold3	39.02	164	97	2	123	284	5160829	5160341	9e-30	127
HVIT008922-PA	Scaffold3	37.13	167	103	1	120	284	5182765	5183265	6e-28	121
HVIT008922-PA	Scaffold3	45.45	121	60	3	161	279	5131949	5132299	9e-22	102
HVIT008922-PA	Scaffold3	38.46	52	32	0	120	171	5130566	5130721	9e-04	46.6
HVIT008922-PA	Scaffold368	35.80	162	102	1	119	278	789659	789174	4e-25	112
HVIT008922-PA	Scaffold2325	41.28	109	58	3	121	225	74787	74467	3e-15	82.0
HVIT008922-PA	Scaffold2325	36.49	74	40	1	223	289	71773	71552	7e-05	50.1
HVIT008922-PA	Scaffold2325	42.00	50	29	0	174	223	60980	60831	7e-04	47.0
HVIT008922-PA	Scaffold2325	36.07	61	36	2	224	281	59521	59339	0.002	45.4
HVIT008922-PA	Scaffold2325	31.58	57	39	0	119	175	64720	64550	2.4	35.8
HVIT008922-PA	Scaffold170	51.95	77	33	2	39	111	2580621	2580391	4e-13	75.5
HVIT008922-PA	Scaffold1475	40.91	110	57	5	118	223	43903	44220	1e-12	73.6
HVIT008922-PA	Scaffold1475	35.59	59	38	0	223	281	46088	46264	0.013	43.1
HVIT008922-PA	Scaffold83	40.51	79	44	1	39	114	1318305	1318069	4e-11	68.9
HVIT008922-PA	Scaffold83	35.14	74	48	0	39	112	1316477	1316256	2e-06	55.1
HVIT008922-PA	Scaffold83	34.21	76	48	1	39	112	1378982	1378755	5e-06	53.5
HVIT008922-PA	Scaffold83	30.67	75	48	2	34	106	1377216	1376998	0.077	40.4
HVIT008922-PA	Scaffold716	39.19	74	43	1	35	108	268980	269195	3e-08	60.5
HVIT008922-PA	Scaffold716	40.00	70	40	1	39	108	165016	165219	1e-07	58.9
HVIT008922-PA	Scaffold716	40.00	70	40	1	39	108	211823	212026	2e-07	58.2
HVIT008922-PA	Scaffold693	29.66	145	89	5	123	260	1080763	1080347	1e-07	58.5
HVIT008922-PA	Scaffold1859	27.64	123	74	5	144	257	266475	266825	3e-06	54.7
HVIT008922-PA	Scaffold829	34.25	73	44	2	38	108	665075	665287	2e-05	51.6
HVIT008922-PA	Scaffold5213	34.07	91	52	3	168	252	5930	5664	4e-04	47.8
HVIT008922-PA	Scaffold148	40.26	77	39	3	39	111	634521	634300	0.001	46.6
HVIT008922-PA	Scaffold148	29.63	81	54	2	34	112	654304	654543	0.005	44.3
HVIT008922-PA	Scaffold148	35.63	87	51	3	27	111	638307	638056	0.010	43.5
HVIT008922-PA	Scaffold110	45.00	40	21	1	184	223	241368	241484	0.27	38.9
HVIT008922-PA	Scaffold110	30.86	81	54	1	203	281	243379	243621	1.1	37.0
HVIT008922-PA	Scaffold45	29.89	87	59	2	37	122	2815784	2816041	0.37	38.5
HVIT008922-PA	Scaffold45	40.62	32	19	0	80	111	2823800	2823895	7.4	34.3
HVIT008922-PA	Scaffold36	36.11	36	23	0	79	114	2795786	2795893	0.67	37.4
HVIT008922-PA	Scaffold72	27.68	112	59	6	123	218	3427513	3427196	0.88	37.0
HVIT008922-PA	Scaffold39	19.17	120	90	2	144	261	225883	225539	3.0	35.4
HVIT008922-PA	Scaffold149	35.56	45	29	0	156	200	823625	823491	3.4	35.4
HVIT008922-PA	Scaffold15	23.96	96	61	2	171	259	368033	368305	5.7	34.7
HVIT025475-PA	Scaffold1475	100.00	122	0	0	1	122	43882	44247	2e-76	259
HVIT025475-PA	Scaffold1475	93.51	77	5	0	116	192	46073	46303	3e-39	150
HVIT025475-PA	Scaffold2325	66.37	113	38	0	8	120	74790	74452	2e-45	169
HVIT025475-PA	Scaffold2325	56.36	55	24	0	13	67	64702	64538	3e-13	74.3
HVIT025475-PA	Scaffold2325	56.36	55	24	0	126	180	71758	71594	5e-13	73.6
HVIT025475-PA	Scaffold2325	55.77	52	23	0	67	118	60971	60816	2e-10	65.9
HVIT025475-PA	Scaffold2325	45.00	60	31	1	126	183	59506	59327	2e-08	58.9
HVIT025475-PA	Scaffold2325	48.15	27	14	0	94	120	72839	72759	2.7	34.7
HVIT025475-PA	Scaffold2325	48.15	27	14	0	94	120	74305	74225	8.2	32.0
HVIT025475-PA	Scaffold2325	42.11	19	11	0	76	94	74360	74304	8.2	18.9
HVIT025475-PA	Scaffold3	35.50	169	101	1	11	179	5182774	5183256	2e-22	102
HVIT025475-PA	Scaffold3	32.02	178	106	3	5	179	5160847	5160350	1e-21	99.8
HVIT025475-PA	Scaffold3	36.21	116	66	1	56	171	5131970	5132293	2e-13	75.1
HVIT025475-PA	Scaffold368	30.98	184	114	2	4	182	789683	789156	3e-22	101
HVIT025475-PA	Scaffold213	39.62	106	56	1	74	179	940894	941187	1e-15	81.6
HVIT025475-PA	Scaffold5213	30.34	178	98	4	15	173	6032	5520	3e-14	77.4
HVIT025475-PA	Scaffold110	36.49	74	45	2	4	76	240042	240260	2e-06	53.1
HVIT025475-PA	Scaffold110	53.49	43	19	1	74	116	241368	241493	4e-05	48.9
HVIT025475-PA	Scaffold110	39.39	66	39	1	122	187	243451	243645	1e-04	47.8
HVIT025475-PA	Scaffold322	40.62	32	19	0	16	47	393817	393912	8.3	33.1
HVIT025642-PA	Scaffold816	98.72	78	1	0	2	79	240109	240342	1e-42	159
HVIT025642-PA	Scaffold816	93.33	45	3	0	79	123	241656	241790	4e-19	91.3
HVIT025642-PA	Scaffold816	97.67	43	1	0	120	162	242010	242138	3e-18	88.6
HVIT025642-PA	Scaffold368	28.19	149	97	6	19	162	789644	789213	6e-07	53.9
HVIT025642-PA	Scaffold3	33.33	150	74	8	19	155	5182777	5183187	7e-07	53.9
HVIT025642-PA	Scaffold3	28.77	146	87	5	24	161	5160811	5160401	2e-05	48.9
HVIT025642-PA	Scaffold3	45.24	42	22	1	61	101	5131970	5132095	0.52	36.2
HVIT025642-PA	Scaffold2325	33.33	108	62	4	21	123	74772	74464	1e-06	53.1
HVIT025642-PA	Scaffold213	31.94	72	46	1	79	150	940897	941103	0.005	42.0
HVIT025642-PA	Scaffold213	33.93	56	31	2	17	68	939641	939802	2.4	34.3
HVIT025642-PA	Scaffold1475	28.70	108	67	5	21	123	43921	44229	0.19	37.4
HVIT025642-PA	Scaffold1054	33.33	54	34	1	65	116	242985	242824	6.5	32.7
HVIT027964-PA	Scaffold2325	100.00	137	0	0	78	214	57188	56778	4e-70	241
HVIT027964-PA	Scaffold2325	98.18	55	1	0	23	77	59515	59351	5e-27	116
HVIT027964-PA	Scaffold2325	47.27	55	27	1	23	77	71767	71609	2e-07	56.2
HVIT027964-PA	Scaffold2325	43.14	51	29	0	134	184	211275	211123	2e-04	47.4
HVIT027964-PA	Scaffold2325	70.00	20	6	0	165	184	214214	214155	8.5	33.1
HVIT027964-PA	Scaffold2325	37.50	40	25	0	134	173	214306	214187	8.6	33.1
HVIT027964-PA	Scaffold401	97.81	137	3	0	78	214	177658	177248	8e-67	231
HVIT027964-PA	Scaffold401	46.25	80	38	1	111	185	554231	554470	2e-10	65.9
HVIT027964-PA	Scaffold191	96.35	137	5	0	78	214	976561	976151	2e-66	231
HVIT027964-PA	Scaffold1	98.35	121	2	0	78	198	6455695	6456057	2e-57	204
HVIT027964-PA	Scaffold1	94.12	17	1	0	198	214	6456056	6456106	1.3	35.8
HVIT027964-PA	Scaffold685	64.08	142	32	3	78	213	1749189	1748803	6e-33	133
HVIT027964-PA	Scaffold685	76.92	26	6	0	187	212	1748674	1748597	0.014	42.0
HVIT027964-PA	Scaffold592	94.03	67	4	0	119	185	480695	480495	1e-32	132
HVIT027964-PA	Scaffold8	89.04	73	2	1	119	185	1061490	1061708	1e-31	129
HVIT027964-PA	Scaffold8	73.08	26	7	0	187	212	1061901	1061978	0.072	39.7
HVIT027964-PA	Scaffold8	34.88	43	28	0	134	176	3982563	3982435	1.7	35.4
HVIT027964-PA	Scaffold2837	89.04	73	2	1	119	185	54253	54471	1e-31	129
HVIT027964-PA	Scaffold2837	35.33	167	39	6	115	212	54241	54741	2e-14	74.3
HVIT027964-PA	Scaffold2837	92.86	14	1	0	78	91	54149	54190	2e-14	27.3
HVIT027964-PA	Scaffold2352	74.11	112	17	2	80	185	10100	10417	3e-31	129
HVIT027964-PA	Scaffold2352	73.08	26	7	0	187	212	10609	10686	0.018	41.6
HVIT027964-PA	Scaffold85	69.30	114	20	3	78	185	742374	742688	4e-31	128
HVIT027964-PA	Scaffold85	42.17	83	43	1	111	188	1887671	1887423	2e-07	56.6
HVIT027964-PA	Scaffold85	62.96	27	10	0	188	214	742885	742965	0.72	36.6
HVIT027964-PA	Scaffold97	63.11	122	17	3	78	185	1689631	1689308	1e-30	127
HVIT027964-PA	Scaffold97	42.59	54	31	0	131	184	1408285	1408446	5e-08	58.2
HVIT027964-PA	Scaffold270	87.67	73	3	1	119	185	1474567	1474785	2e-30	126
HVIT027964-PA	Scaffold270	86.30	73	4	1	119	185	1498640	1498858	2e-29	123
HVIT027964-PA	Scaffold270	82.22	45	2	1	119	157	1475825	1475959	2e-19	72.0
HVIT027964-PA	Scaffold270	66.67	27	9	0	187	213	1476024	1476104	2e-19	40.4
HVIT027964-PA	Scaffold270	80.00	15	3	0	78	92	1475722	1475766	2e-19	25.4
HVIT027964-PA	Scaffold37	86.11	72	4	1	120	185	6134656	6134441	4e-29	121
HVIT027964-PA	Scaffold37	93.75	16	1	0	78	93	6134759	6134712	4e-29	30.0
HVIT027964-PA	Scaffold37	73.08	26	7	0	187	212	6134248	6134171	0.31	37.7
HVIT027964-PA	Scaffold39	88.89	54	6	0	132	185	3118225	3118386	2e-27	101
HVIT027964-PA	Scaffold39	83.33	18	3	0	115	132	3118164	3118217	2e-27	35.0
HVIT027964-PA	Scaffold39	87.50	16	2	0	78	93	3118070	3118117	2e-27	29.6
HVIT027964-PA	Scaffold39	44.64	56	31	0	129	184	4289854	4289687	2e-07	56.2
HVIT027964-PA	Scaffold39	67.86	28	9	0	187	214	3118580	3118663	0.005	43.1
HVIT027964-PA	Scaffold2	70.45	88	14	2	78	159	8878121	8877876	7e-27	89.0
HVIT027964-PA	Scaffold2	67.44	43	6	1	158	200	8877879	8877775	7e-27	54.7
HVIT027964-PA	Scaffold2	56.86	51	22	0	135	185	378722	378874	3e-08	58.9
HVIT027964-PA	Scaffold2	75.00	28	7	0	187	214	8907217	8907134	2e-04	47.4
HVIT027964-PA	Scaffold2	52.94	51	22	2	164	214	8877454	8877308	0.002	44.3
HVIT027964-PA	Scaffold58504	95.83	48	2	0	136	183	692	549	2e-26	94.7
HVIT027964-PA	Scaffold58504	58.18	55	17	1	78	132	855	709	2e-26	47.4
HVIT027964-PA	Scaffold58504	76.92	26	6	0	187	212	357	280	0.012	42.0
HVIT027964-PA	Scaffold47	61.74	115	27	2	78	185	2679605	2679291	1e-25	112
HVIT027964-PA	Scaffold47	48.15	54	28	0	131	184	2227050	2226889	5e-08	58.2
HVIT027964-PA	Scaffold320	85.29	68	4	1	119	180	665439	665642	2e-25	111
HVIT027964-PA	Scaffold70	88.89	54	6	0	132	185	617604	617765	3e-25	98.2
HVIT027964-PA	Scaffold70	52.73	55	20	2	78	132	617450	617596	3e-25	40.0
HVIT027964-PA	Scaffold70	70.83	24	6	1	187	210	617959	618027	6.0	33.5
HVIT027964-PA	Scaffold547	88.89	54	6	0	132	185	439424	439263	2e-24	100
HVIT027964-PA	Scaffold547	49.09	55	22	2	78	132	439578	439432	2e-24	35.4
HVIT027964-PA	Scaffold547	42.86	63	31	1	131	188	614421	614609	0.002	44.3
HVIT027964-PA	Scaffold547	76.92	26	6	0	187	212	439070	438993	0.003	43.9
HVIT027964-PA	Scaffold376	78.79	33	7	0	132	164	1029274	1029372	7e-20	57.4
HVIT027964-PA	Scaffold376	88.89	18	2	0	168	185	1029371	1029424	7e-20	35.8
HVIT027964-PA	Scaffold376	83.33	18	3	0	115	132	1029213	1029266	7e-20	34.3
HVIT027964-PA	Scaffold376	93.75	16	1	0	78	93	1029119	1029166	7e-20	31.6
HVIT027964-PA	Scaffold376	71.43	28	8	0	187	214	1029611	1029694	9e-04	45.4
HVIT027964-PA	Scaffold220	51.24	121	26	3	78	185	1274222	1273920	6e-19	92.4
HVIT027964-PA	Scaffold220	32.87	216	49	7	73	212	1274237	1273650	1e-11	69.3
HVIT027964-PA	Scaffold24919	73.33	75	14	1	78	152	506	300	3e-15	80.5
HVIT027964-PA	Scaffold30674	59.60	99	21	3	59	151	893	1150	4e-14	76.3
HVIT027964-PA	Scaffold55984	94.87	39	2	0	147	185	1	117	8e-14	75.5
HVIT027964-PA	Scaffold460	93.94	33	2	0	119	151	1533979	1533881	2e-12	68.2
HVIT027964-PA	Scaffold460	81.25	16	3	0	78	93	1534083	1534036	2e-12	26.9
HVIT027964-PA	Scaffold460	44.44	54	30	0	130	183	35188	35027	3e-06	52.8
HVIT027964-PA	Scaffold460	34.62	78	48	1	128	202	980048	980281	0.004	43.5
HVIT027964-PA	Scaffold384	44.00	100	42	3	115	207	5528	5806	4e-12	71.2
HVIT027964-PA	Scaffold384	45.00	80	39	1	111	185	203896	204135	3e-09	62.0
HVIT027964-PA	Scaffold1540	81.82	44	2	1	122	159	60323	60192	5e-12	70.9
HVIT027964-PA	Scaffold2617	47.44	78	34	1	112	189	67318	67530	7e-12	70.5
HVIT027964-PA	Scaffold2617	31.40	86	47	3	134	208	106764	107018	5.0	33.9
HVIT027964-PA	Scaffold2617	37.21	43	27	0	134	176	112578	112706	6.3	33.5
HVIT027964-PA	Scaffold1505	48.57	70	36	0	116	185	28796	28587	8e-12	70.1
HVIT027964-PA	Scaffold2503	49.32	73	30	1	112	184	123747	123944	6e-11	67.4
HVIT027964-PA	Scaffold291	59.26	54	22	0	132	185	429169	429330	1e-10	66.6
HVIT027964-PA	Scaffold291	43.14	51	27	1	135	183	1026111	1026263	0.030	40.8
HVIT027964-PA	Scaffold5699	82.05	39	1	1	119	151	4812	4928	1e-10	62.8
HVIT027964-PA	Scaffold5699	81.25	16	3	0	78	93	4706	4753	1e-10	26.6
HVIT027964-PA	Scaffold84	48.81	84	38	1	111	189	3084931	3084680	1e-10	66.2
HVIT027964-PA	Scaffold84	37.50	48	30	0	130	177	1441696	1441839	0.033	40.8
HVIT027964-PA	Scaffold95	44.79	96	39	3	119	207	482060	481794	2e-10	65.9
HVIT027964-PA	Scaffold442	57.41	54	23	0	132	185	597392	597231	3e-10	65.5
HVIT027964-PA	Scaffold214	53.57	56	26	0	134	189	1522641	1522474	3e-10	65.5
HVIT027964-PA	Scaffold214	56.25	32	14	0	152	183	254568	254663	0.13	38.9
HVIT027964-PA	Scaffold932	37.29	118	69	1	77	189	879914	880267	3e-10	65.1
HVIT027964-PA	Scaffold3734	87.50	24	3	0	132	155	31840	31769	3e-10	46.6
HVIT027964-PA	Scaffold3734	77.78	18	4	0	115	132	31901	31848	3e-10	32.0
HVIT027964-PA	Scaffold3734	81.25	16	3	0	78	93	31995	31948	3e-10	28.1
HVIT027964-PA	Scaffold548	45.95	74	37	1	119	189	349153	348932	3e-10	65.1
HVIT027964-PA	Scaffold338	43.02	86	45	2	115	199	666893	666645	5e-10	64.3
HVIT027964-PA	Scaffold148	57.41	54	23	0	132	185	946713	946552	5e-10	64.3
HVIT027964-PA	Scaffold148	39.53	43	26	0	134	176	1030138	1030010	1.5	35.4
HVIT027964-PA	Scaffold27560	55.56	54	24	0	132	185	6398	6237	6e-10	64.3
HVIT027964-PA	Scaffold487	57.69	52	22	0	134	185	923453	923608	7e-10	63.9
HVIT027964-PA	Scaffold110	61.54	52	20	0	134	185	2251479	2251634	7e-10	63.9
HVIT027964-PA	Scaffold110	35.85	53	32	1	24	76	243454	243606	0.079	39.7
HVIT027964-PA	Scaffold1918	46.75	77	31	2	119	185	122737	122967	8e-10	63.9
HVIT027964-PA	Scaffold4	72.50	40	5	1	119	152	4606705	4606586	1e-09	58.9
HVIT027964-PA	Scaffold4	81.25	16	3	0	78	93	4606811	4606764	1e-09	26.6
HVIT027964-PA	Scaffold4	41.89	74	36	1	118	184	2042244	2042023	2e-08	59.3
HVIT027964-PA	Scaffold4	75.00	28	7	0	187	214	127348	127265	2e-04	47.8
HVIT027964-PA	Scaffold41096	54.39	57	26	0	133	189	189	359	1e-09	62.8
HVIT027964-PA	Scaffold157	55.36	56	25	0	134	189	295599	295766	1e-09	63.2
HVIT027964-PA	Scaffold127	50.91	55	27	0	130	184	174782	174618	1e-09	63.2
HVIT027964-PA	Scaffold127	35.29	34	22	0	140	173	1279	1178	7.2	33.5
HVIT027964-PA	Scaffold2219	50.91	55	27	0	130	184	249649	249813	1e-09	63.2
HVIT027964-PA	Scaffold2219	35.19	54	35	0	131	184	49148	48987	2e-04	47.4
HVIT027964-PA	Scaffold2219	32.79	61	41	0	116	176	5192	5374	7.1	33.5
HVIT027964-PA	Scaffold8091	50.91	55	27	0	130	184	8487	8323	1e-09	62.8
HVIT027964-PA	Scaffold733	41.18	85	49	1	115	198	492563	492309	2e-09	62.8
HVIT027964-PA	Scaffold381	57.69	52	22	0	134	185	273771	273926	2e-09	62.8
HVIT027964-PA	Scaffold381	43.75	80	40	1	111	185	245036	244797	3e-08	58.9
HVIT027964-PA	Scaffold27	55.00	80	24	2	78	151	2969318	2969539	3e-09	62.0
HVIT027964-PA	Scaffold766	53.85	52	24	0	134	185	53975	53820	3e-09	62.0
HVIT027964-PA	Scaffold1098	42.65	68	37	1	134	199	181207	181004	3e-09	62.0
HVIT027964-PA	Scaffold1098	54.90	51	23	0	134	184	29964	29812	3e-09	62.0
HVIT027964-PA	Scaffold669	45.00	80	39	1	111	185	663605	663844	3e-09	62.0
HVIT027964-PA	Scaffold254	55.56	54	24	0	132	185	741711	741550	3e-09	62.0
HVIT027964-PA	Scaffold254	46.34	41	22	0	143	183	1095451	1095573	1.5	35.4
HVIT027964-PA	Scaffold411	45.68	81	37	2	111	185	1217077	1216838	3e-09	61.6
HVIT027964-PA	Scaffold81	51.79	56	27	0	131	186	54871	55038	3e-09	61.6
HVIT027964-PA	Scaffold355	46.25	80	38	1	111	185	146661	146900	4e-09	61.6
HVIT027964-PA	Scaffold355	51.16	43	14	1	143	185	119469	119576	0.007	42.7
HVIT027964-PA	Scaffold30	53.70	54	25	0	132	185	967090	967251	5e-09	61.2
HVIT027964-PA	Scaffold203	41.10	73	36	2	119	184	810606	810824	7e-09	60.8
HVIT027964-PA	Scaffold371	53.70	54	25	0	132	185	1864788	1864949	7e-09	60.8
HVIT027964-PA	Scaffold371	72.00	25	7	0	187	211	30442	30368	0.016	41.6
HVIT027964-PA	Scaffold517	41.77	79	42	1	117	191	857071	856835	7e-09	60.8
HVIT027964-PA	Scaffold517	47.46	59	28	1	130	185	795169	794993	1e-06	53.9
HVIT027964-PA	Scaffold517	44.64	56	31	0	134	189	802543	802376	5e-06	52.4
HVIT027964-PA	Scaffold344	57.69	52	20	1	133	184	35542	35393	9e-09	60.5
HVIT027964-PA	Scaffold524	55.36	56	25	0	134	189	151172	151339	1e-08	60.5
HVIT027964-PA	Scaffold380	53.70	54	25	0	132	185	1902338	1902499	1e-08	60.1
HVIT027964-PA	Scaffold82	49.15	59	30	0	127	185	106878	107054	1e-08	60.1
HVIT027964-PA	Scaffold354	78.38	37	2	1	121	151	1131261	1131151	1e-08	60.1
HVIT027964-PA	Scaffold44	55.56	54	24	0	132	185	5090657	5090496	1e-08	60.1
HVIT027964-PA	Scaffold44	44.07	59	30	1	130	185	2683090	2683266	2e-05	50.4
HVIT027964-PA	Scaffold44	45.65	46	25	0	135	180	627408	627545	7e-04	45.8
HVIT027964-PA	Scaffold44	71.43	28	8	0	187	214	4964230	4964313	0.010	42.4
HVIT027964-PA	Scaffold44	41.67	36	21	0	134	169	4016348	4016455	0.18	35.8
HVIT027964-PA	Scaffold44	63.64	11	4	0	175	185	4016457	4016489	0.18	20.8
HVIT027964-PA	Scaffold44	40.43	47	28	0	130	176	1397509	1397649	2.5	35.0
HVIT027964-PA	Scaffold183	51.92	52	25	0	134	185	806053	805898	1e-08	60.1
HVIT027964-PA	Scaffold2179	58.00	50	21	0	136	185	180243	180094	2e-08	59.3
HVIT027964-PA	Scaffold630	51.92	52	25	0	134	185	266415	266570	2e-08	59.3
HVIT027964-PA	Scaffold34	56.86	51	22	0	134	184	3537942	3538094	2e-08	59.3
HVIT027964-PA	Scaffold20	51.92	52	25	0	134	185	2219051	2219206	2e-08	58.9
HVIT027964-PA	Scaffold20	47.62	42	22	0	143	184	2606650	2606775	0.004	43.5
HVIT027964-PA	Scaffold20	36.21	58	26	1	141	187	4117559	4117732	1.7	35.4
HVIT027964-PA	Scaffold253	53.85	52	24	0	134	185	1462976	1463131	3e-08	58.9
HVIT027964-PA	Scaffold253	78.95	19	4	0	187	205	84971	84915	1.7	35.4
HVIT027964-PA	Scaffold3544	50.00	52	26	0	134	185	56149	55994	3e-08	58.9
HVIT027964-PA	Scaffold3544	42.25	71	40	1	115	185	15772	15981	4e-06	52.4
HVIT027964-PA	Scaffold2075	47.27	55	29	0	130	184	335749	335585	3e-08	58.9
HVIT027964-PA	Scaffold2075	44.26	61	34	0	135	195	290874	291056	2e-06	53.5
HVIT027964-PA	Scaffold3303	42.47	73	34	2	119	184	44997	44782	3e-08	58.5
HVIT027964-PA	Scaffold30194	51.25	80	24	2	78	151	3127	3339	4e-08	58.5
HVIT027964-PA	Scaffold225	42.19	64	32	1	131	189	1808145	1808336	4e-08	58.5
HVIT027964-PA	Scaffold225	39.58	48	29	0	130	177	612994	613137	0.006	43.1
HVIT027964-PA	Scaffold509	40.26	77	41	1	134	210	467513	467728	5e-08	58.2
HVIT027964-PA	Scaffold509	42.37	59	31	1	129	184	466731	466555	2e-05	50.4
HVIT027964-PA	Scaffold780	46.38	69	37	0	117	185	76310	76104	5e-08	58.2
HVIT027964-PA	Scaffold447	45.00	80	39	1	111	185	727895	727656	5e-08	58.2
HVIT027964-PA	Scaffold4660	53.70	54	25	0	132	185	1335	1174	6e-08	57.8
HVIT027964-PA	Scaffold7328	40.54	74	40	1	120	189	9289	9510	6e-08	57.8
HVIT027964-PA	Scaffold230	55.56	54	21	1	132	185	1422575	1422727	7e-08	57.8
HVIT027964-PA	Scaffold2913	53.85	52	24	0	134	185	26952	27107	8e-08	57.4
HVIT027964-PA	Scaffold42	50.00	52	26	0	134	185	3311552	3311707	1e-07	57.4
HVIT027964-PA	Scaffold137	46.30	54	29	0	131	184	2153200	2153039	1e-07	57.0
HVIT027964-PA	Scaffold396	46.48	71	31	2	121	184	1005775	1005987	1e-07	57.0
HVIT027964-PA	Scaffold2182	40.54	74	37	1	118	184	11684	11905	1e-07	57.0
HVIT027964-PA	Scaffold54	42.67	75	36	1	117	184	317524	317300	1e-07	57.0
HVIT027964-PA	Scaffold54	43.64	55	30	1	129	182	2807555	2807391	6e-06	52.0
HVIT027964-PA	Scaffold810	53.85	52	24	0	134	185	111082	110927	2e-07	56.6
HVIT027964-PA	Scaffold810	76.92	26	6	0	187	212	484422	484499	0.014	42.0
HVIT027964-PA	Scaffold122	55.77	52	23	0	134	185	2529581	2529736	2e-07	56.2
HVIT027964-PA	Scaffold537	52.94	51	24	0	134	184	742226	742074	2e-07	56.2
HVIT027964-PA	Scaffold537	40.00	55	33	0	135	189	1614212	1614376	2e-06	53.1
HVIT027964-PA	Scaffold269	38.96	77	42	1	134	210	1982479	1982694	3e-07	55.8
HVIT027964-PA	Scaffold53470	60.56	71	16	2	78	142	337	531	3e-07	54.3
HVIT027964-PA	Scaffold53470	64.71	17	6	0	135	151	507	557	3e-07	23.5
HVIT027964-PA	Scaffold4303	46.30	54	29	0	131	184	37954	38115	3e-07	55.8
HVIT027964-PA	Scaffold235	45.76	59	29	1	129	184	1399304	1399480	3e-07	55.8
HVIT027964-PA	Scaffold208	52.94	51	24	0	132	182	744609	744761	3e-07	55.8
HVIT027964-PA	Scaffold646	53.85	52	24	0	134	185	515892	515737	3e-07	55.8
HVIT027964-PA	Scaffold785	38.27	81	45	1	134	214	836547	836320	3e-07	55.8
HVIT027964-PA	Scaffold243	50.00	54	27	0	132	185	307070	307231	3e-07	55.8
HVIT027964-PA	Scaffold434	56.00	50	22	0	136	185	1012476	1012625	4e-07	55.5
HVIT027964-PA	Scaffold1906	34.55	110	53	4	117	207	86365	86036	5e-07	55.1
HVIT027964-PA	Scaffold2470	41.33	75	43	1	115	189	158226	158447	5e-07	55.1
HVIT027964-PA	Scaffold6975	47.06	51	27	0	134	184	15971	15819	5e-07	55.1
HVIT027964-PA	Scaffold6975	35.00	60	39	0	124	183	16668	16847	0.020	41.2
HVIT027964-PA	Scaffold393	55.10	49	22	0	137	185	445426	445572	5e-07	55.1
HVIT027964-PA	Scaffold238	44.44	54	30	0	131	184	727453	727292	6e-07	55.1
HVIT027964-PA	Scaffold861	36.99	73	39	1	119	184	596688	596470	7e-07	54.7
HVIT027964-PA	Scaffold787	42.86	63	31	1	131	188	453765	453577	1e-06	53.9
HVIT027964-PA	Scaffold31	42.11	57	33	0	135	191	1797416	1797586	1e-06	53.9
HVIT027964-PA	Scaffold31	47.27	55	29	0	130	184	3667246	3667082	3e-06	52.8
HVIT027964-PA	Scaffold3945	47.06	51	27	0	134	184	5257	5409	1e-06	53.9
HVIT027964-PA	Scaffold465	39.44	71	36	1	118	181	527231	527443	1e-06	53.9
HVIT027964-PA	Scaffold854	41.07	56	33	0	134	189	283445	283612	1e-06	53.9
HVIT027964-PA	Scaffold727	41.51	53	31	0	137	189	465698	465540	1e-06	53.9
HVIT027964-PA	Scaffold8154	40.30	67	36	1	118	180	20041	20241	1e-06	53.5
HVIT027964-PA	Scaffold168	40.74	54	32	0	131	184	1378613	1378774	2e-06	53.5
HVIT027964-PA	Scaffold7	79.31	29	6	0	186	214	7092440	7092354	2e-06	53.5
HVIT027964-PA	Scaffold7	55.17	29	13	0	156	184	1357455	1357541	0.37	37.4
HVIT027964-PA	Scaffold668	39.19	74	41	1	120	189	599914	599693	2e-06	53.5
HVIT027964-PA	Scaffold3	41.51	53	31	0	134	186	6359812	6359970	2e-06	53.1
HVIT027964-PA	Scaffold3	43.14	51	26	2	135	184	5900992	5900846	0.017	41.6
HVIT027964-PA	Scaffold3	44.74	38	21	0	23	60	5132147	5132260	0.68	36.6
HVIT027964-PA	Scaffold3	31.25	48	33	0	142	189	6423679	6423536	1.0	36.2
HVIT027964-PA	Scaffold211	48.00	50	26	0	134	183	697296	697445	2e-06	53.1
HVIT027964-PA	Scaffold211	37.50	40	25	0	134	173	404230	404349	5.3	33.9
HVIT027964-PA	Scaffold1618	60.00	30	12	0	156	185	175405	175494	2e-06	42.7
HVIT027964-PA	Scaffold1618	37.21	43	27	0	115	157	175283	175411	2e-06	31.6
HVIT027964-PA	Scaffold1618	40.00	45	27	0	132	176	106508	106642	0.003	43.5
HVIT027964-PA	Scaffold1618	36.36	55	35	0	122	176	98716	98880	1.7	35.4
HVIT027964-PA	Scaffold41	43.10	58	31	1	129	184	721570	721397	2e-06	53.1
HVIT027964-PA	Scaffold41	53.33	30	14	0	155	184	1886121	1886210	0.35	37.4
HVIT027964-PA	Scaffold41	41.03	39	23	0	140	178	5183610	5183494	3.4	34.3
HVIT027964-PA	Scaffold178	69.23	26	8	0	160	185	74277	74354	2e-06	42.7
HVIT027964-PA	Scaffold178	50.00	28	14	0	132	159	74197	74280	2e-06	31.2
HVIT027964-PA	Scaffold227	44.44	54	30	0	130	183	1856155	1855994	2e-06	53.1
HVIT027964-PA	Scaffold797	76.47	34	2	1	119	146	624970	624869	3e-06	52.8
HVIT027964-PA	Scaffold375	54.72	53	21	2	135	185	410665	410510	3e-06	52.8
HVIT027964-PA	Scaffold193	59.15	71	17	2	78	142	1929223	1929417	3e-06	50.4
HVIT027964-PA	Scaffold193	64.71	17	6	0	135	151	1929393	1929443	3e-06	23.1
HVIT027964-PA	Scaffold2941	45.76	59	29	1	130	185	31202	31026	4e-06	52.4
HVIT027964-PA	Scaffold215	45.76	59	29	1	130	185	2417620	2417796	4e-06	52.4
HVIT027964-PA	Scaffold215	36.96	46	29	0	130	175	79672	79535	0.093	39.3
HVIT027964-PA	Scaffold215	72.00	25	7	0	187	211	320834	320760	0.15	38.5
HVIT027964-PA	Scaffold215	39.53	43	26	0	134	176	1334982	1334854	1.5	35.4
HVIT027964-PA	Scaffold688	45.76	59	29	1	130	185	254603	254427	4e-06	52.4
HVIT027964-PA	Scaffold1228	44.07	59	30	1	129	184	71191	71015	4e-06	52.4
HVIT027964-PA	Scaffold1228	40.38	52	30	1	130	181	21756	21604	0.004	43.5
HVIT027964-PA	Scaffold1228	50.00	40	20	0	146	185	875701	875820	0.044	40.4
HVIT027964-PA	Scaffold769	42.86	56	32	0	129	184	460897	461064	5e-06	52.4
HVIT027964-PA	Scaffold512	39.06	64	36	1	124	184	1000694	1000503	5e-06	52.4
HVIT027964-PA	Scaffold512	54.17	24	11	0	162	185	673172	673243	0.63	33.9
HVIT027964-PA	Scaffold512	52.94	17	8	0	143	159	673102	673152	0.63	21.2
HVIT027964-PA	Scaffold40717	44.23	52	29	0	132	183	999	844	5e-06	51.6
HVIT027964-PA	Scaffold46015	43.64	55	31	0	130	184	973	1137	5e-06	51.6
HVIT027964-PA	Scaffold22	44.44	54	30	0	131	184	714847	714686	7e-06	51.6
HVIT027964-PA	Scaffold22	52.00	25	12	0	161	185	2262282	2262208	1.6	32.7
HVIT027964-PA	Scaffold22	63.64	11	4	0	134	144	2262346	2262314	1.6	20.8
HVIT027964-PA	Scaffold52639	54.35	46	21	0	140	185	540	403	7e-06	51.2
HVIT027964-PA	Scaffold788	50.00	50	25	0	135	184	717291	717142	8e-06	51.6
HVIT027964-PA	Scaffold48281	72.41	29	2	1	120	142	606	692	8e-06	41.2
HVIT027964-PA	Scaffold48281	60.00	20	8	0	74	93	484	543	8e-06	25.8
HVIT027964-PA	Scaffold48281	61.11	18	7	0	135	152	668	721	8e-06	24.3
HVIT027964-PA	Scaffold17	45.45	55	30	0	130	184	3330240	3330404	9e-06	51.2
HVIT027964-PA	Scaffold1095	45.83	48	26	0	134	181	61203	61346	1e-05	51.2
HVIT027964-PA	Scaffold35	48.72	39	20	0	147	185	1239323	1239439	1e-05	44.7
HVIT027964-PA	Scaffold35	63.16	19	7	0	132	150	1239277	1239333	1e-05	26.9
HVIT027964-PA	Scaffold35	40.74	54	32	0	131	184	597295	597134	1e-04	47.8
HVIT027964-PA	Scaffold35	30.00	50	28	1	118	160	2993637	2993488	0.089	29.3
HVIT027964-PA	Scaffold35	76.47	17	4	0	167	183	2993471	2993421	0.089	28.5
HVIT027964-PA	Scaffold158	38.36	73	38	1	131	203	57801	57604	1e-05	50.8
HVIT027964-PA	Scaffold4588	86.36	22	3	0	130	151	57141	57076	1e-05	46.2
HVIT027964-PA	Scaffold4588	58.14	43	12	1	83	125	57277	57167	1e-05	25.4
HVIT027964-PA	Scaffold4588	54.55	77	17	4	83	151	58566	58366	1e-04	47.8
HVIT027964-PA	Scaffold345	50.00	36	18	0	150	185	1195634	1195741	1e-05	43.1
HVIT027964-PA	Scaffold345	71.43	14	4	0	134	147	1195585	1195626	1e-05	28.1
HVIT027964-PA	Scaffold56	78.57	28	6	0	187	214	1016436	1016353	1e-05	50.8
HVIT027964-PA	Scaffold3463	86.36	22	3	0	130	151	27264	27329	2e-05	44.7
HVIT027964-PA	Scaffold3463	53.19	47	16	1	79	125	27116	27238	2e-05	26.6
HVIT027964-PA	Scaffold21	34.78	115	62	3	77	185	2179283	2179606	2e-05	50.4
HVIT027964-PA	Scaffold21	41.86	43	25	0	134	176	290063	289935	7.7	33.5
HVIT027964-PA	Scaffold5639	48.94	47	24	0	139	185	13208	13068	2e-05	50.4
HVIT027964-PA	Scaffold16198	40.74	54	32	0	131	184	3063	2902	2e-05	50.4
HVIT027964-PA	Scaffold428	44.90	49	27	0	136	184	19027	18881	2e-05	50.4
HVIT027964-PA	Scaffold428	42.55	47	27	0	130	176	738134	738274	3.6	34.3
HVIT027964-PA	Scaffold477	40.62	64	38	0	115	178	948585	948394	2e-05	50.4
HVIT027964-PA	Scaffold60	41.10	73	36	2	111	177	1345802	1345587	2e-05	45.1
HVIT027964-PA	Scaffold60	38.10	42	23	1	175	213	1345597	1345472	2e-05	25.8
HVIT027964-PA	Scaffold1089	48.94	47	24	0	132	178	238385	238525	2e-05	50.1
HVIT027964-PA	Scaffold339	44.26	61	32	1	134	192	673744	673926	2e-05	50.1
HVIT027964-PA	Scaffold752	41.07	56	32	1	135	189	322390	322223	2e-05	50.1
HVIT027964-PA	Scaffold229	78.57	28	6	0	187	214	1544495	1544412	2e-05	50.1
HVIT027964-PA	Scaffold45	50.00	44	22	0	142	185	3048160	3048029	3e-05	50.1
HVIT027964-PA	Scaffold10281	78.57	28	6	0	187	214	12789	12872	3e-05	50.1
HVIT027964-PA	Scaffold3192	43.64	55	31	0	130	184	89843	89679	3e-05	50.1
HVIT027964-PA	Scaffold903	38.89	54	33	0	131	184	118209	118048	3e-05	50.1
HVIT027964-PA	Scaffold1446	78.57	28	6	0	187	214	56068	56151	3e-05	50.1
HVIT027964-PA	Scaffold416	78.57	28	6	0	187	214	238945	238862	3e-05	50.1
HVIT027964-PA	Scaffold790	78.57	28	6	0	187	214	999836	999753	3e-05	50.1
HVIT027964-PA	Scaffold790	34.43	61	36	2	129	186	223747	223926	0.55	37.0
HVIT027964-PA	Scaffold231	78.57	28	6	0	187	214	329386	329469	3e-05	50.1
HVIT027964-PA	Scaffold41502	38.89	54	33	0	131	184	2934	2773	3e-05	49.7
HVIT027964-PA	Scaffold4542	43.14	51	29	0	131	181	34915	34763	3e-05	49.7
HVIT027964-PA	Scaffold57773	38.89	54	33	0	131	184	1686	1525	3e-05	49.7
HVIT027964-PA	Scaffold458	44.44	54	30	0	131	184	734982	735143	3e-05	49.7
HVIT027964-PA	Scaffold1771	42.59	54	31	0	130	183	19478	19639	4e-05	49.7
HVIT027964-PA	Scaffold590	35.09	114	63	3	77	185	340209	340532	4e-05	49.3
HVIT027964-PA	Scaffold590	50.00	38	19	0	143	180	1011987	1011874	0.57	37.0
HVIT027964-PA	Scaffold2230	78.57	28	6	0	119	146	22945	22862	4e-05	49.3
HVIT027964-PA	Scaffold1774	32.26	93	55	2	130	214	88978	88700	4e-05	49.3
HVIT027964-PA	Scaffold1774	40.00	55	23	1	130	184	144479	144345	0.004	43.5
HVIT027964-PA	Scaffold330	48.21	56	28	1	134	189	691882	692046	4e-05	49.3
HVIT027964-PA	Scaffold330	35.42	48	31	0	130	177	544586	544729	0.047	40.0
HVIT027964-PA	Scaffold1375	61.54	39	13	1	176	214	24165	24275	6e-05	48.9
HVIT027964-PA	Scaffold217	35.71	70	38	1	130	199	1655065	1655253	6e-05	48.9
HVIT027964-PA	Scaffold217	33.64	110	68	1	75	179	139636	139307	6e-05	48.9
HVIT027964-PA	Scaffold1475	47.83	46	22	1	26	71	46103	46234	6e-05	48.9
HVIT027964-PA	Scaffold1475	41.67	60	33	1	135	192	365303	365124	2e-04	47.4
HVIT027964-PA	Scaffold14822	37.04	54	34	0	131	184	7764	7603	7e-05	48.9
HVIT027964-PA	Scaffold777	41.89	74	36	2	111	178	962911	962693	7e-05	47.8
HVIT027964-PA	Scaffold777	72.73	11	3	0	175	185	962694	962662	7e-05	21.6
HVIT027964-PA	Scaffold88	43.14	51	29	0	134	184	1297327	1297479	7e-05	48.9
HVIT027964-PA	Scaffold256	37.04	54	34	0	131	184	844208	844047	7e-05	48.9
HVIT027964-PA	Scaffold256	38.10	42	26	0	135	176	852603	852478	5.3	33.9
HVIT027964-PA	Scaffold2014	47.92	48	25	0	136	183	46270	46413	8e-05	48.5
HVIT027964-PA	Scaffold139	44.93	69	36	2	138	206	3103295	3103495	8e-05	48.5
HVIT027964-PA	Scaffold139	70.83	24	7	0	162	185	1003692	1003621	3e-04	40.0
HVIT027964-PA	Scaffold139	40.62	32	19	0	127	158	1003786	1003691	3e-04	26.9
HVIT027964-PA	Scaffold186	46.00	50	27	0	134	183	1567010	1567159	1e-04	48.5
HVIT027964-PA	Scaffold2968	43.66	71	33	2	121	184	24151	24363	1e-04	48.1
HVIT027964-PA	Scaffold1055	75.00	28	7	0	187	214	206018	205935	1e-04	47.8
HVIT027964-PA	Scaffold135	47.92	48	25	0	132	179	369879	370022	1e-04	47.0
HVIT027964-PA	Scaffold135	88.89	9	1	0	177	185	370015	370041	1e-04	20.8
HVIT027964-PA	Scaffold59686	41.51	53	31	0	132	184	2567	2409	1e-04	47.8
HVIT027964-PA	Scaffold2655	60.00	30	12	0	156	185	67033	66944	2e-04	42.0
HVIT027964-PA	Scaffold2655	66.67	15	5	0	132	146	67100	67056	2e-04	26.2
HVIT027964-PA	Scaffold2655	31.71	41	28	0	135	175	148955	148833	0.34	37.7
HVIT027964-PA	Scaffold922	40.68	59	32	1	130	185	46282	46106	2e-04	47.8
HVIT027964-PA	Scaffold46	42.37	59	31	1	130	185	3190023	3190199	2e-04	47.4
HVIT027964-PA	Scaffold3241	40.28	72	37	2	131	197	12667	12455	2e-04	47.4
HVIT027964-PA	Scaffold3241	39.53	43	26	0	134	176	94172	94044	1.4	35.8
HVIT027964-PA	Scaffold18	44.23	52	29	0	134	185	2412177	2412022	2e-04	47.4
HVIT027964-PA	Scaffold18	40.00	65	34	1	136	195	3802484	3802678	4e-04	46.6
HVIT027964-PA	Scaffold18	53.57	28	13	0	157	184	2238071	2237988	8.7	33.1
HVIT027964-PA	Scaffold79	51.22	41	20	0	142	182	1255526	1255648	2e-04	47.0
HVIT027964-PA	Scaffold167	37.88	66	34	1	119	177	1558988	1558791	3e-04	47.0
HVIT027964-PA	Scaffold3173	62.50	32	12	0	154	185	37614	37709	3e-04	47.0
HVIT027964-PA	Scaffold1899	48.84	43	22	0	142	184	112286	112414	3e-04	47.0
HVIT027964-PA	Scaffold6701	37.04	54	34	0	131	184	23932	24093	5e-04	46.2
HVIT027964-PA	Scaffold120	76.00	25	0	1	119	137	2429880	2429954	6e-04	38.5
HVIT027964-PA	Scaffold120	87.50	16	2	0	78	93	2429776	2429823	6e-04	27.3
HVIT027964-PA	Scaffold271	37.04	54	34	0	131	184	1126158	1126319	6e-04	45.8
HVIT027964-PA	Scaffold2795	41.67	48	28	0	130	177	83487	83344	6e-04	45.8
HVIT027964-PA	Scaffold16042	41.67	48	28	0	130	177	9993	9850	9e-04	45.4
HVIT027964-PA	Scaffold484	40.35	57	34	0	120	176	811003	811173	0.001	45.1
HVIT027964-PA	Scaffold1198	40.00	50	30	0	131	180	85131	85280	0.001	45.1
HVIT027964-PA	Scaffold370	61.76	34	11	1	115	146	143234	143133	0.001	40.0
HVIT027964-PA	Scaffold370	75.00	16	4	0	78	93	143328	143281	0.001	24.6
HVIT027964-PA	Scaffold250	53.85	26	12	0	134	159	52394	52471	0.002	33.1
HVIT027964-PA	Scaffold250	37.78	45	26	1	155	197	52459	52593	0.002	31.2
HVIT027964-PA	Scaffold1229	44.44	36	20	0	134	169	211848	211955	0.002	33.5
HVIT027964-PA	Scaffold1229	81.25	16	3	0	170	185	211955	212002	0.002	30.4
HVIT027964-PA	Scaffold36072	47.54	61	22	3	142	200	1026	1184	0.002	44.3
HVIT027964-PA	Scaffold970	50.00	40	20	0	132	171	459423	459542	0.003	38.1
HVIT027964-PA	Scaffold970	66.67	15	5	0	171	185	459542	459586	0.003	25.4
HVIT027964-PA	Scaffold966	44.23	52	28	1	126	177	161215	161063	0.003	43.9
HVIT027964-PA	Scaffold3646	40.91	44	26	0	134	177	52978	53109	0.003	43.9
HVIT027964-PA	Scaffold173	46.15	39	21	0	132	170	2412509	2412393	0.003	37.7
HVIT027964-PA	Scaffold173	50.00	20	10	0	170	189	2412396	2412337	0.003	25.4
HVIT027964-PA	Scaffold492	38.81	67	37	1	125	191	775483	775295	0.004	43.5
HVIT027964-PA	Scaffold113	45.45	44	24	0	142	185	1301676	1301807	0.004	43.5
HVIT027964-PA	Scaffold194	38.10	42	26	0	135	176	2170290	2170415	0.006	43.1
HVIT027964-PA	Scaffold3161	39.53	43	26	0	134	176	23279	23407	0.006	43.1
HVIT027964-PA	Scaffold3161	36.17	47	26	1	134	176	18574	18714	0.25	38.1
HVIT027964-PA	Scaffold1425	33.85	65	36	1	119	176	187401	187207	0.006	42.7
HVIT027964-PA	Scaffold3399	40.48	42	25	0	135	176	138015	137890	0.006	42.7
HVIT027964-PA	Scaffold101	40.91	44	26	0	132	175	2226410	2226541	0.009	42.4
HVIT027964-PA	Scaffold1097	45.71	35	19	0	135	169	359401	359505	0.010	33.1
HVIT027964-PA	Scaffold1097	75.00	16	4	0	170	185	359505	359552	0.010	28.1
HVIT027964-PA	Scaffold305	40.48	42	25	0	135	176	480896	481021	0.011	42.4
HVIT027964-PA	Scaffold750	42.86	42	24	0	135	176	652335	652460	0.013	42.0
HVIT027964-PA	Scaffold90	38.24	68	40	2	130	197	2454495	2454298	0.013	42.0
HVIT027964-PA	Scaffold4428	42.22	45	26	0	140	184	32747	32613	0.014	42.0
HVIT027964-PA	Scaffold36906	45.24	42	23	0	143	184	3881	4006	0.015	41.6
HVIT027964-PA	Scaffold723	51.22	41	20	0	143	183	135256	135134	0.018	41.6
HVIT027964-PA	Scaffold723	40.74	54	25	1	132	185	701893	701753	0.15	38.5
HVIT027964-PA	Scaffold2098	42.86	42	24	0	135	176	56369	56244	0.018	41.6
HVIT027964-PA	Scaffold1051	53.66	41	19	0	143	183	290203	290081	0.019	41.6
HVIT027964-PA	Scaffold388	47.06	34	18	0	132	165	1282739	1282638	0.020	35.0
HVIT027964-PA	Scaffold388	83.33	12	2	0	174	185	1282638	1282603	0.020	25.4
HVIT027964-PA	Scaffold177	31.94	72	46	1	128	196	194449	194234	0.020	41.2
HVIT027964-PA	Scaffold255	43.18	44	25	0	134	177	105091	105222	0.021	41.2
HVIT027964-PA	Scaffold255	48.65	37	19	0	149	185	115142	115252	1.0	36.2
HVIT027964-PA	Scaffold1104	45.24	42	23	0	135	176	504898	504773	0.024	41.2
HVIT027964-PA	Scaffold964	34.94	83	47	2	134	210	582327	582082	0.025	41.2
HVIT027964-PA	Scaffold72	39.53	43	26	0	134	176	2518156	2518284	0.025	41.2
HVIT027964-PA	Scaffold754	73.08	26	7	0	187	212	407673	407750	0.025	41.2
HVIT027964-PA	Scaffold40	44.19	43	24	0	134	176	85811	85939	0.025	41.2
HVIT027964-PA	Scaffold1485	60.00	30	12	0	155	184	156794	156883	0.028	40.8
HVIT027964-PA	Scaffold1404	33.33	51	27	1	119	162	128039	127887	0.032	31.2
HVIT027964-PA	Scaffold1404	54.55	22	10	0	162	183	127876	127811	0.032	28.5
HVIT027964-PA	Scaffold1175	34.00	50	33	0	127	176	44257	44108	0.037	40.4
HVIT027964-PA	Scaffold6257	75.00	24	6	0	187	210	25429	25358	0.038	40.4
HVIT027964-PA	Scaffold1312	45.10	51	27	1	134	184	722324	722175	0.040	40.4
HVIT027964-PA	Scaffold199	45.45	44	24	0	146	189	1424413	1424544	0.047	40.4
HVIT027964-PA	Scaffold495	51.22	41	20	0	143	183	869949	869827	0.051	40.0
HVIT027964-PA	Scaffold233	40.38	52	30	1	134	185	1368854	1369006	0.051	40.0
HVIT027964-PA	Scaffold233	57.69	26	11	0	154	179	2246198	2246121	9.8	33.1
HVIT027964-PA	Scaffold2221	26.67	75	51	1	135	209	75684	75896	0.052	40.0
HVIT027964-PA	Scaffold63	34.00	50	33	0	134	183	1680727	1680876	0.055	40.0
HVIT027964-PA	Scaffold544	35.42	48	31	0	130	177	440438	440295	0.064	39.7
HVIT027964-PA	Scaffold51476	35.90	39	25	0	135	173	727	843	0.067	39.3
HVIT027964-PA	Scaffold584	35.90	39	25	0	135	173	215027	214911	0.071	39.7
HVIT027964-PA	Scaffold46168	35.90	39	25	0	135	173	843	959	0.077	39.3
HVIT027964-PA	Scaffold3666	37.21	43	27	0	134	176	73307	73435	0.082	39.7
HVIT027964-PA	Scaffold479	38.46	65	36	2	134	198	893847	893665	0.091	39.3
HVIT027964-PA	Scaffold6496	42.86	49	26	1	154	200	9637	9491	0.097	39.3
HVIT027964-PA	Scaffold189	48.78	41	21	0	143	183	1158790	1158912	0.10	39.3
HVIT027964-PA	Scaffold624	60.00	30	12	0	156	185	424338	424427	0.11	39.3
HVIT027964-PA	Scaffold3404	41.86	43	25	0	134	176	26688	26560	0.12	38.9
HVIT027964-PA	Scaffold3128	59.26	27	11	0	158	184	82458	82378	0.13	38.9
HVIT027964-PA	Scaffold303	60.00	30	12	0	155	184	182974	182885	0.13	38.9
HVIT027964-PA	Scaffold518	48.78	41	21	0	143	183	381519	381641	0.14	38.9
HVIT027964-PA	Scaffold234	46.51	43	18	1	152	189	588031	588159	0.14	38.9
HVIT027964-PA	Scaffold413	29.03	62	37	1	119	173	1023211	1023396	0.15	38.9
HVIT027964-PA	Scaffold413	39.53	43	26	0	134	176	1221775	1221647	0.82	36.6
HVIT027964-PA	Scaffold3184	51.22	41	20	0	136	176	15759	15637	0.17	38.5
HVIT027964-PA	Scaffold219	41.86	43	25	0	134	176	274293	274165	0.18	38.5
HVIT027964-PA	Scaffold219	38.89	36	22	0	138	173	512382	512489	1.8	35.4
HVIT027964-PA	Scaffold4769	41.86	43	25	0	134	176	10491	10619	0.19	38.5
HVIT027964-PA	Scaffold4769	62.96	27	10	0	158	184	1975	2055	0.82	36.2
HVIT027964-PA	Scaffold4769	62.96	27	10	0	158	184	3078	3158	0.82	36.2
HVIT027964-PA	Scaffold26305	41.30	46	27	0	131	176	5037	5174	0.19	38.1
HVIT027964-PA	Scaffold236	34.88	43	28	0	134	176	562573	562445	0.22	38.1
HVIT027964-PA	Scaffold1073	34.43	61	40	0	135	195	319667	319485	0.23	38.1
HVIT027964-PA	Scaffold1073	43.90	41	23	0	135	175	257738	257616	0.43	37.4
HVIT027964-PA	Scaffold299	34.04	47	31	0	134	180	813214	813354	0.23	38.1
HVIT027964-PA	Scaffold4421	26.92	78	53	1	135	212	11221	11442	0.24	38.1
HVIT027964-PA	Scaffold2625	37.50	48	30	0	134	181	64138	64281	0.24	38.1
HVIT027964-PA	Scaffold3047	34.92	63	29	1	135	197	8792	8640	0.25	38.1
HVIT027964-PA	Scaffold798	41.86	43	25	0	134	176	305125	304997	0.26	38.1
HVIT027964-PA	Scaffold798	39.53	43	26	0	134	176	306440	306312	0.40	37.4
HVIT027964-PA	Scaffold187	84.21	19	3	0	187	205	2768247	2768191	0.29	37.7
HVIT027964-PA	Scaffold6	34.88	43	28	0	134	176	2178251	2178379	0.29	37.7
HVIT027964-PA	Scaffold6	40.43	47	28	0	130	176	2112827	2112967	8.8	33.1
HVIT027964-PA	Scaffold180	41.86	43	25	0	134	176	2745775	2745647	0.31	37.7
HVIT027964-PA	Scaffold107	28.75	80	51	2	135	214	2233810	2234031	0.31	37.7
HVIT027964-PA	Scaffold107	39.53	43	26	0	134	176	2402052	2402180	0.51	37.0
HVIT027964-PA	Scaffold443	33.96	53	31	1	128	176	1054385	1054543	0.32	37.7
HVIT027964-PA	Scaffold542	45.45	44	24	0	152	195	651572	651703	0.33	37.7
HVIT027964-PA	Scaffold1334	33.33	39	26	0	135	173	22977	23093	0.34	37.7
HVIT027964-PA	Scaffold315	39.02	41	25	0	135	175	1043163	1043285	0.35	37.4
HVIT027964-PA	Scaffold114	33.33	39	26	0	135	173	1615948	1615832	0.40	37.4
HVIT027964-PA	Scaffold335	41.46	41	24	0	134	174	211	333	0.41	37.4
HVIT027964-PA	Scaffold449	40.00	45	27	0	134	178	321874	321740	0.46	37.4
HVIT027964-PA	Scaffold773	32.73	55	37	0	135	189	70383	70219	0.54	37.0
HVIT027964-PA	Scaffold2009	78.95	19	4	0	187	205	54114	54170	0.56	34.3
HVIT027964-PA	Scaffold2009	72.73	11	3	0	204	214	54164	54196	0.56	21.2
HVIT027964-PA	Scaffold22746	39.02	41	25	0	135	175	10	132	0.59	36.6
HVIT027964-PA	Scaffold16629	37.21	43	27	0	134	176	868	996	0.76	36.2
HVIT027964-PA	Scaffold51708	33.33	39	26	0	135	173	1998	1882	0.77	36.2
HVIT027964-PA	Scaffold1728	34.43	61	29	1	116	176	76028	76177	0.81	36.6
HVIT027964-PA	Scaffold427	37.93	58	35	1	122	178	1006684	1006511	0.85	36.2
HVIT027964-PA	Scaffold472	35.29	51	33	0	115	165	678346	678194	0.87	36.2
HVIT027964-PA	Scaffold3300	45.71	35	19	0	141	175	23586	23690	0.90	36.2
HVIT027964-PA	Scaffold57486	41.86	43	25	0	134	176	557	685	0.91	36.2
HVIT027964-PA	Scaffold293	41.86	43	23	1	152	192	596347	596219	0.93	36.2
HVIT027964-PA	Scaffold14127	37.50	40	25	0	135	174	2994	2875	0.96	36.2
HVIT027964-PA	Scaffold14127	35.71	42	27	0	135	176	1109	984	3.9	34.3
HVIT027964-PA	Scaffold588	33.33	39	26	0	135	173	483163	483279	1.0	36.2
HVIT027964-PA	Scaffold648	33.33	39	26	0	135	173	554210	554326	1.0	36.2
HVIT027964-PA	Scaffold130	42.86	42	24	0	135	176	265281	265406	1.0	36.2
HVIT027964-PA	Scaffold383	34.21	38	25	0	135	172	307068	307181	1.2	35.8
HVIT027964-PA	Scaffold76	39.53	43	26	0	134	176	436576	436704	1.2	35.8
HVIT027964-PA	Scaffold48	41.86	43	25	0	134	176	178783	178655	1.3	35.8
HVIT027964-PA	Scaffold661	39.53	43	26	0	134	176	320860	320732	1.3	35.8
HVIT027964-PA	Scaffold154	50.00	30	15	0	155	184	754193	754104	1.3	35.8
HVIT027964-PA	Scaffold6434	33.33	36	24	0	135	170	11825	11932	1.4	35.8
HVIT027964-PA	Scaffold272	30.77	39	27	0	135	173	265947	266063	1.5	35.4
HVIT027964-PA	Scaffold768	39.53	43	26	0	134	176	972311	972439	1.7	35.4
HVIT027964-PA	Scaffold49	42.22	45	26	0	132	176	2384173	2384307	1.8	35.4
HVIT027964-PA	Scaffold49	35.19	54	32	1	143	196	2121197	2121349	3.8	34.3
HVIT027964-PA	Scaffold14	46.51	43	21	2	144	185	4038259	4038134	1.8	35.4
HVIT027964-PA	Scaffold1811	41.51	53	28	1	132	184	182256	182405	1.8	35.4
HVIT027964-PA	Scaffold190	39.13	46	28	0	130	175	661576	661439	1.9	35.4
HVIT027964-PA	Scaffold125	34.88	43	28	0	134	176	2129091	2128963	1.9	35.4
HVIT027964-PA	Scaffold6573	37.21	43	27	0	134	176	38809	38681	2.3	35.0
HVIT027964-PA	Scaffold2074	30.77	39	27	0	135	173	145635	145519	2.5	35.0
HVIT027964-PA	Scaffold321	37.50	40	25	0	135	174	68619	68738	3.1	34.7
HVIT027964-PA	Scaffold116	39.53	43	26	0	134	176	2546714	2546586	3.4	34.7
HVIT027964-PA	Scaffold1091	46.43	28	15	0	132	159	165539	165622	3.4	34.3
HVIT027964-PA	Scaffold799	42.11	38	22	0	141	178	259897	260010	3.6	34.3
HVIT027964-PA	Scaffold838	36.00	50	32	0	127	176	139211	139360	3.7	34.3
HVIT027964-PA	Scaffold1167	38.10	42	26	0	135	176	141910	142035	3.8	34.3
HVIT027964-PA	Scaffold2730	31.91	47	32	0	134	180	117093	117233	3.8	34.3
HVIT027964-PA	Scaffold3267	61.54	26	10	0	158	183	40513	40436	3.8	34.3
HVIT027964-PA	Scaffold3267	37.21	43	27	0	134	176	35372	35244	5.8	33.9
HVIT027964-PA	Scaffold51475	32.50	40	27	0	135	174	626	507	4.0	33.9
HVIT027964-PA	Scaffold213	33.96	53	32	2	25	77	941026	941175	4.2	34.3
HVIT027964-PA	Scaffold103	68.42	19	6	0	162	180	1146186	1146242	4.3	26.2
HVIT027964-PA	Scaffold103	55.56	18	8	0	134	151	1146106	1146159	4.3	25.8
HVIT027964-PA	Scaffold526	35.71	42	27	0	134	175	50020	49895	4.3	34.3
HVIT027964-PA	Scaffold423	41.46	41	24	0	136	176	281066	281188	4.3	34.3
HVIT027964-PA	Scaffold319	42.55	47	27	0	130	176	1430064	1429924	5.1	33.9
HVIT027964-PA	Scaffold1001	53.57	28	13	0	132	159	28087	28170	5.4	33.9
HVIT027964-PA	Scaffold4682	38.46	52	29	1	128	176	23283	23438	5.5	33.9
HVIT027964-PA	Scaffold992	44.74	38	21	0	142	179	120184	120071	6.0	33.5
HVIT027964-PA	Scaffold1345	38.10	42	26	0	135	176	581292	581167	6.3	33.5
HVIT027964-PA	Scaffold119	41.86	43	25	0	134	176	1689435	1689563	6.5	33.5
HVIT027964-PA	Scaffold27458	62.50	24	9	0	161	184	4907	4978	6.7	33.5
HVIT027964-PA	Scaffold343	41.86	43	25	0	134	176	388226	388354	7.4	33.5
HVIT027964-PA	Scaffold617	61.54	26	10	0	159	184	1225282	1225359	7.6	33.5
HVIT027964-PA	Scaffold424	37.21	43	27	0	134	176	1171331	1171459	8.0	33.1
HVIT027964-PA	Scaffold827	60.87	23	9	0	160	182	206754	206822	8.5	33.1
HVIT027964-PA	Scaffold316	34.21	38	25	0	134	171	1403126	1403239	9.0	33.1
HVIT027964-PA	Scaffold36122	30.95	42	29	0	135	176	346	471	9.3	33.1
HVIT027965-PA	Scaffold2325	86.86	137	14	1	56	192	74811	74413	5e-74	254
HVIT027965-PA	Scaffold2325	100.00	62	0	0	182	243	71767	71582	5e-32	132
HVIT027965-PA	Scaffold2325	96.08	51	2	0	16	66	75443	75291	5e-20	96.3
HVIT027965-PA	Scaffold2325	38.83	103	52	2	23	125	64816	64541	7e-14	77.0
HVIT027965-PA	Scaffold2325	50.00	62	29	1	182	241	59515	59330	1e-11	70.1
HVIT027965-PA	Scaffold2325	53.33	60	26	2	121	179	60983	60807	7e-11	67.4
HVIT027965-PA	Scaffold2325	63.64	44	16	0	153	196	72839	72708	3e-09	62.8
HVIT027965-PA	Scaffold2325	92.86	28	2	0	153	180	74305	74222	6e-08	58.5
HVIT027965-PA	Scaffold2325	51.61	31	15	0	135	165	72781	72689	0.36	37.7
HVIT027965-PA	Scaffold2325	100.00	18	0	0	1	18	82898	82845	1.2	36.2
HVIT027965-PA	Scaffold1475	64.41	118	42	0	67	184	43903	44256	7e-46	172
HVIT027965-PA	Scaffold1475	51.67	60	29	0	180	239	46088	46267	1e-12	73.2
HVIT027965-PA	Scaffold3	34.16	202	115	4	47	240	5182687	5183262	1e-26	115
HVIT027965-PA	Scaffold3	31.76	170	107	2	73	242	5160820	5160338	1e-20	98.2
HVIT027965-PA	Scaffold3	39.80	98	51	1	115	212	5131970	5132239	3e-13	75.1
HVIT027965-PA	Scaffold368	31.95	169	107	1	70	238	789647	789165	8e-23	104
HVIT027965-PA	Scaffold213	42.59	108	54	1	133	240	940894	941193	3e-18	90.9
HVIT027965-PA	Scaffold213	32.86	70	41	3	68	135	939638	939835	0.73	37.0
HVIT027965-PA	Scaffold5213	28.05	164	83	4	94	230	5993	5526	1e-10	67.0
HVIT027965-PA	Scaffold110	41.79	67	37	2	70	135	240063	240260	1e-06	54.7
HVIT027965-PA	Scaffold110	40.35	57	34	0	180	236	243445	243615	4e-06	53.1
HVIT027965-PA	Scaffold110	44.19	43	23	1	133	175	241368	241493	7e-04	46.2
HVIT027965-PA	Scaffold1859	24.75	101	63	4	72	166	266415	266696	2.5	35.4
HVIT027965-PA	Scaffold1327	38.89	54	25	3	64	116	21676	21816	6.5	33.9
HVIT027965-PA	Scaffold693	26.50	117	70	6	66	174	1080775	1080449	7.3	33.9
HVIT027965-PA	Scaffold330	45.83	24	13	0	111	134	297847	297918	9.1	33.5
