HVIT002188-PA	Scaffold64	100.00	98	0	0	68	165	1672237	1671944	2e-46	178
HVIT002188-PA	Scaffold64	96.43	84	3	0	163	246	1671393	1671142	8e-42	164
HVIT002188-PA	Scaffold64	64.76	105	0	1	1	68	1672908	1672594	6e-26	116
HVIT002188-PA	Scaffold64	85.45	55	8	0	272	326	1667757	1667593	4e-18	92.0
HVIT002188-PA	Scaffold64	92.50	40	3	0	246	285	1668738	1668619	3e-15	83.2
HVIT002188-PA	Scaffold64	85.00	40	6	0	321	360	1653474	1653355	8e-14	78.6
HVIT002189-PA	Scaffold64	99.11	112	1	0	6	117	1679133	1678798	2e-67	233
HVIT002189-PA	Scaffold64	87.10	62	8	0	27	88	269726	269911	8e-28	117
HVIT002189-PA	Scaffold64	97.50	40	1	0	153	192	1675246	1675127	7e-17	85.5
HVIT002189-PA	Scaffold64	94.87	39	2	0	116	154	1678172	1678056	2e-14	78.2
HVIT002189-PA	Scaffold64	53.95	76	27	3	44	117	269787	269996	1e-10	66.2
HVIT002189-PA	Scaffold44	86.02	93	13	0	27	119	477002	476724	2e-45	169
HVIT002189-PA	Scaffold21	87.91	91	9	1	29	119	3453983	3454249	1e-44	167
HVIT002189-PA	Scaffold46	84.72	72	10	1	17	88	247680	247468	1e-41	127
HVIT002189-PA	Scaffold46	90.91	33	3	0	87	119	247475	247377	1e-41	65.9
HVIT002189-PA	Scaffold179	71.82	110	19	2	16	119	98968	99279	1e-41	157
HVIT002189-PA	Scaffold36713	80.00	70	14	0	19	88	4531	4322	4e-39	121
HVIT002189-PA	Scaffold36713	84.85	33	5	0	87	119	4329	4231	4e-39	63.5
HVIT002189-PA	Scaffold99	96.61	59	2	0	30	88	1179267	1179091	7e-39	124
HVIT002189-PA	Scaffold99	81.82	33	6	0	87	119	1179098	1179000	7e-39	60.1
HVIT002189-PA	Scaffold636	81.25	64	12	0	27	90	283666	283475	2e-37	112
HVIT002189-PA	Scaffold636	90.91	33	3	0	87	119	283488	283390	2e-37	67.0
HVIT002189-PA	Scaffold105	90.00	60	6	0	29	88	1518110	1518289	3e-37	114
HVIT002189-PA	Scaffold105	84.85	33	5	0	87	119	1518282	1518380	3e-37	63.5
HVIT002189-PA	Scaffold776	77.42	93	18	2	28	119	561512	561240	7e-36	141
HVIT002189-PA	Scaffold96	85.25	61	9	0	28	88	2328939	2328757	5e-34	110
HVIT002189-PA	Scaffold96	78.79	33	7	0	87	119	2328764	2328666	5e-34	57.0
HVIT002189-PA	Scaffold131	63.16	114	23	3	6	119	2694939	2695223	4e-33	133
HVIT002189-PA	Scaffold131	88.64	44	5	0	29	72	1595879	1596010	2e-17	87.0
HVIT002189-PA	Scaffold131	50.55	91	44	1	30	120	2164004	2163735	1e-14	79.0
HVIT002189-PA	Scaffold28	89.23	65	7	0	24	88	1378163	1378357	1e-30	125
HVIT002189-PA	Scaffold28	86.89	61	8	0	28	88	4064810	4064992	1e-26	114
HVIT002189-PA	Scaffold28	80.00	60	12	0	29	88	4067529	4067708	4e-23	103
HVIT002189-PA	Scaffold28	52.56	78	29	3	44	119	4064868	4065083	3e-10	64.7
HVIT002189-PA	Scaffold28	64.15	53	15	1	67	119	4067653	4067799	8e-10	63.5
HVIT002189-PA	Scaffold1117	70.65	92	24	2	29	119	271754	271485	4e-29	121
HVIT002189-PA	Scaffold306	91.67	60	5	0	29	88	155527	155706	6e-29	121
HVIT002189-PA	Scaffold306	52.56	78	29	3	44	119	155582	155797	1e-09	62.8
HVIT002189-PA	Scaffold306	64.00	25	9	0	87	111	1856020	1856094	3.3	34.3
HVIT002189-PA	Scaffold303	87.50	64	8	0	25	88	88940	89131	2e-28	119
HVIT002189-PA	Scaffold303	51.28	78	30	3	44	119	89007	89222	6e-10	63.9
HVIT002189-PA	Scaffold303	36.99	73	37	3	44	114	970026	970223	1.1	35.8
HVIT002189-PA	Scaffold445	88.71	62	7	0	30	91	534913	534728	3e-28	119
HVIT002189-PA	Scaffold445	53.33	75	27	3	47	119	534852	534646	1e-10	66.2
HVIT002189-PA	Scaffold285	88.52	61	7	0	28	88	1595305	1595487	3e-28	119
HVIT002189-PA	Scaffold285	53.85	78	28	3	44	119	1595363	1595578	3e-11	68.2
HVIT002189-PA	Scaffold1593	72.50	80	14	1	30	109	318782	318567	7e-28	117
HVIT002189-PA	Scaffold1593	81.82	33	6	0	87	119	318613	318515	2e-09	62.4
HVIT002189-PA	Scaffold31423	88.33	60	7	0	29	88	241	62	9e-28	116
HVIT002189-PA	Scaffold31423	48.53	68	27	3	44	109	186	1	2e-05	49.3
HVIT002189-PA	Scaffold43	83.08	65	11	0	24	88	1539774	1539968	1e-27	117
HVIT002189-PA	Scaffold882	74.03	77	18	1	15	91	419707	419483	6e-27	115
HVIT002189-PA	Scaffold882	50.00	78	31	3	44	119	419616	419401	9e-10	63.5
HVIT002189-PA	Scaffold684	88.33	60	7	0	29	88	435118	434939	1e-26	114
HVIT002189-PA	Scaffold684	50.65	77	30	3	44	118	435063	434851	4e-09	61.2
HVIT002189-PA	Scaffold14	86.67	60	8	0	29	88	2323120	2322941	4e-26	112
HVIT002189-PA	Scaffold14	52.56	78	29	3	44	119	2323065	2322850	1e-10	65.9
HVIT002189-PA	Scaffold219	84.13	63	10	0	26	88	885702	885514	7e-26	112
HVIT002189-PA	Scaffold219	53.95	76	27	3	44	117	885638	885429	4e-10	64.7
HVIT002189-PA	Scaffold260	87.93	58	7	0	29	86	1292834	1293007	1e-25	111
HVIT002189-PA	Scaffold260	44.12	68	30	3	44	109	1292889	1293074	0.002	43.9
HVIT002189-PA	Scaffold892	63.44	93	28	2	29	119	22540	22274	2e-25	110
HVIT002189-PA	Scaffold2	86.67	60	8	0	30	89	2039913	2040092	2e-25	110
HVIT002189-PA	Scaffold2	50.00	74	31	1	52	119	2039959	2040180	7e-10	63.5
HVIT002189-PA	Scaffold858	80.33	61	12	0	28	88	149785	149603	1e-24	104
HVIT002189-PA	Scaffold858	92.86	14	1	0	87	100	149610	149569	1e-24	31.2
HVIT002189-PA	Scaffold858	77.78	9	2	0	100	108	149480	149454	1e-24	20.4
HVIT002189-PA	Scaffold17	87.88	33	4	0	87	119	4807733	4807635	4e-21	62.8
HVIT002189-PA	Scaffold17	53.23	62	9	2	27	88	4807851	4807726	4e-21	61.2
HVIT002189-PA	Scaffold17	35.29	85	40	3	37	111	4429261	4429500	0.030	40.4
HVIT002189-PA	Scaffold254	72.06	68	16	2	53	119	1926034	1925837	2e-18	90.1
HVIT002189-PA	Scaffold254	48.86	88	38	3	26	110	1926114	1925863	1e-12	72.8
HVIT002189-PA	Scaffold676	54.88	82	15	2	28	109	129309	129488	9e-16	82.0
HVIT002189-PA	Scaffold676	54.88	82	15	2	28	109	161954	162133	9e-16	82.0
HVIT002189-PA	Scaffold676	87.10	31	4	0	87	117	129442	129534	3e-08	58.5
HVIT002189-PA	Scaffold676	87.10	31	4	0	87	117	162087	162179	3e-08	58.5
HVIT002189-PA	Scaffold288	61.02	59	23	0	30	88	687223	687399	1e-15	73.2
HVIT002189-PA	Scaffold288	60.00	25	10	0	87	111	687392	687466	1e-15	32.3
HVIT002189-PA	Scaffold288	50.00	26	13	0	87	112	617198	617121	0.61	28.1
HVIT002189-PA	Scaffold288	42.42	33	16	1	47	79	617305	617216	0.61	26.6
HVIT002189-PA	Scaffold460	70.91	55	15	1	65	119	934461	934300	7e-15	79.3
HVIT002189-PA	Scaffold460	47.22	72	21	3	23	88	934573	934391	1e-05	50.8
HVIT002189-PA	Scaffold701	60.94	64	11	1	22	85	256932	257081	1e-13	75.5
HVIT002189-PA	Scaffold701	51.90	79	30	3	43	119	256963	257181	3e-10	64.7
HVIT002189-PA	Scaffold1578	65.00	60	21	0	29	88	72578	72757	2e-13	75.1
HVIT002189-PA	Scaffold637	94.29	35	2	0	28	62	25692	25796	4e-13	73.9
HVIT002189-PA	Scaffold33	91.18	34	3	0	29	62	2753769	2753870	2e-11	68.9
HVIT002189-PA	Scaffold194	43.84	73	27	1	16	88	473417	473241	5e-11	49.7
HVIT002189-PA	Scaffold194	62.96	27	10	0	87	113	473248	473168	5e-11	40.0
HVIT002189-PA	Scaffold68	51.56	64	31	0	30	93	1443173	1442982	4e-10	64.7
HVIT002189-PA	Scaffold95	54.69	64	26	1	47	110	3215578	3215396	4e-10	64.7
HVIT002189-PA	Scaffold223	47.95	73	35	1	39	111	2360672	2360881	6e-09	54.3
HVIT002189-PA	Scaffold223	61.90	21	8	0	26	46	2360634	2360696	6e-09	28.5
HVIT002189-PA	Scaffold215	47.46	59	31	0	28	86	1134793	1134969	5e-08	52.8
HVIT002189-PA	Scaffold215	47.62	21	11	0	87	107	1134968	1135030	5e-08	26.9
HVIT002189-PA	Scaffold30	73.08	26	7	0	29	54	1438123	1438200	5e-08	43.5
HVIT002189-PA	Scaffold30	52.50	40	12	1	60	99	1438217	1438315	5e-08	35.8
HVIT002189-PA	Scaffold182	45.71	70	24	1	19	88	914095	914262	3e-07	48.9
HVIT002189-PA	Scaffold182	63.16	19	7	0	87	105	914255	914311	3e-07	27.7
HVIT002189-PA	Scaffold1622	39.29	84	50	1	29	111	5271	5020	4e-07	55.1
HVIT002189-PA	Scaffold195	46.03	63	20	1	26	88	2481282	2481136	4e-07	49.3
HVIT002189-PA	Scaffold195	52.00	25	12	0	87	111	2481143	2481069	4e-07	27.3
HVIT002189-PA	Scaffold333	60.71	28	11	0	65	92	528219	528302	5e-07	37.0
HVIT002189-PA	Scaffold333	51.85	27	13	0	87	113	528283	528363	5e-07	33.5
HVIT002189-PA	Scaffold333	54.17	24	11	0	26	49	528152	528223	5e-07	24.3
HVIT002189-PA	Scaffold15	69.70	33	10	0	29	61	2517412	2517510	5e-07	54.7
HVIT002189-PA	Scaffold4	41.33	75	26	2	13	83	3157232	3157414	1e-06	44.7
HVIT002189-PA	Scaffold4	56.52	23	10	0	89	111	3157408	3157476	1e-06	30.4
HVIT002189-PA	Scaffold4	42.86	63	36	0	28	90	7032651	7032839	4e-05	48.9
HVIT002189-PA	Scaffold54	47.62	63	31	1	30	92	947746	947564	1e-06	53.5
HVIT002189-PA	Scaffold39	42.35	85	39	3	30	111	1546777	1546544	4e-06	52.0
HVIT002189-PA	Scaffold343	31.13	106	71	2	39	143	1742745	1742431	5e-06	51.6
HVIT002189-PA	Scaffold280	52.94	51	23	1	63	113	1575642	1575791	1e-05	42.4
HVIT002189-PA	Scaffold280	48.28	29	15	0	29	57	1575539	1575625	1e-05	28.9
HVIT002189-PA	Scaffold56488	91.30	23	2	0	29	51	1283	1351	1e-05	50.1
HVIT002189-PA	Scaffold1452	87.50	24	3	0	28	51	218336	218265	1e-05	50.4
HVIT002189-PA	Scaffold1295	56.00	25	11	0	87	111	105648	105722	7e-05	35.0
HVIT002189-PA	Scaffold1295	47.37	57	26	3	32	88	105497	105655	7e-05	33.5
HVIT002189-PA	Scaffold433	43.94	66	36	1	36	100	1785631	1785434	2e-04	46.6
HVIT002189-PA	Scaffold1127	44.07	59	27	1	30	88	376932	377090	4e-04	45.8
HVIT002189-PA	Scaffold66	45.83	48	26	0	65	112	2542315	2542458	5e-04	45.8
HVIT002189-PA	Scaffold60	45.00	60	19	1	29	88	4287874	4287737	0.001	44.7
HVIT002189-PA	Scaffold317	56.00	25	11	0	87	111	77532	77458	0.001	35.4
HVIT002189-PA	Scaffold317	40.48	42	25	0	47	88	77650	77525	0.001	28.9
HVIT002189-PA	Scaffold49	70.00	30	9	0	29	58	2220631	2220542	0.001	44.3
HVIT002189-PA	Scaffold1297	39.73	73	44	0	44	116	109190	108972	0.003	43.5
HVIT002189-PA	Scaffold93	42.19	64	37	0	48	111	232871	232680	0.004	43.1
HVIT002189-PA	Scaffold551	81.25	16	3	0	26	41	349716	349669	0.005	31.2
HVIT002189-PA	Scaffold551	36.36	44	21	2	41	81	349670	349551	0.005	30.8
HVIT002189-PA	Scaffold81	37.50	72	39	1	23	88	275945	275730	0.005	42.7
HVIT002189-PA	Scaffold137	43.33	60	30	1	29	88	1356136	1355969	0.015	41.2
HVIT002189-PA	Scaffold447	37.80	82	35	3	29	109	901380	901180	0.018	41.2
HVIT002189-PA	Scaffold84	36.36	77	44	1	41	117	338467	338682	0.019	40.8
HVIT002189-PA	Scaffold145	35.21	71	42	2	29	99	74441	74641	0.029	40.4
HVIT002189-PA	Scaffold320	39.36	94	48	4	23	113	757002	757265	0.029	40.4
HVIT002189-PA	Scaffold455	34.88	86	47	4	27	111	386749	386516	0.039	40.0
HVIT002189-PA	Scaffold246	56.52	23	10	0	27	49	1739951	1740019	0.043	32.7
HVIT002189-PA	Scaffold246	29.41	85	54	2	52	136	1740028	1740264	0.043	26.2
HVIT002189-PA	Scaffold1543	50.00	46	23	0	43	88	188209	188346	0.052	39.7
HVIT002189-PA	Scaffold1535	35.48	93	43	3	19	103	248763	248512	0.066	39.3
HVIT002189-PA	Scaffold108	58.33	24	10	0	30	53	1420851	1420780	0.069	31.2
HVIT002189-PA	Scaffold108	38.78	49	29	1	65	113	1420748	1420605	0.069	26.6
HVIT002189-PA	Scaffold173	37.35	83	44	3	29	111	821416	821640	0.073	39.3
HVIT002189-PA	Scaffold393	47.22	36	19	0	52	87	266743	266636	0.16	31.2
HVIT002189-PA	Scaffold393	40.00	25	15	0	87	111	266640	266566	0.16	25.4
HVIT002189-PA	Scaffold14585	45.65	46	22	1	43	88	767	639	0.19	38.1
HVIT002189-PA	Scaffold213	58.33	36	15	0	65	100	2133723	2133616	0.20	38.1
HVIT002189-PA	Scaffold823	80.00	15	3	0	29	43	536256	536212	0.20	30.4
HVIT002189-PA	Scaffold823	72.73	11	3	0	64	74	536195	536163	0.20	26.2
HVIT002189-PA	Scaffold167	34.33	67	35	1	56	113	954966	955166	0.20	37.7
HVIT002189-PA	Scaffold1367	48.48	33	17	0	87	119	519431	519333	0.26	37.7
HVIT002189-PA	Scaffold40	50.00	26	13	0	86	111	959786	959709	0.34	28.1
HVIT002189-PA	Scaffold40	66.67	18	6	0	28	45	959907	959854	0.34	27.3
HVIT002189-PA	Scaffold443	45.95	37	20	0	87	123	333326	333216	0.36	37.0
HVIT002189-PA	Scaffold768	40.68	59	32	2	18	73	443242	443418	0.40	37.0
HVIT002189-PA	Scaffold85	53.57	28	13	0	87	114	606549	606466	0.44	37.0
HVIT002189-PA	Scaffold85	43.48	46	26	0	29	74	713061	713198	2.9	34.3
HVIT002189-PA	Scaffold377	30.63	111	43	3	30	110	69282	68962	0.52	36.6
HVIT002189-PA	Scaffold377	52.50	40	16	1	53	92	69130	69020	0.73	36.2
HVIT002189-PA	Scaffold1	46.51	43	23	0	44	86	9274422	9274550	0.63	36.6
HVIT002189-PA	Scaffold374	29.03	93	52	3	26	116	1070165	1070407	0.67	36.2
HVIT002189-PA	Scaffold1582	45.45	44	24	0	42	85	53288	53419	1.4	35.4
HVIT002189-PA	Scaffold426	40.91	44	20	1	16	53	694542	694411	1.8	35.0
HVIT002189-PA	Scaffold609	51.28	39	15	1	62	100	303498	303602	2.6	34.7
HVIT002189-PA	Scaffold513	57.89	19	8	0	30	48	570918	570974	2.6	26.9
HVIT002189-PA	Scaffold513	57.89	19	8	0	30	48	581697	581753	2.6	26.9
HVIT002189-PA	Scaffold513	37.50	48	26	1	44	91	570958	571089	2.6	25.8
HVIT002189-PA	Scaffold513	37.50	48	26	1	44	91	581737	581868	2.6	25.8
HVIT002189-PA	Scaffold170	58.33	24	10	0	65	88	119051	118980	2.7	29.6
HVIT002189-PA	Scaffold170	37.50	24	15	0	40	63	119124	119053	2.7	22.3
HVIT002189-PA	Scaffold399	37.14	35	21	1	144	177	1402565	1402461	2.8	34.3
HVIT002189-PA	Scaffold1003	50.00	28	14	0	87	114	263728	263811	3.4	34.3
HVIT002189-PA	Scaffold88	30.12	83	51	2	29	111	2638054	2638281	4.2	33.9
HVIT002189-PA	Scaffold139	35.63	87	44	4	29	111	3167759	3167523	4.8	33.5
HVIT002189-PA	Scaffold411	56.00	25	11	0	30	54	924385	924459	7.6	33.1
HVIT002190-PA	Scaffold64	97.96	49	1	0	81	129	1702947	1702801	1e-21	101
HVIT002190-PA	Scaffold64	71.05	76	16	2	26	101	1717764	1717555	4e-21	100
HVIT002190-PA	Scaffold64	100.00	60	0	0	164	223	1701447	1701268	2e-17	88.2
HVIT002190-PA	Scaffold64	97.50	40	1	0	223	262	1700045	1699926	8e-16	83.6
HVIT002190-PA	Scaffold64	100.00	34	0	0	130	163	1702032	1701931	2e-13	75.9
HVIT002190-PA	Scaffold64	100.00	35	0	0	1	35	1734265	1734161	7e-12	70.9
