HVIT010906-PA	Scaffold108	98.81	84	1	0	1	84	2059763	2060014	1e-38	145
HVIT010906-PA	Scaffold108	81.52	92	9	1	1	84	2119688	2119963	3e-30	120
HVIT010906-PA	Scaffold108	83.33	84	13	1	1	84	2065122	2064874	2e-29	119
HVIT010906-PA	Scaffold108	83.13	83	13	1	2	84	2071862	2071617	2e-29	119
HVIT010906-PA	Scaffold108	81.36	59	11	0	26	84	2125976	2125800	7e-25	105
HVIT010906-PA	Scaffold108	69.57	92	20	1	1	84	2099419	2099694	9e-25	105
HVIT010906-PA	Scaffold108	81.36	59	11	0	26	84	2103455	2103279	2e-24	104
HVIT010906-PA	Scaffold108	74.03	77	19	1	1	77	2090908	2091135	1e-19	90.5
HVIT010906-PA	Scaffold108	88.46	26	3	0	59	84	2114090	2114013	2e-07	54.7
HVIT010906-PA	Scaffold108	88.46	26	3	0	59	84	2111062	2111139	2e-07	54.7
HVIT010906-PA	Scaffold23446	69.57	92	20	1	1	84	417	142	5e-25	105
HVIT010906-PA	Scaffold277	39.13	46	26	1	37	82	686450	686319	2.5	32.3
HVIT010908-PA	Scaffold108	100.00	56	0	0	33	88	2125967	2125800	3e-28	115
HVIT010908-PA	Scaffold108	100.00	56	0	0	33	88	2103446	2103279	3e-28	115
HVIT010908-PA	Scaffold108	87.27	55	7	0	34	88	2071781	2071617	1e-23	102
HVIT010908-PA	Scaffold108	90.74	54	5	0	35	88	2099533	2099694	2e-23	101
HVIT010908-PA	Scaffold108	87.27	55	7	0	34	88	2065038	2064874	2e-23	101
HVIT010908-PA	Scaffold108	80.36	56	11	0	33	88	2059847	2060014	2e-21	95.5
HVIT010908-PA	Scaffold108	80.36	56	11	0	33	88	2119796	2119963	4e-21	94.7
HVIT010908-PA	Scaffold108	68.75	48	15	0	34	81	2090992	2091135	5e-14	73.9
HVIT010908-PA	Scaffold108	100.00	26	0	0	63	88	2114090	2114013	9e-09	58.5
HVIT010908-PA	Scaffold108	100.00	26	0	0	63	88	2111062	2111139	9e-09	58.5
HVIT010908-PA	Scaffold23446	90.74	54	5	0	35	88	303	142	1e-23	101
HVIT010908-PA	Scaffold277	45.83	48	24	1	41	88	686450	686313	0.012	39.3
HVIT010908-PA	Scaffold277	43.75	48	25	1	41	88	775427	775290	0.39	34.7
HVIT010908-PA	Scaffold27761	38.64	44	25	1	41	84	6954	6829	1.5	33.1
HVIT010909-PA	Scaffold108	100.00	56	0	0	33	88	2125967	2125800	4e-28	115
HVIT010909-PA	Scaffold108	100.00	56	0	0	33	88	2103446	2103279	4e-28	115
HVIT010909-PA	Scaffold108	87.27	55	7	0	34	88	2071781	2071617	1e-23	102
HVIT010909-PA	Scaffold108	90.74	54	5	0	35	88	2099533	2099694	2e-23	101
HVIT010909-PA	Scaffold108	87.27	55	7	0	34	88	2065038	2064874	2e-23	101
HVIT010909-PA	Scaffold108	80.36	56	11	0	33	88	2059847	2060014	2e-21	95.5
HVIT010909-PA	Scaffold108	80.36	56	11	0	33	88	2119796	2119963	5e-21	94.7
HVIT010909-PA	Scaffold108	68.75	48	15	0	34	81	2090992	2091135	5e-14	73.9
HVIT010909-PA	Scaffold108	100.00	26	0	0	63	88	2114090	2114013	9e-09	58.5
HVIT010909-PA	Scaffold108	100.00	26	0	0	63	88	2111062	2111139	9e-09	58.5
HVIT010909-PA	Scaffold23446	90.74	54	5	0	35	88	303	142	2e-23	101
HVIT010909-PA	Scaffold277	45.83	48	24	1	41	88	686450	686313	0.012	39.3
HVIT010909-PA	Scaffold277	43.75	48	25	1	41	88	775427	775290	0.28	35.0
HVIT012924-PA	Scaffold224	86.89	61	8	0	58	118	75800	75982	2e-24	105
HVIT012924-PA	Scaffold224	100.00	25	0	0	109	133	81985	82059	2e-07	55.1
HVIT012924-PA	Scaffold224	100.00	15	0	0	1	15	70370	70414	8.5	31.6
