HVIT013060-PA	Scaffold132	100.00	73	0	0	63	135	161445	161663	9e-39	147
HVIT013060-PA	Scaffold132	100.00	61	0	0	1	61	160674	160856	4e-32	127
HVIT013060-PA	Scaffold590	70.83	96	28	0	40	135	1376790	1376503	2e-33	132
HVIT013060-PA	Scaffold590	64.29	56	20	0	66	121	1203720	1203887	1e-14	77.4
HVIT013060-PA	Scaffold590	63.46	52	18	1	10	61	1377445	1377293	1e-07	55.8
HVIT013060-PA	Scaffold590	46.94	49	26	0	73	121	946679	946533	0.001	43.1
HVIT013060-PA	Scaffold1497	93.22	59	4	0	63	121	24811	24987	3e-27	113
HVIT013060-PA	Scaffold1497	73.68	19	5	0	117	135	24975	25031	3e-27	30.0
HVIT013060-PA	Scaffold59141	76.71	73	17	0	49	121	414	196	3e-27	109
HVIT013060-PA	Scaffold130	91.53	59	5	0	63	121	328069	327893	8e-27	112
HVIT013060-PA	Scaffold130	73.68	19	5	0	117	135	327905	327849	8e-27	30.0
HVIT013060-PA	Scaffold130	78.85	52	11	0	2	53	337456	337301	8e-17	83.6
HVIT013060-PA	Scaffold913	91.53	59	5	0	63	121	317306	317130	2e-26	110
HVIT013060-PA	Scaffold913	73.68	19	5	0	117	135	317142	317086	2e-26	30.0
HVIT013060-PA	Scaffold913	63.64	55	19	1	8	61	318060	317896	6e-09	60.1
HVIT013060-PA	Scaffold913	56.60	53	22	1	2	53	318080	317922	2e-05	48.5
HVIT013060-PA	Scaffold4062	66.67	87	29	0	35	121	13925	13665	5e-26	110
HVIT013060-PA	Scaffold205	88.14	59	7	0	63	121	2189494	2189318	2e-25	108
HVIT013060-PA	Scaffold252	84.38	64	7	1	58	121	1604758	1604576	1e-24	105
HVIT013060-PA	Scaffold252	68.42	19	6	0	117	135	1604588	1604532	1e-24	28.9
HVIT013060-PA	Scaffold252	74.36	39	10	0	14	52	1648553	1648437	2e-08	58.2
HVIT013060-PA	Scaffold252	88.89	18	2	0	8	25	1648570	1648517	3.2	33.1
HVIT013060-PA	Scaffold339	88.14	59	7	0	63	121	1224598	1224422	2e-24	103
HVIT013060-PA	Scaffold339	73.68	19	5	0	117	135	1224434	1224378	2e-24	30.0
HVIT013060-PA	Scaffold339	50.50	101	41	3	8	105	1225351	1225067	7e-18	86.7
HVIT013060-PA	Scaffold44682	86.44	59	8	0	63	121	1320	1144	6e-24	103
HVIT013060-PA	Scaffold44682	93.48	46	3	0	8	53	2077	1940	3e-19	89.7
HVIT013060-PA	Scaffold3830	89.83	59	6	0	63	121	779	955	8e-24	103
HVIT013060-PA	Scaffold3830	88.89	27	3	0	9	35	3	83	1e-12	50.1
HVIT013060-PA	Scaffold3830	86.36	22	3	0	32	53	71	136	1e-12	43.5
HVIT013060-PA	Scaffold56	84.75	59	9	0	63	121	229277	229453	4e-23	100
HVIT013060-PA	Scaffold56	92.86	14	1	0	122	135	229456	229497	4e-23	29.6
HVIT013060-PA	Scaffold56	58.93	56	23	0	66	121	2141294	2141461	1e-12	71.2
HVIT013060-PA	Scaffold56	26.17	107	62	3	10	109	2140544	2140834	2.1	33.5
HVIT013060-PA	Scaffold1540	52.48	101	39	3	8	105	140735	140451	4e-19	90.1
HVIT013060-PA	Scaffold1540	82.05	39	7	0	75	113	139947	139831	2e-07	55.1
HVIT013060-PA	Scaffold1540	41.98	81	31	4	63	135	139981	139763	0.002	42.4
HVIT013060-PA	Scaffold26	91.30	46	4	0	8	53	929812	929949	3e-18	87.8
HVIT013060-PA	Scaffold84	77.78	54	12	0	67	120	371104	371265	7e-18	86.7
HVIT013060-PA	Scaffold84	53.06	49	21	1	73	121	3995210	3995350	3e-06	51.6
HVIT013060-PA	Scaffold84	63.64	22	8	0	66	87	3995187	3995252	0.65	35.0
HVIT013060-PA	Scaffold46044	93.48	46	3	0	8	53	854	991	3e-17	83.6
HVIT013060-PA	Scaffold578	63.33	60	22	0	63	122	704068	703889	2e-16	82.0
HVIT013060-PA	Scaffold578	69.57	23	7	0	99	121	494060	493992	1.5	33.9
HVIT013060-PA	Scaffold578	48.57	35	18	0	11	45	1248316	1248212	7.4	32.0
HVIT013060-PA	Scaffold239	50.00	82	41	0	40	121	7295	7050	5e-16	81.3
HVIT013060-PA	Scaffold96	64.41	59	21	0	63	121	1561365	1561189	6e-16	79.7
HVIT013060-PA	Scaffold96	34.29	35	23	0	10	44	1561543	1561439	6e-16	25.0
HVIT013060-PA	Scaffold4	62.71	59	22	0	63	121	5808457	5808281	7e-16	80.9
HVIT013060-PA	Scaffold4	86.36	22	3	0	100	121	4215303	4215238	2e-07	44.3
HVIT013060-PA	Scaffold4	66.67	18	6	0	69	86	4215364	4215311	2e-07	31.6
HVIT013060-PA	Scaffold4	25.71	105	69	3	10	111	5809215	5808919	2.1	33.5
HVIT013060-PA	Scaffold641	62.50	56	21	0	66	121	84911	84744	2e-15	79.7
HVIT013060-PA	Scaffold131	61.02	59	23	0	63	121	2218070	2217894	2e-15	79.0
HVIT013060-PA	Scaffold1184	48.78	82	42	0	40	121	204955	205200	3e-15	79.0
HVIT013060-PA	Scaffold1425	61.02	59	23	0	63	121	81191	81015	3e-15	78.6
HVIT013060-PA	Scaffold1513	48.78	82	42	0	40	121	112803	112558	4e-15	78.6
HVIT013060-PA	Scaffold194	59.32	59	24	0	63	121	2331087	2330911	4e-15	78.2
HVIT013060-PA	Scaffold194	77.27	22	5	0	100	121	478543	478608	0.008	33.9
HVIT013060-PA	Scaffold194	65.00	20	7	0	79	98	478476	478535	0.008	26.2
HVIT013060-PA	Scaffold194	44.23	52	29	0	2	53	477709	477864	8.5	32.0
HVIT013060-PA	Scaffold49	61.02	59	23	0	63	121	3421105	3421281	5e-15	78.2
HVIT013060-PA	Scaffold828	48.78	82	42	0	40	121	712470	712715	7e-15	77.8
HVIT013060-PA	Scaffold262	63.64	55	20	0	67	121	1239329	1239493	1e-14	77.4
HVIT013060-PA	Scaffold857	57.38	61	26	0	63	123	734284	734102	1e-14	77.0
HVIT013060-PA	Scaffold857	24.76	105	70	3	10	111	735024	734728	8.5	32.0
HVIT013060-PA	Scaffold61	92.11	38	3	0	84	121	3095837	3095724	1e-14	73.2
HVIT013060-PA	Scaffold61	68.42	19	6	0	117	135	3095736	3095680	1e-14	27.3
HVIT013060-PA	Scaffold20	58.33	60	25	0	63	122	5055854	5056033	1e-14	76.6
HVIT013060-PA	Scaffold20	48.84	43	19	1	63	102	778396	778524	0.35	35.8
HVIT013060-PA	Scaffold52169	59.32	59	24	0	63	121	1025	1201	2e-14	75.9
HVIT013060-PA	Scaffold32	47.56	82	43	0	40	121	3640278	3640523	2e-14	76.3
HVIT013060-PA	Scaffold2109	61.02	59	23	0	63	121	13629	13453	3e-14	75.9
HVIT013060-PA	Scaffold1141	61.02	59	23	0	63	121	20353	20529	3e-14	75.5
HVIT013060-PA	Scaffold60	46.34	82	44	0	40	121	1873647	1873892	4e-14	75.5
HVIT013060-PA	Scaffold778	60.34	58	23	0	63	120	379032	379205	7e-14	74.7
HVIT013060-PA	Scaffold110	47.56	82	43	0	40	121	70835	71080	7e-14	74.7
HVIT013060-PA	Scaffold1228	47.56	82	43	0	40	121	152055	151810	1e-13	74.3
HVIT013060-PA	Scaffold212	66.04	53	18	0	68	120	830472	830314	1e-13	73.9
HVIT013060-PA	Scaffold633	60.34	58	23	0	63	120	169018	168845	2e-13	73.6
HVIT013060-PA	Scaffold215	63.64	55	20	0	68	122	2856894	2856730	2e-13	73.6
HVIT013060-PA	Scaffold695	94.74	38	2	0	8	45	295688	295575	2e-13	73.6
HVIT013060-PA	Scaffold142	46.34	82	44	0	40	121	1370043	1369798	2e-12	70.9
HVIT013060-PA	Scaffold9605	43.10	116	56	5	3	114	3989	4318	2e-12	70.1
HVIT013060-PA	Scaffold793	61.82	55	21	0	67	121	154796	154960	3e-12	69.7
HVIT013060-PA	Scaffold2346	60.38	53	21	0	68	120	151957	152115	7e-12	68.9
HVIT013060-PA	Scaffold434	58.18	55	23	0	63	117	449496	449660	7e-12	68.9
HVIT013060-PA	Scaffold4227	44.44	81	45	0	40	120	17288	17046	1e-11	68.2
HVIT013060-PA	Scaffold409	57.63	59	23	1	63	121	1670027	1669857	3e-11	67.0
HVIT013060-PA	Scaffold700	57.63	59	21	1	63	121	37734	37898	9e-11	65.5
HVIT013060-PA	Scaffold2173	55.93	59	26	0	63	121	352004	351828	1e-10	65.1
HVIT013060-PA	Scaffold9868	77.50	40	9	0	14	53	13868	13749	1e-10	65.1
HVIT013060-PA	Scaffold9868	64.29	28	10	0	8	35	13885	13802	0.75	34.7
HVIT013060-PA	Scaffold42056	42.42	99	46	5	14	107	505	227	4e-09	59.3
HVIT013060-PA	Scaffold42056	77.27	22	5	0	8	29	522	457	0.50	35.0
HVIT013060-PA	Scaffold44193	47.46	59	31	0	63	121	1568	1392	6e-09	59.3
HVIT013060-PA	Scaffold18015	64.15	53	18	1	10	62	435	590	2e-08	58.2
HVIT013060-PA	Scaffold18015	85.71	21	3	0	33	53	499	561	0.018	39.3
HVIT013060-PA	Scaffold625	57.45	47	20	0	66	112	292688	292548	4e-08	57.4
HVIT013060-PA	Scaffold253	59.18	49	19	1	73	121	1474221	1474078	5e-08	57.0
HVIT013060-PA	Scaffold2287	53.33	45	21	0	67	111	10574	10440	5e-08	57.0
HVIT013060-PA	Scaffold95	55.56	45	20	0	67	111	2864909	2865043	6e-08	56.6
HVIT013060-PA	Scaffold34258	56.36	55	24	0	67	121	4134	3970	2e-07	54.7
HVIT013060-PA	Scaffold870	50.85	59	29	0	63	121	288966	289142	4e-07	53.9
HVIT013060-PA	Scaffold870	38.78	49	30	0	21	69	288240	288386	3.9	32.7
HVIT013060-PA	Scaffold1042	50.00	54	25	1	21	74	129523	129368	5e-07	53.5
HVIT013060-PA	Scaffold1042	72.73	22	6	0	8	29	129561	129496	2.1	33.5
HVIT013060-PA	Scaffold178	64.29	42	15	0	80	121	770551	770676	7e-07	53.1
HVIT013060-PA	Scaffold71	42.37	59	34	0	63	121	2988927	2989103	9e-07	52.8
HVIT013060-PA	Scaffold27	100.00	20	0	0	102	121	1590028	1589969	1e-06	43.5
HVIT013060-PA	Scaffold27	73.68	19	5	0	117	135	1589981	1589925	1e-06	30.0
HVIT013060-PA	Scaffold193	36.19	105	57	2	21	120	629863	630162	1e-06	52.8
HVIT013060-PA	Scaffold44	62.86	35	13	0	87	121	224972	225076	1e-05	49.3
HVIT013060-PA	Scaffold901	56.10	41	18	0	81	121	742634	742512	3e-05	48.1
HVIT013060-PA	Scaffold66	52.17	46	21	1	63	108	1353779	1353913	5e-05	47.4
HVIT013060-PA	Scaffold1367	48.15	54	28	0	68	121	201116	201277	1e-04	46.6
HVIT013060-PA	Scaffold1483	56.82	44	19	0	10	53	37432	37563	1e-04	46.2
HVIT013060-PA	Scaffold82	89.47	19	2	0	103	121	3478	3422	3e-04	38.9
HVIT013060-PA	Scaffold82	46.43	28	15	0	74	101	3564	3481	3e-04	26.2
HVIT013060-PA	Scaffold82	50.00	36	18	0	66	101	7738	7631	0.013	40.0
HVIT013060-PA	Scaffold204	48.78	41	21	0	81	121	1857990	1858112	3e-04	45.1
HVIT013060-PA	Scaffold36	53.33	45	21	0	76	120	2127000	2127134	4e-04	44.7
HVIT013060-PA	Scaffold844	90.00	20	2	0	34	53	282551	282492	9e-04	39.3
HVIT013060-PA	Scaffold844	75.00	12	3	0	50	61	282501	282466	9e-04	24.3
HVIT013060-PA	Scaffold45	46.81	47	25	0	74	120	2061627	2061487	0.002	42.7
HVIT013060-PA	Scaffold6	59.09	22	9	0	68	89	1980001	1980066	0.005	31.6
HVIT013060-PA	Scaffold6	54.55	22	10	0	100	121	1980095	1980160	0.005	28.9
HVIT013060-PA	Scaffold64	70.83	24	7	0	98	121	3139405	3139476	0.029	38.9
HVIT013060-PA	Scaffold316	100.00	17	0	0	67	83	1163215	1163165	0.044	38.5
HVIT013060-PA	Scaffold316	47.06	34	18	0	69	102	1152068	1152169	0.61	35.0
HVIT013060-PA	Scaffold42	50.00	20	10	0	104	123	3360532	3360473	0.074	29.3
HVIT013060-PA	Scaffold42	47.06	34	18	0	69	102	3360636	3360535	0.074	26.9
HVIT013060-PA	Scaffold92	80.00	15	3	0	69	83	1244428	1244472	0.28	30.0
HVIT013060-PA	Scaffold92	85.71	14	2	0	107	120	1244534	1244575	0.28	24.3
HVIT013060-PA	Scaffold3131	47.22	36	19	0	9	44	65984	65877	0.40	35.4
HVIT013060-PA	Scaffold3131	47.22	36	19	0	9	44	60727	60620	0.40	35.4
HVIT013060-PA	Scaffold3131	51.72	29	14	0	9	37	41794	41708	3.1	33.1
HVIT013060-PA	Scaffold81	34.62	52	34	0	70	121	733278	733433	0.80	34.7
HVIT013060-PA	Scaffold465	65.00	20	7	0	102	121	584928	584987	0.83	34.7
HVIT013060-PA	Scaffold465	44.12	34	19	0	85	118	750529	750630	8.2	32.0
HVIT013060-PA	Scaffold4130	48.65	37	19	0	99	135	8868	8978	0.89	34.7
HVIT013060-PA	Scaffold1525	44.68	47	25	1	75	120	68147	68007	1.2	34.3
HVIT013060-PA	Scaffold839	43.59	39	22	0	63	101	550303	550187	1.7	33.9
HVIT013060-PA	Scaffold28	51.35	37	18	0	87	123	4865253	4865143	2.9	33.1
HVIT013060-PA	Scaffold4959	50.00	34	13	1	59	88	40460	40561	4.1	32.7
HVIT013060-PA	Scaffold1461	50.00	34	13	1	59	88	180201	180302	4.1	32.7
HVIT013060-PA	Scaffold208	47.37	38	20	0	13	50	90714	90827	5.2	32.3
HVIT013060-PA	Scaffold334	50.00	28	14	0	94	121	605736	605819	7.3	32.0
HVIT013060-PA	Scaffold405	46.88	32	17	0	68	99	854879	854784	9.6	31.6
HVIT017153-PA	Scaffold759	98.68	76	1	0	1	76	390106	389879	2e-42	156
HVIT017153-PA	Scaffold759	100.00	33	0	0	75	107	384752	384654	2e-11	66.2
HVIT017153-PA	Scaffold759	38.10	42	26	0	32	73	519641	519766	5.4	31.6
HVIT017153-PA	Scaffold53	68.67	83	26	0	3	85	3194048	3194296	1e-29	119
HVIT017153-PA	Scaffold53	30.14	73	48	1	1	73	995154	994945	0.31	35.0
HVIT017153-PA	Scaffold2	76.39	72	17	0	3	74	7688387	7688602	6e-29	117
HVIT017153-PA	Scaffold2	31.51	73	47	1	1	73	7292842	7293051	0.001	42.4
HVIT017153-PA	Scaffold2	33.33	81	45	2	7	82	8380127	8380357	0.69	33.9
HVIT017153-PA	Scaffold2	25.32	79	56	1	3	81	3253381	3253608	1.7	32.7
HVIT017153-PA	Scaffold2	31.94	72	44	2	3	73	9083243	9083446	4.2	31.6
HVIT017153-PA	Scaffold460	70.73	82	23	1	3	84	614976	615218	6e-29	117
HVIT017153-PA	Scaffold460	30.14	73	48	1	1	73	33420	33211	0.008	40.0
HVIT017153-PA	Scaffold460	40.00	60	32	2	3	62	1014986	1015153	0.11	36.6
HVIT017153-PA	Scaffold543	71.43	77	22	0	8	84	545276	545506	4e-28	115
HVIT017153-PA	Scaffold543	65.22	46	16	0	39	84	563631	563768	3e-16	68.2
HVIT017153-PA	Scaffold543	78.95	19	4	0	9	27	563564	563620	3e-16	37.7
HVIT017153-PA	Scaffold512	65.85	82	28	0	3	84	674501	674256	5e-28	114
HVIT017153-PA	Scaffold512	27.78	72	49	1	1	72	1347585	1347791	0.12	36.2
HVIT017153-PA	Scaffold723	76.39	72	17	0	3	74	88729	88514	1e-27	113
HVIT017153-PA	Scaffold723	36.67	60	34	2	3	62	845713	845546	0.19	35.8
HVIT017153-PA	Scaffold866	65.06	83	28	1	3	85	620953	620708	2e-26	110
HVIT017153-PA	Scaffold866	38.00	50	27	2	13	62	794151	794014	6.3	31.2
HVIT017153-PA	Scaffold866	26.26	99	62	2	3	93	162954	163241	7.6	31.2
HVIT017153-PA	Scaffold445	77.78	72	15	1	3	74	96115	95903	1e-25	108
HVIT017153-PA	Scaffold777	65.82	79	27	0	7	85	124220	124456	2e-25	107
HVIT017153-PA	Scaffold777	31.08	74	44	3	1	73	1037088	1036885	1.2	33.5
HVIT017153-PA	Scaffold61	60.24	83	33	0	3	85	33751	33503	1e-23	102
HVIT017153-PA	Scaffold61	31.51	73	47	1	1	73	1339268	1339059	0.006	40.4
HVIT017153-PA	Scaffold61	28.36	67	47	1	3	69	3470977	3470780	1.2	33.5
HVIT017153-PA	Scaffold108	68.06	72	23	0	3	74	1810454	1810239	2e-23	101
HVIT017153-PA	Scaffold384	70.67	75	18	1	8	82	1107427	1107639	2e-22	98.6
HVIT017153-PA	Scaffold754	69.12	68	21	0	15	82	370700	370497	3e-22	98.2
HVIT017153-PA	Scaffold754	35.00	60	35	2	3	62	734666	734499	0.15	35.8
HVIT017153-PA	Scaffold754	38.30	47	25	2	16	62	574100	574228	2.3	32.3
HVIT017153-PA	Scaffold13298	65.06	83	25	1	3	85	155	391	3e-22	97.8
HVIT017153-PA	Scaffold5068	65.06	83	25	1	3	85	24216	23980	3e-22	97.8
HVIT017153-PA	Scaffold3	60.26	78	31	0	7	84	5246786	5246553	6e-22	97.4
HVIT017153-PA	Scaffold3	31.25	80	50	2	3	81	1488844	1488617	0.25	35.4
HVIT017153-PA	Scaffold3	34.55	55	32	2	8	62	4649502	4649654	1.0	33.5
HVIT017153-PA	Scaffold361	68.33	60	19	0	25	84	107036	107215	6e-22	83.6
HVIT017153-PA	Scaffold361	90.00	20	2	0	8	27	106986	107045	6e-22	41.6
HVIT017153-PA	Scaffold361	38.46	52	28	2	11	62	1213369	1213512	3.3	32.0
HVIT017153-PA	Scaffold2802	71.64	67	19	0	8	74	1812	2012	9e-22	96.7
HVIT017153-PA	Scaffold2802	63.64	44	16	0	3	46	20668	20799	1e-13	57.8
HVIT017153-PA	Scaffold2802	47.37	38	20	0	48	85	20804	20917	1e-13	39.7
HVIT017153-PA	Scaffold916	59.04	83	33	1	3	84	177548	177796	4e-21	94.7
HVIT017153-PA	Scaffold177	57.30	89	31	1	12	93	496687	496421	5e-21	94.7
HVIT017153-PA	Scaffold60	62.71	59	22	0	26	84	4328098	4328274	1e-19	79.0
HVIT017153-PA	Scaffold60	62.96	27	10	0	3	29	4328028	4328108	1e-19	38.5
HVIT017153-PA	Scaffold60	32.10	81	46	2	7	82	3273350	3273580	1.6	33.1
HVIT017153-PA	Scaffold60	24.72	89	63	2	12	100	1955972	1956226	3.8	32.0
HVIT017153-PA	Scaffold60	30.14	73	46	3	3	74	935407	935201	8.8	30.8
HVIT017153-PA	Scaffold1560	64.29	70	23	1	4	73	435601	435398	2e-19	89.7
HVIT017153-PA	Scaffold334	66.67	48	16	0	37	84	343145	343288	2e-19	73.2
HVIT017153-PA	Scaffold334	71.43	28	8	0	3	30	343054	343137	2e-19	43.1
HVIT017153-PA	Scaffold334	38.00	50	27	2	13	62	1986777	1986914	0.42	34.7
HVIT017153-PA	Scaffold11110	72.00	50	14	0	3	52	10794	10645	4e-19	77.0
HVIT017153-PA	Scaffold11110	68.00	25	8	0	50	74	10661	10587	4e-19	38.9
HVIT017153-PA	Scaffold59	56.76	74	32	0	12	85	2440790	2440569	5e-19	89.0
HVIT017153-PA	Scaffold59	52.11	71	31	1	12	82	1044967	1044764	4e-13	71.6
HVIT017153-PA	Scaffold59	31.51	73	47	1	1	73	2384094	2383885	0.004	41.2
HVIT017153-PA	Scaffold59	27.78	72	49	1	3	74	2110803	2111009	1.8	32.7
HVIT017153-PA	Scaffold59	38.46	52	28	2	11	62	2543807	2543664	7.5	31.2
HVIT017153-PA	Scaffold1	58.82	68	28	0	3	70	6264116	6264319	8e-19	88.2
HVIT017153-PA	Scaffold1	41.03	39	22	1	32	70	2295070	2295183	0.75	33.9
HVIT017153-PA	Scaffold46	67.35	49	15	1	8	56	111160	111303	4e-18	70.9
HVIT017153-PA	Scaffold46	54.55	33	15	0	54	86	111294	111392	4e-18	41.6
HVIT017153-PA	Scaffold46	37.29	59	32	2	16	73	3587058	3587222	0.26	35.4
HVIT017153-PA	Scaffold46	40.00	50	27	2	12	61	771385	771245	1.2	33.1
HVIT017153-PA	Scaffold544	80.43	46	8	1	27	72	20472	20338	1e-17	73.9
HVIT017153-PA	Scaffold544	60.00	25	10	0	3	27	20543	20469	1e-17	37.0
HVIT017153-PA	Scaffold1291	72.50	40	11	0	3	42	109440	109321	1e-17	63.2
HVIT017153-PA	Scaffold1291	70.00	30	9	0	44	73	109318	109229	1e-17	47.8
HVIT017153-PA	Scaffold28	53.66	82	35	1	3	84	5610251	5610015	1e-17	84.7
HVIT017153-PA	Scaffold28	28.43	102	66	2	3	100	133409	133113	0.072	37.0
HVIT017153-PA	Scaffold28	29.33	75	50	1	1	75	2425220	2425005	0.48	34.7
HVIT017153-PA	Scaffold28	32.10	81	46	2	7	82	5348664	5348894	1.0	33.5
HVIT017153-PA	Scaffold28	28.71	101	52	3	3	87	5170253	5170543	4.2	31.6
HVIT017153-PA	Scaffold28	32.43	37	25	0	37	73	4667445	4667555	6.2	31.2
HVIT017153-PA	Scaffold28	31.03	58	36	2	13	70	979565	979726	10.0	30.8
HVIT017153-PA	Scaffold91	66.67	54	17	1	31	84	1823889	1824047	3e-17	70.5
HVIT017153-PA	Scaffold91	65.22	23	8	0	3	25	1823794	1823862	3e-17	38.9
HVIT017153-PA	Scaffold91	28.77	73	49	1	1	73	1036442	1036651	0.012	39.3
HVIT017153-PA	Scaffold91	30.91	55	34	2	15	69	921286	921438	1.4	33.1
HVIT017153-PA	Scaffold752	59.46	74	28	2	12	85	661003	661218	3e-17	83.6
HVIT017153-PA	Scaffold33	77.14	35	8	0	3	37	4180426	4180530	7e-17	57.8
HVIT017153-PA	Scaffold33	71.43	35	9	1	40	74	4180530	4180631	7e-17	50.4
HVIT017153-PA	Scaffold33	31.08	74	46	2	1	73	3380894	3380685	0.036	38.1
HVIT017153-PA	Scaffold33	32.88	73	44	3	3	74	4280020	4280226	0.14	36.2
HVIT017153-PA	Scaffold462	51.22	82	40	0	3	84	30032	29787	4e-16	80.1
HVIT017153-PA	Scaffold457	64.41	59	21	0	8	66	326160	326336	8e-16	79.3
HVIT017153-PA	Scaffold34368	66.07	56	19	0	29	84	1326	1159	8e-16	79.0
HVIT017153-PA	Scaffold37019	52.86	70	33	0	16	85	3235	3444	1e-15	78.6
HVIT017153-PA	Scaffold499	63.49	63	23	0	5	67	495468	495280	2e-15	78.6
HVIT017153-PA	Scaffold499	71.43	21	6	0	54	74	495326	495264	0.055	37.4
HVIT017153-PA	Scaffold109	54.32	81	33	2	3	82	2689242	2689009	2e-15	78.6
HVIT017153-PA	Scaffold438	62.00	50	19	0	3	52	645020	644871	7e-15	63.5
HVIT017153-PA	Scaffold438	68.00	25	8	0	50	74	644887	644813	7e-15	37.7
HVIT017153-PA	Scaffold4864	68.63	51	16	0	23	73	42745	42593	3e-14	74.7
HVIT017153-PA	Scaffold2173	67.31	52	17	0	3	54	138263	138108	3e-13	72.0
HVIT017153-PA	Scaffold6237	73.17	41	11	0	26	66	32950	32828	3e-13	66.6
HVIT017153-PA	Scaffold6237	85.71	14	2	0	17	30	32978	32937	3e-13	29.3
HVIT017153-PA	Scaffold4722	62.86	35	13	0	17	51	15202	15098	2e-12	50.8
HVIT017153-PA	Scaffold4722	54.55	33	15	0	52	84	15096	14998	2e-12	42.4
HVIT017153-PA	Scaffold215	74.42	43	8	1	19	61	1695312	1695431	4e-11	65.5
HVIT017153-PA	Scaffold215	28.77	73	49	1	1	73	385253	385044	0.16	35.8
HVIT017153-PA	Scaffold215	30.00	80	51	3	3	81	82450	82677	0.38	34.7
HVIT017153-PA	Scaffold5114	62.50	40	15	0	7	46	607	488	9e-11	48.5
HVIT017153-PA	Scaffold5114	48.65	37	19	0	48	84	498	388	9e-11	38.9
HVIT017153-PA	Scaffold5114	51.11	45	17	1	40	84	30119	30000	2e-10	43.5
HVIT017153-PA	Scaffold5114	65.71	35	12	0	3	37	30219	30115	2e-10	42.7
HVIT017153-PA	Scaffold49059	58.18	55	13	1	10	64	1014	880	1e-10	62.8
HVIT017153-PA	Scaffold210	80.77	26	5	0	31	56	1070549	1070472	3e-10	48.5
HVIT017153-PA	Scaffold210	53.33	30	14	0	3	32	1070629	1070540	3e-10	37.4
HVIT017153-PA	Scaffold71	50.00	70	27	2	1	70	1408696	1408511	4e-10	62.8
HVIT017153-PA	Scaffold71	31.51	73	47	1	1	73	442359	442568	0.010	39.7
HVIT017153-PA	Scaffold71	34.04	47	30	1	23	69	2603330	2603467	3.6	32.0
HVIT017153-PA	Scaffold826	58.18	55	13	1	10	64	290182	290316	2e-09	60.8
HVIT017153-PA	Scaffold826	47.37	19	10	0	66	84	290321	290377	2e-09	22.3
HVIT017153-PA	Scaffold362	72.73	44	12	0	3	46	281974	282105	5e-09	59.3
HVIT017153-PA	Scaffold362	48.84	43	21	1	43	84	282078	282206	0.009	40.0
HVIT017153-PA	Scaffold268	63.64	44	16	0	14	57	59153	59284	1e-08	57.8
HVIT017153-PA	Scaffold268	44.68	47	19	1	43	82	59224	59364	0.063	37.4
HVIT017153-PA	Scaffold48992	60.00	45	15	1	27	68	1639	1505	3e-08	56.6
HVIT017153-PA	Scaffold66	57.45	47	13	1	24	63	1356331	1356191	3e-08	48.9
HVIT017153-PA	Scaffold66	92.31	13	1	0	8	20	1356377	1356339	3e-08	26.2
HVIT017153-PA	Scaffold66	47.37	19	10	0	66	84	1356183	1356127	3e-08	22.3
HVIT017153-PA	Scaffold66	32.88	73	46	1	1	73	81704	81913	4e-04	44.3
HVIT017153-PA	Scaffold66	29.58	71	47	1	3	73	1945528	1945325	0.62	34.3
HVIT017153-PA	Scaffold2061	44.58	83	41	1	2	84	52101	51868	3e-08	56.6
HVIT017153-PA	Scaffold141	48.89	45	23	0	38	82	1594422	1594556	5e-07	48.1
HVIT017153-PA	Scaffold141	53.33	15	7	0	15	29	1594361	1594405	5e-07	26.2
HVIT017153-PA	Scaffold141	71.43	28	8	0	8	35	1616178	1616261	2e-04	45.4
HVIT017153-PA	Scaffold3583	62.16	37	14	0	48	84	19352	19462	6e-07	52.8
HVIT017153-PA	Scaffold1752	63.41	41	15	0	34	74	116225	116347	9e-07	52.4
HVIT017153-PA	Scaffold1522	58.82	51	21	0	24	74	24467	24315	1e-06	52.0
HVIT017153-PA	Scaffold219	50.00	44	22	0	38	81	2984812	2984943	2e-06	51.6
HVIT017153-PA	Scaffold219	33.73	83	49	3	7	88	525211	524978	0.37	34.7
HVIT017153-PA	Scaffold219	26.83	82	57	1	2	83	1544863	1544627	0.46	34.7
HVIT017153-PA	Scaffold219	35.48	62	35	2	13	73	2078779	2078952	1.8	32.7
HVIT017153-PA	Scaffold17018	66.67	42	13	1	34	74	170	295	3e-06	50.8
HVIT017153-PA	Scaffold17018	52.78	36	17	0	8	43	96	203	9.0	30.8
HVIT017153-PA	Scaffold1461	66.67	42	13	1	34	74	95144	95269	3e-06	50.8
HVIT017153-PA	Scaffold5541	70.83	24	7	0	25	48	16227	16298	3e-05	34.7
HVIT017153-PA	Scaffold5541	87.50	16	2	0	59	74	16328	16375	3e-05	34.3
HVIT017153-PA	Scaffold838	31.51	73	47	1	1	73	238302	238093	2e-04	45.4
HVIT017153-PA	Scaffold3366	55.88	34	15	0	18	51	21367	21468	2e-04	38.9
HVIT017153-PA	Scaffold3366	52.38	21	10	0	61	81	21473	21535	2e-04	26.9
HVIT017153-PA	Scaffold58528	29.70	101	61	3	1	95	338	628	5e-04	43.1
HVIT017153-PA	Scaffold1973	35.71	70	39	3	5	73	8665	8859	7e-04	43.5
HVIT017153-PA	Scaffold82	31.51	73	47	1	1	73	811263	811054	7e-04	43.5
HVIT017153-PA	Scaffold82	31.51	73	47	2	1	73	73435	73644	0.26	35.4
HVIT017153-PA	Scaffold53934	32.88	73	45	2	1	73	1031	825	8e-04	42.7
HVIT017153-PA	Scaffold246	30.34	89	53	2	1	83	1975091	1975348	8e-04	43.1
HVIT017153-PA	Scaffold102	32.88	73	46	1	1	73	2045706	2045915	9e-04	43.1
HVIT017153-PA	Scaffold49223	32.88	73	45	2	1	73	431	637	0.001	42.7
HVIT017153-PA	Scaffold343	36.49	74	42	2	1	73	1041838	1041629	0.001	42.7
HVIT017153-PA	Scaffold343	36.00	50	28	2	15	64	141491	141354	8.6	30.8
HVIT017153-PA	Scaffold233	32.88	73	46	1	1	73	1880102	1880311	0.001	42.7
HVIT017153-PA	Scaffold371	31.51	73	47	1	1	73	583795	583586	0.001	42.7
HVIT017153-PA	Scaffold371	29.17	72	48	1	1	72	559707	559913	0.015	39.3
HVIT017153-PA	Scaffold409	31.08	74	48	1	2	75	646071	646283	0.002	42.0
HVIT017153-PA	Scaffold409	33.33	57	34	2	13	69	632812	632654	0.75	33.9
HVIT017153-PA	Scaffold8427	31.08	74	48	1	1	74	8322	8534	0.002	41.6
HVIT017153-PA	Scaffold871	36.67	60	38	0	25	84	594110	593931	0.002	41.6
HVIT017153-PA	Scaffold2730	33.33	81	45	2	7	82	7399	7169	0.003	41.6
HVIT017153-PA	Scaffold170	31.51	73	47	1	1	73	3174411	3174620	0.003	41.6
HVIT017153-PA	Scaffold170	29.17	72	48	1	3	74	1624214	1624008	1.4	33.1
HVIT017153-PA	Scaffold688	31.94	72	46	1	1	72	357218	357424	0.003	41.6
HVIT017153-PA	Scaffold1547	32.88	73	46	1	1	73	153190	153399	0.003	41.2
HVIT017153-PA	Scaffold1095	30.14	73	48	1	1	73	202182	201973	0.003	41.2
HVIT017153-PA	Scaffold693	31.51	73	47	1	1	73	11115	11324	0.003	41.2
HVIT017153-PA	Scaffold693	38.00	50	27	2	13	62	1286259	1286396	2.0	32.7
HVIT017153-PA	Scaffold92	31.51	73	47	1	1	73	747617	747826	0.005	40.8
HVIT017153-PA	Scaffold99	31.51	73	47	1	1	73	1067395	1067186	0.005	40.4
HVIT017153-PA	Scaffold110	31.51	73	47	1	1	73	1147660	1147451	0.005	40.4
HVIT017153-PA	Scaffold110	32.53	83	50	3	7	88	1248595	1248362	8.6	30.8
HVIT017153-PA	Scaffold9	31.51	73	47	1	1	73	1119931	1120140	0.006	40.4
HVIT017153-PA	Scaffold9	31.51	73	47	1	1	73	1128997	1129206	0.006	40.4
HVIT017153-PA	Scaffold9	40.00	50	26	2	13	62	5330039	5329902	0.66	34.3
HVIT017153-PA	Scaffold907	26.92	104	69	3	3	106	298836	298546	0.006	40.4
HVIT017153-PA	Scaffold907	29.89	87	49	4	13	91	493695	493943	1.2	33.5
HVIT017153-PA	Scaffold131	31.51	73	47	1	1	73	1463297	1463088	0.006	40.4
HVIT017153-PA	Scaffold4	31.51	73	47	1	1	73	3248287	3248496	0.006	40.4
HVIT017153-PA	Scaffold4	34.72	72	42	2	11	81	4513643	4513846	0.22	35.4
HVIT017153-PA	Scaffold4	35.90	39	25	0	35	73	3141897	3141781	0.40	27.3
HVIT017153-PA	Scaffold4	38.71	31	16	1	1	28	3141988	3141896	0.40	26.2
HVIT017153-PA	Scaffold4	31.25	80	43	4	12	90	3240189	3240395	0.52	34.3
HVIT017153-PA	Scaffold4	30.14	73	46	2	3	74	3057048	3056842	7.6	31.2
HVIT017153-PA	Scaffold755	31.51	73	47	1	1	73	424935	425144	0.006	40.4
HVIT017153-PA	Scaffold212	29.73	74	49	1	2	75	790803	791015	0.006	40.4
HVIT017153-PA	Scaffold57	32.43	74	45	2	1	73	2522917	2523126	0.007	40.0
HVIT017153-PA	Scaffold57	30.14	73	48	1	1	73	1852096	1851887	0.053	37.4
HVIT017153-PA	Scaffold556	30.14	73	48	1	1	73	841025	841234	0.007	40.0
HVIT017153-PA	Scaffold27243	31.51	73	47	1	1	73	1921	2130	0.007	40.0
HVIT017153-PA	Scaffold684	31.51	73	47	1	1	73	65858	65649	0.008	40.0
HVIT017153-PA	Scaffold850	35.38	65	36	2	11	74	253491	253312	0.012	39.3
HVIT017153-PA	Scaffold766	30.14	73	48	1	1	73	160545	160754	0.013	39.3
HVIT017153-PA	Scaffold90	28.57	56	40	0	11	66	2539682	2539515	0.015	39.3
HVIT017153-PA	Scaffold1155	30.14	73	48	1	1	73	251508	251299	0.018	38.9
HVIT017153-PA	Scaffold42	30.14	73	48	1	1	73	987939	987730	0.018	38.9
HVIT017153-PA	Scaffold42	40.35	57	30	2	11	67	3301973	3301815	0.13	36.2
HVIT017153-PA	Scaffold23	28.79	66	44	1	8	73	1381224	1381036	0.020	38.9
HVIT017153-PA	Scaffold794	30.14	73	48	1	1	73	19985	19776	0.020	38.9
HVIT017153-PA	Scaffold562	32.43	74	45	3	1	73	176157	175948	0.021	38.5
HVIT017153-PA	Scaffold157	31.08	74	46	3	1	73	1898961	1898752	0.022	38.5
HVIT017153-PA	Scaffold7	32.43	74	45	2	1	73	4100778	4100569	0.023	38.5
HVIT017153-PA	Scaffold217	26.83	82	57	1	8	89	609148	609384	0.026	38.5
HVIT017153-PA	Scaffold217	38.30	47	27	2	28	73	1529274	1529137	0.46	34.7
HVIT017153-PA	Scaffold217	25.84	89	63	1	3	91	1849534	1849277	4.1	32.0
HVIT017153-PA	Scaffold260	28.77	73	49	1	1	73	1289809	1289600	0.027	38.5
HVIT017153-PA	Scaffold5	30.14	73	48	1	1	73	282441	282650	0.033	38.1
HVIT017153-PA	Scaffold303	32.79	61	41	0	8	68	2641870	2642052	0.034	38.1
HVIT017153-PA	Scaffold303	31.51	73	45	3	3	74	2725384	2725590	0.65	34.3
HVIT017153-PA	Scaffold303	30.00	80	50	3	11	90	1737177	1737398	6.1	31.2
HVIT017153-PA	Scaffold45	38.00	50	28	1	13	62	1473956	1473816	0.034	38.1
HVIT017153-PA	Scaffold45	37.74	53	29	2	11	63	2150913	2150767	1.7	32.7
HVIT017153-PA	Scaffold242	28.77	73	49	1	1	73	796319	796528	0.038	37.7
HVIT017153-PA	Scaffold259	32.86	70	42	2	15	83	617508	617311	0.042	37.7
HVIT017153-PA	Scaffold990	34.92	63	36	3	2	63	307403	307227	0.043	37.7
HVIT017153-PA	Scaffold139	46.00	50	23	2	13	62	1722986	1723123	0.046	37.7
HVIT017153-PA	Scaffold139	33.90	59	33	1	21	73	2236131	2235955	0.26	35.4
HVIT017153-PA	Scaffold6303	71.43	21	6	0	46	66	441	503	0.049	37.4
HVIT017153-PA	Scaffold366	38.33	60	33	2	3	62	843451	843618	0.051	37.4
HVIT017153-PA	Scaffold95	39.29	56	30	2	13	68	275271	275116	0.061	37.4
HVIT017153-PA	Scaffold193	28.77	73	49	1	1	73	1904207	1903998	0.064	37.4
HVIT017153-PA	Scaffold193	30.00	80	51	3	3	81	1777155	1776928	0.100	36.6
HVIT017153-PA	Scaffold193	25.93	108	73	4	3	107	1768626	1768315	0.17	35.8
HVIT017153-PA	Scaffold306	40.00	50	26	2	13	62	352461	352324	0.064	37.4
HVIT017153-PA	Scaffold792	35.80	81	43	3	7	82	335155	334925	0.069	37.0
HVIT017153-PA	Scaffold204	28.77	73	49	1	1	73	2077389	2077180	0.076	37.0
HVIT017153-PA	Scaffold7465	35.14	74	42	3	1	73	12664	12458	0.078	37.0
HVIT017153-PA	Scaffold52	28.77	73	49	1	1	73	3212904	3212695	0.081	37.0
HVIT017153-PA	Scaffold16	31.51	73	47	1	1	73	3547129	3546920	0.087	36.6
HVIT017153-PA	Scaffold16	31.94	72	44	2	11	81	3802880	3803083	1.1	33.5
HVIT017153-PA	Scaffold27	30.88	68	42	2	4	70	436381	436572	0.089	36.6
HVIT017153-PA	Scaffold27	33.33	66	41	1	8	73	2272598	2272410	0.30	35.0
HVIT017153-PA	Scaffold24829	33.87	62	37	2	8	69	275	448	0.092	36.6
HVIT017153-PA	Scaffold4331	34.57	81	44	2	7	82	75049	75279	0.094	36.6
HVIT017153-PA	Scaffold351	28.77	73	49	1	1	73	703762	703553	0.099	36.6
HVIT017153-PA	Scaffold213	36.67	60	34	2	3	62	811984	811817	0.10	36.6
HVIT017153-PA	Scaffold213	33.75	80	44	3	8	82	111273	111500	0.35	35.0
HVIT017153-PA	Scaffold213	30.00	80	51	2	3	81	2113080	2113307	0.79	33.9
HVIT017153-PA	Scaffold145	30.14	73	48	1	1	73	4525839	4526048	0.11	36.6
HVIT017153-PA	Scaffold145	27.85	79	54	1	3	81	1002432	1002205	1.4	33.1
HVIT017153-PA	Scaffold88	38.00	50	27	2	13	62	2630875	2630738	0.12	36.2
HVIT017153-PA	Scaffold65	30.77	65	41	1	8	72	241256	241074	0.13	36.2
HVIT017153-PA	Scaffold65	29.17	72	48	1	1	72	89544	89750	0.43	34.7
HVIT017153-PA	Scaffold127	29.17	72	49	1	3	74	718979	718770	0.15	36.2
HVIT017153-PA	Scaffold127	34.92	63	34	3	11	70	1195303	1195479	0.86	33.9
HVIT017153-PA	Scaffold372	27.40	73	50	1	1	73	225448	225657	0.15	36.2
HVIT017153-PA	Scaffold929	28.77	73	49	1	1	73	351013	350804	0.16	35.8
HVIT017153-PA	Scaffold8154	30.00	60	39	1	3	62	8556	8386	0.16	35.8
HVIT017153-PA	Scaffold682	31.25	80	49	3	11	90	447149	447370	0.16	35.8
HVIT017153-PA	Scaffold271	32.10	81	46	2	7	82	396603	396373	0.17	35.8
HVIT017153-PA	Scaffold434	32.73	55	33	2	8	62	442550	442702	0.17	35.8
HVIT017153-PA	Scaffold2622	32.10	81	46	2	7	82	77380	77610	0.17	35.8
HVIT017153-PA	Scaffold321	28.77	73	49	1	1	73	843073	843282	0.18	35.8
HVIT017153-PA	Scaffold459	30.30	66	43	1	8	73	127843	128031	0.19	35.8
HVIT017153-PA	Scaffold41908	39.39	66	32	4	12	76	1750	1574	0.20	35.4
HVIT017153-PA	Scaffold232	30.14	73	48	1	1	73	164559	164768	0.20	35.8
HVIT017153-PA	Scaffold232	25.32	79	56	1	3	81	465695	465468	8.4	30.8
HVIT017153-PA	Scaffold144	40.00	50	26	2	13	62	289690	289827	0.21	35.4
HVIT017153-PA	Scaffold535	40.00	50	26	2	13	62	119590	119727	0.21	35.4
HVIT017153-PA	Scaffold183	36.96	46	26	1	1	46	1981107	1981235	0.22	32.7
HVIT017153-PA	Scaffold183	34.78	23	15	0	51	73	1981247	1981315	0.22	22.3
HVIT017153-PA	Scaffold183	48.78	41	17	2	22	62	1646043	1645933	6.0	31.2
HVIT017153-PA	Scaffold394	29.41	68	45	1	7	74	611864	611670	0.25	35.4
HVIT017153-PA	Scaffold19	33.33	60	34	3	11	69	1644993	1644829	0.26	35.4
HVIT017153-PA	Scaffold19	30.51	59	37	2	11	69	1646240	1646076	7.8	30.8
HVIT017153-PA	Scaffold555	30.14	73	46	2	1	72	752238	752032	0.27	35.4
HVIT017153-PA	Scaffold2681	32.20	59	36	2	8	66	53536	53700	0.29	35.0
HVIT017153-PA	Scaffold31994	33.33	66	41	1	8	73	8384	8196	0.29	35.0
HVIT017153-PA	Scaffold1899	58.33	36	10	2	39	74	191065	191157	0.31	35.0
HVIT017153-PA	Scaffold290	30.00	80	51	3	3	81	1567057	1567284	0.31	35.0
HVIT017153-PA	Scaffold1198	30.00	80	51	3	3	81	554349	554122	0.31	35.0
HVIT017153-PA	Scaffold474	38.00	50	27	2	13	62	665807	665944	0.33	35.0
HVIT017153-PA	Scaffold474	31.67	60	37	2	3	62	694506	694339	3.7	32.0
HVIT017153-PA	Scaffold239	30.00	60	39	1	3	62	95495	95665	0.33	35.0
HVIT017153-PA	Scaffold83	28.77	73	49	1	1	73	993791	994000	0.34	35.0
HVIT017153-PA	Scaffold83	32.76	58	35	2	13	70	924932	925093	1.6	33.1
HVIT017153-PA	Scaffold578	29.17	72	48	1	3	74	1697841	1698047	0.35	35.0
HVIT017153-PA	Scaffold281	34.48	58	34	2	13	70	285804	285965	0.36	35.0
HVIT017153-PA	Scaffold154	38.33	60	32	2	8	66	795019	795186	0.37	34.7
HVIT017153-PA	Scaffold175	36.99	73	34	4	5	73	307537	307343	0.38	34.7
HVIT017153-PA	Scaffold175	27.50	80	53	2	3	81	3878060	3877833	4.0	32.0
HVIT017153-PA	Scaffold572	32.10	81	46	2	7	82	1667012	1667242	0.40	34.7
HVIT017153-PA	Scaffold572	38.00	50	27	2	13	62	1991006	1991143	0.90	33.9
HVIT017153-PA	Scaffold11846	29.85	67	44	1	1	67	10489	10298	0.41	34.7
HVIT017153-PA	Scaffold62	27.85	79	54	1	3	81	2852651	2852424	0.43	34.7
HVIT017153-PA	Scaffold62	31.46	89	51	4	11	93	1859687	1859433	0.54	34.3
HVIT017153-PA	Scaffold48564	33.33	81	45	3	7	82	736	966	0.44	34.3
HVIT017153-PA	Scaffold388	28.75	80	52	3	3	81	1446578	1446805	0.44	34.7
HVIT017153-PA	Scaffold472	36.07	61	32	4	15	73	835485	835318	0.45	34.7
HVIT017153-PA	Scaffold24643	29.23	65	43	1	9	73	1598	1413	0.53	34.3
HVIT017153-PA	Scaffold29	33.33	72	43	2	11	81	3674264	3674467	0.53	34.3
HVIT017153-PA	Scaffold29	26.09	92	59	2	6	92	1261258	1260995	7.6	31.2
HVIT017153-PA	Scaffold54	32.79	61	37	2	9	69	2597335	2597165	0.57	34.3
HVIT017153-PA	Scaffold54	27.36	106	67	4	3	106	164477	164184	0.77	33.9
HVIT017153-PA	Scaffold54	26.04	96	60	2	3	90	2908762	2909040	2.0	32.7
HVIT017153-PA	Scaffold813	38.71	62	29	2	7	63	245887	246060	0.60	34.3
HVIT017153-PA	Scaffold330	41.18	51	24	3	13	62	781631	781768	0.67	33.9
HVIT017153-PA	Scaffold373	30.30	66	43	1	2	67	572329	572141	0.68	33.9
HVIT017153-PA	Scaffold373	39.47	38	22	1	32	69	180394	180504	7.9	30.8
HVIT017153-PA	Scaffold85	31.75	63	37	3	8	69	903312	903139	0.69	33.9
HVIT017153-PA	Scaffold137	58.06	31	9	1	32	62	1199838	1199918	0.69	33.9
HVIT017153-PA	Scaffold761	30.65	62	43	0	32	93	558258	558073	0.71	33.9
HVIT017153-PA	Scaffold51697	36.17	47	30	0	27	73	287	147	0.74	33.9
HVIT017153-PA	Scaffold123	29.17	72	48	1	3	74	562247	562041	0.75	33.9
HVIT017153-PA	Scaffold801	31.67	60	37	2	10	69	107309	107476	0.76	33.9
HVIT017153-PA	Scaffold692	26.32	76	53	1	8	83	427744	427962	0.80	33.9
HVIT017153-PA	Scaffold858	36.54	52	33	0	30	81	347771	347616	0.81	33.9
HVIT017153-PA	Scaffold56	34.38	64	36	3	13	75	1665917	1665741	0.82	33.9
HVIT017153-PA	Scaffold994	38.00	50	27	2	13	62	16820	16683	0.83	33.9
HVIT017153-PA	Scaffold994	32.10	81	46	2	7	82	328442	328672	7.7	31.2
HVIT017153-PA	Scaffold93	39.66	58	31	2	3	60	1152437	1152276	0.87	33.9
HVIT017153-PA	Scaffold79	26.17	107	71	4	3	105	2355860	2355552	0.89	33.9
HVIT017153-PA	Scaffold34	38.00	50	27	2	13	62	250732	250869	0.89	33.9
HVIT017153-PA	Scaffold2302	32.10	81	46	2	7	82	59913	59683	0.90	33.9
HVIT017153-PA	Scaffold100	36.21	58	32	2	12	69	190037	190195	0.92	33.5
HVIT017153-PA	Scaffold465	33.33	57	34	2	13	69	1126432	1126274	0.93	33.5
HVIT017153-PA	Scaffold186	36.54	52	30	1	11	62	751809	751955	0.95	33.5
HVIT017153-PA	Scaffold186	26.03	73	51	1	1	73	1120782	1120991	1.3	33.1
HVIT017153-PA	Scaffold11634	36.00	50	28	2	13	62	10239	10376	0.96	33.5
HVIT017153-PA	Scaffold327	38.00	50	27	2	13	62	1390581	1390444	0.97	33.5
HVIT017153-PA	Scaffold492	31.25	80	50	2	11	89	1072642	1072869	0.98	33.5
HVIT017153-PA	Scaffold22	58.06	31	12	1	32	62	2268648	2268737	1.0	33.5
HVIT017153-PA	Scaffold195	26.32	95	63	2	3	93	1338512	1338787	1.0	33.5
HVIT017153-PA	Scaffold41	33.33	63	36	3	8	69	1255823	1255996	1.0	33.5
HVIT017153-PA	Scaffold41	28.77	73	49	1	1	73	2358168	2357959	1.2	33.5
HVIT017153-PA	Scaffold41	40.00	55	29	2	8	62	411669	411821	2.6	32.3
HVIT017153-PA	Scaffold530	33.33	72	43	2	11	81	555144	555347	1.1	33.5
HVIT017153-PA	Scaffold1327	34.69	49	32	0	3	51	43004	43150	1.1	33.5
HVIT017153-PA	Scaffold142	42.11	38	21	1	32	69	1950194	1950084	1.1	33.5
HVIT017153-PA	Scaffold228	31.94	72	44	3	3	73	407850	408053	1.1	33.5
HVIT017153-PA	Scaffold31	27.40	73	50	1	1	73	1159196	1159405	1.1	33.5
HVIT017153-PA	Scaffold424	31.94	72	44	2	11	81	998344	998141	1.1	33.5
HVIT017153-PA	Scaffold479	36.67	60	34	2	3	62	1581064	1580897	1.1	33.5
HVIT017153-PA	Scaffold173	30.00	80	51	3	3	81	130370	130597	1.1	33.5
HVIT017153-PA	Scaffold3170	60.71	28	10	1	35	62	51745	51665	1.2	33.1
HVIT017153-PA	Scaffold55316	29.69	64	42	1	10	73	533	715	1.2	33.1
HVIT017153-PA	Scaffold44409	38.10	42	26	0	32	73	1170	1295	1.2	33.1
HVIT017153-PA	Scaffold258	30.14	73	46	3	3	74	1290571	1290365	1.3	33.1
HVIT017153-PA	Scaffold550	38.64	44	27	0	30	73	452772	452903	1.3	33.1
HVIT017153-PA	Scaffold550	38.64	44	27	0	30	73	441481	441612	2.7	32.3
HVIT017153-PA	Scaffold3101	38.71	62	29	2	7	63	51077	51250	1.3	33.1
HVIT017153-PA	Scaffold34034	36.00	50	29	1	13	62	6212	6352	1.3	33.1
HVIT017153-PA	Scaffold444	30.00	80	51	3	3	81	80125	80352	1.3	33.1
HVIT017153-PA	Scaffold3379	29.47	95	47	4	15	93	9894	10166	1.3	33.1
HVIT017153-PA	Scaffold1760	27.78	72	49	1	1	72	265502	265708	1.3	33.1
HVIT017153-PA	Scaffold172	27.85	79	54	1	3	81	261634	261861	1.4	33.1
HVIT017153-PA	Scaffold1479	38.18	55	30	1	7	61	506840	506688	1.4	33.1
HVIT017153-PA	Scaffold980	31.82	44	30	0	30	73	411067	410936	1.4	33.1
HVIT017153-PA	Scaffold21	38.00	50	27	2	13	62	3129535	3129672	1.4	33.1
HVIT017153-PA	Scaffold21	30.00	80	50	3	11	90	380853	381074	2.4	32.3
HVIT017153-PA	Scaffold69	31.34	67	42	2	3	69	2520397	2520585	1.5	33.1
HVIT017153-PA	Scaffold69	30.56	72	45	3	3	73	3036505	3036302	6.3	31.2
HVIT017153-PA	Scaffold468	38.10	42	25	1	32	73	1269650	1269772	1.5	33.1
HVIT017153-PA	Scaffold158	30.99	71	44	3	13	82	656432	656632	1.5	33.1
HVIT017153-PA	Scaffold1475	31.51	73	45	2	3	74	453128	453334	1.6	33.1
HVIT017153-PA	Scaffold45384	30.86	81	47	2	7	82	1055	825	1.7	32.7
HVIT017153-PA	Scaffold1365	34.29	70	43	3	5	74	120512	120312	1.7	32.7
HVIT017153-PA	Scaffold313	38.10	42	26	0	32	73	376527	376402	1.7	32.7
HVIT017153-PA	Scaffold345	26.03	73	51	1	1	73	1222581	1222790	1.8	32.7
HVIT017153-PA	Scaffold59947	37.93	58	34	2	27	83	887	717	1.8	32.7
HVIT017153-PA	Scaffold2723	43.40	53	19	3	7	57	46424	46555	1.8	32.7
HVIT017153-PA	Scaffold31445	38.10	42	26	0	32	73	801	926	1.8	32.7
HVIT017153-PA	Scaffold31138	31.48	54	37	0	30	83	8	169	1.9	32.7
HVIT017153-PA	Scaffold72	32.76	58	35	2	13	70	2968190	2968351	1.9	32.7
HVIT017153-PA	Scaffold685	30.86	81	47	2	7	82	1171905	1171675	1.9	32.7
HVIT017153-PA	Scaffold685	29.41	68	46	2	15	81	900701	900901	9.8	30.8
HVIT017153-PA	Scaffold40	29.58	71	47	1	11	81	1749252	1749455	2.0	32.7
HVIT017153-PA	Scaffold182	28.75	80	52	3	3	81	1928397	1928624	2.0	32.7
HVIT017153-PA	Scaffold1328	30.56	72	45	2	11	81	65713	65510	2.1	32.7
HVIT017153-PA	Scaffold160	30.00	80	51	3	3	81	2244984	2244757	2.1	32.7
HVIT017153-PA	Scaffold519	32.10	81	46	3	7	82	740478	740708	2.1	32.7
HVIT017153-PA	Scaffold12006	26.74	86	58	3	10	93	30778	31026	2.2	32.7
HVIT017153-PA	Scaffold1012	39.47	38	22	1	32	69	31797	31907	2.2	32.7
HVIT017153-PA	Scaffold84	42.86	49	21	2	35	77	787573	787430	2.3	32.3
HVIT017153-PA	Scaffold295	36.96	46	27	2	30	74	907765	907899	2.3	32.3
HVIT017153-PA	Scaffold503	35.94	64	36	2	11	73	904191	904370	2.3	32.3
HVIT017153-PA	Scaffold319	40.00	50	26	2	13	62	81307	81444	2.3	32.3
HVIT017153-PA	Scaffold319	29.85	67	44	1	2	68	307392	307583	7.2	31.2
HVIT017153-PA	Scaffold48	30.68	88	55	2	3	90	3163081	3163326	2.5	32.3
HVIT017153-PA	Scaffold456	29.69	64	40	2	11	73	67155	66976	2.6	32.3
HVIT017153-PA	Scaffold2677	38.00	50	27	2	13	62	5758	5895	2.7	32.3
HVIT017153-PA	Scaffold1710	27.40	73	50	1	1	73	12150	12359	2.7	32.3
HVIT017153-PA	Scaffold272	40.38	52	27	2	11	62	432004	431861	2.7	32.3
HVIT017153-PA	Scaffold208	32.26	62	38	2	8	69	853208	853035	2.7	32.3
HVIT017153-PA	Scaffold496	48.65	37	18	1	32	68	453155	453048	3.0	32.3
HVIT017153-PA	Scaffold551	31.15	61	39	1	8	68	1232443	1232270	3.1	32.0
HVIT017153-PA	Scaffold214	30.91	55	35	1	8	62	2983655	2983810	3.2	32.0
HVIT017153-PA	Scaffold452	24.07	108	75	4	3	107	158185	158496	3.3	32.0
HVIT017153-PA	Scaffold140	36.00	50	28	2	13	62	615727	615590	3.3	32.0
HVIT017153-PA	Scaffold10	28.79	66	43	2	3	68	2387602	2387787	3.3	32.0
HVIT017153-PA	Scaffold252	30.88	68	43	2	3	70	1510490	1510299	3.4	32.0
HVIT017153-PA	Scaffold8752	38.46	39	24	0	35	73	1740	1624	3.4	32.0
HVIT017153-PA	Scaffold471	41.86	43	21	1	30	72	482889	483005	3.6	32.0
HVIT017153-PA	Scaffold199	37.25	51	30	2	13	62	2136641	2136790	3.6	32.0
HVIT017153-PA	Scaffold1907	39.62	53	26	3	11	62	52438	52295	3.9	32.0
HVIT017153-PA	Scaffold358	28.79	66	44	1	8	73	146782	146970	3.9	32.0
HVIT017153-PA	Scaffold112	29.63	81	48	2	7	82	61057	61287	3.9	32.0
HVIT017153-PA	Scaffold11139	28.79	66	43	2	3	68	14869	14684	3.9	32.0
HVIT017153-PA	Scaffold45328	36.00	50	28	2	13	62	836	973	4.0	31.6
HVIT017153-PA	Scaffold537	34.48	58	33	1	30	82	1429554	1429381	4.0	32.0
HVIT017153-PA	Scaffold596	34.48	58	32	3	13	69	324093	323935	4.4	31.6
HVIT017153-PA	Scaffold669	28.17	71	48	1	12	82	102124	101921	4.5	31.6
HVIT017153-PA	Scaffold776	51.61	31	14	1	32	62	609105	609194	4.7	31.6
HVIT017153-PA	Scaffold1213	34.38	64	37	2	11	73	74920	74741	5.0	31.6
HVIT017153-PA	Scaffold6	36.00	50	28	2	13	62	3585332	3585195	5.2	31.6
HVIT017153-PA	Scaffold202	33.33	63	36	2	15	77	979603	979773	5.2	31.6
HVIT017153-PA	Scaffold96	28.77	73	47	3	10	81	1908641	1908847	5.2	31.6
HVIT017153-PA	Scaffold58193	30.00	60	38	2	3	62	435	602	5.2	31.2
HVIT017153-PA	Scaffold1066	37.84	37	23	0	37	73	353360	353470	5.3	31.6
HVIT017153-PA	Scaffold724	32.65	49	32	1	21	69	982175	982032	5.6	31.6
HVIT017153-PA	Scaffold411	31.51	73	45	3	3	74	1016929	1016723	5.6	31.6
HVIT017153-PA	Scaffold411	26.39	72	50	1	3	74	65113	65319	5.7	31.2
HVIT017153-PA	Scaffold194	37.50	40	24	1	30	69	308178	308294	5.8	31.2
HVIT017153-PA	Scaffold10787	27.96	93	45	2	9	86	5929	6186	5.8	31.2
HVIT017153-PA	Scaffold864	36.84	38	23	1	32	69	653423	653533	5.9	31.2
HVIT017153-PA	Scaffold428	28.21	78	50	2	10	83	1422281	1422054	6.1	31.2
HVIT017153-PA	Scaffold901	48.65	37	18	1	32	68	802593	802700	6.1	31.2
HVIT017153-PA	Scaffold19552	36.00	50	28	2	13	62	194	331	6.2	31.2
HVIT017153-PA	Scaffold8	37.25	51	27	2	13	62	353182	353322	6.3	31.2
HVIT017153-PA	Scaffold75	31.43	70	43	3	13	81	1342860	1343057	6.4	31.2
HVIT017153-PA	Scaffold38123	35.56	45	29	0	29	73	1204	1070	6.6	31.2
HVIT017153-PA	Scaffold433	25.25	99	63	2	3	93	1589983	1590270	6.7	31.2
HVIT017153-PA	Scaffold3508	28.57	63	39	2	3	62	18255	18434	6.7	31.2
HVIT017153-PA	Scaffold44086	29.09	55	35	2	8	62	1564	1412	6.9	31.2
HVIT017153-PA	Scaffold5371	27.69	65	44	1	10	74	32426	32611	7.0	31.2
HVIT017153-PA	Scaffold3118	42.00	50	26	1	35	84	18914	19054	7.1	31.2
HVIT017153-PA	Scaffold1312	33.96	53	32	1	38	90	596226	596077	7.1	31.2
HVIT017153-PA	Scaffold1661	35.42	48	31	0	32	79	146367	146224	7.2	31.2
HVIT017153-PA	Scaffold317	32.76	58	35	2	13	70	557371	557210	7.4	31.2
HVIT017153-PA	Scaffold68	31.15	61	42	0	32	92	1914806	1914624	7.5	31.2
HVIT017153-PA	Scaffold218	35.00	40	26	0	32	71	167269	167388	7.5	31.2
HVIT017153-PA	Scaffold198	39.47	38	23	0	36	73	779757	779644	7.5	31.2
HVIT017153-PA	Scaffold37	30.56	72	45	3	3	73	3878244	3878447	7.7	31.2
HVIT017153-PA	Scaffold256	31.58	57	35	2	13	69	156419	156261	7.7	30.8
HVIT017153-PA	Scaffold32	38.00	50	27	2	13	62	3594506	3594369	7.9	30.8
HVIT017153-PA	Scaffold1079	30.00	80	50	3	11	90	650963	651184	8.0	30.8
HVIT017153-PA	Scaffold316	30.51	59	38	1	15	73	600911	600744	8.1	30.8
HVIT017153-PA	Scaffold1014	48.39	31	15	1	32	62	223748	223659	8.1	30.8
HVIT017153-PA	Scaffold663	43.59	39	18	1	7	45	66562	66458	8.3	30.8
HVIT017153-PA	Scaffold2558	24.11	112	74	5	1	107	219566	219883	8.4	30.8
HVIT017153-PA	Scaffold730	26.80	97	59	3	5	93	230929	231207	8.8	30.8
HVIT017153-PA	Scaffold791	41.86	43	23	2	21	62	576274	576399	8.9	30.8
HVIT017153-PA	Scaffold722	37.50	48	26	2	15	62	330787	330656	8.9	30.8
HVIT017153-PA	Scaffold751	31.94	72	44	2	11	81	257264	257467	9.3	30.8
HVIT017153-PA	Scaffold455	26.39	72	50	1	3	74	311034	310828	9.9	30.8
HVIT019966-PA	Scaffold811	88.53	811	36	5	1	755	759292	761721	0.0	1345
HVIT019966-PA	Scaffold1258	52.17	69	33	0	338	406	73939	73733	4e-15	77.4
HVIT019966-PA	Scaffold1258	53.85	26	11	1	310	335	74106	74032	4e-15	29.6
HVIT019966-PA	Scaffold1258	40.35	57	34	0	190	246	76516	76346	1e-04	51.6
HVIT019966-PA	Scaffold1258	64.52	31	11	0	168	198	77809	77717	6e-04	49.3
HVIT019966-PA	Scaffold1258	32.31	65	44	0	246	310	75465	75271	0.001	48.5
HVIT019966-PA	Scaffold1258	35.38	65	40	2	387	450	73229	73038	1.3	38.5
HVIT019966-PA	Scaffold10755	50.77	65	32	0	38	102	361	167	9e-13	78.2
HVIT019966-PA	Scaffold2122	25.58	172	124	3	253	422	51281	50772	6e-09	65.9
HVIT019966-PA	Scaffold34620	18.78	181	131	5	239	409	1568	1044	6.6	36.2
HVIT024912-PA	Scaffold811	41.64	317	181	3	1	313	759655	760605	5e-75	259
HVIT024912-PA	Scaffold1258	94.74	57	3	0	211	267	73948	73778	5e-35	118
HVIT024912-PA	Scaffold1258	100.00	23	0	0	189	211	74100	74032	5e-35	53.9
HVIT024912-PA	Scaffold1258	98.48	66	1	0	123	188	75465	75268	1e-34	142
HVIT024912-PA	Scaffold1258	89.47	57	6	0	67	123	76516	76346	2e-24	111
HVIT024912-PA	Scaffold1258	90.91	55	5	0	20	74	77884	77720	2e-23	107
HVIT024912-PA	Scaffold1258	100.00	49	0	0	266	314	73220	73074	5e-22	103
HVIT024912-PA	Scaffold1258	86.67	30	4	0	1	30	78872	78783	5e-06	53.9
HVIT024912-PA	Scaffold325	32.31	65	39	3	12	72	691346	691155	5.9	34.7
HVIT024913-PA	Scaffold1258	71.43	70	14	1	62	131	97499	97308	2e-23	102
HVIT024913-PA	Scaffold1258	100.00	47	0	0	1	47	99190	99050	3e-22	99.4
HVIT024913-PA	Scaffold1258	97.50	40	1	0	48	87	98693	98574	3e-17	84.7
HVIT024913-PA	Scaffold811	28.57	105	71	2	21	124	759295	759600	6e-07	53.5
HVIT024913-PA	Scaffold10755	35.14	74	47	1	55	127	376	155	3e-06	51.2
HVIT024913-PA	Scaffold178	32.65	49	30	1	62	107	128853	128707	0.11	37.0
HVIT031404-PA	Scaffold811	44.62	762	378	5	2	721	759442	761721	0.0	663
HVIT031404-PA	Scaffold1258	61.11	54	21	0	289	342	73939	73778	2e-14	73.6
HVIT031404-PA	Scaffold1258	43.48	23	13	0	264	286	74100	74032	2e-14	30.4
HVIT031404-PA	Scaffold1258	37.88	66	41	0	198	263	75465	75268	2e-05	53.9
HVIT031404-PA	Scaffold1258	40.74	54	32	0	145	198	76507	76346	0.004	46.6
HVIT031404-PA	Scaffold1258	40.00	50	29	1	339	388	73226	73080	1.5	38.1
HVIT031404-PA	Scaffold10755	32.41	108	70	2	3	109	319	2	4e-10	69.3
HVIT031404-PA	Scaffold2122	20.32	379	267	13	205	558	51281	50175	4e-08	63.2
HVIT031404-PA	Scaffold3046	30.43	46	32	0	44	89	74672	74809	8.3	35.8
